ARM GAS  C:\Users\ORA\AppData\Local\Temp\cc4AyqZv.s 			page 1


   1              		.syntax unified
   2              		.cpu cortex-m0
   3              		.fpu softvfp
   4              		.eabi_attribute 20, 1
   5              		.eabi_attribute 21, 1
   6              		.eabi_attribute 23, 3
   7              		.eabi_attribute 24, 1
   8              		.eabi_attribute 25, 1
   9              		.eabi_attribute 26, 1
  10              		.eabi_attribute 30, 1
  11              		.eabi_attribute 34, 0
  12              		.eabi_attribute 18, 4
  13              		.thumb
  14              		.syntax unified
  15              		.file	"main.c"
  16              		.text
  17              	.Ltext0:
  18              		.cfi_sections	.debug_frame
  19              		.section	.text.main,"ax",%progbits
  20              		.align	2
  21              		.global	main
  22              		.code	16
  23              		.thumb_func
  24              		.type	main, %function
  25              	main:
  26              	.LFB35:
  27              		.file 1 "main.c"
   1:main.c        **** /* ========================================
   2:main.c        ****  *
   3:main.c        ****  * Copyright YOUR COMPANY, THE YEAR
   4:main.c        ****  * All Rights Reserved
   5:main.c        ****  * UNPUBLISHED, LICENSED SOFTWARE.
   6:main.c        ****  *
   7:main.c        ****  * CONFIDENTIAL AND PROPRIETARY INFORMATION
   8:main.c        ****  * WHICH IS THE PROPERTY OF your company.
   9:main.c        ****  *
  10:main.c        ****  * ========================================
  11:main.c        **** */
  12:main.c        **** #include "project.h"
  13:main.c        **** uint32 intecety = 0;
  14:main.c        **** 
  15:main.c        **** int main(void)
  16:main.c        **** {
  28              		.loc 1 16 0
  29              		.cfi_startproc
  30              		@ Volatile: function does not return.
  31              		@ args = 0, pretend = 0, frame = 0
  32              		@ frame_needed = 0, uses_anonymous_args = 0
  33 0000 10B5     		push	{r4, lr}
  34              		.cfi_def_cfa_offset 8
  35              		.cfi_offset 4, -8
  36              		.cfi_offset 14, -4
  17:main.c        ****     CyGlobalIntEnable; /* Enable global interrupts. */
  37              		.loc 1 17 0
  38              		.syntax divided
  39              	@ 17 "main.c" 1
  40 0002 62B6     		CPSIE   i
ARM GAS  C:\Users\ORA\AppData\Local\Temp\cc4AyqZv.s 			page 2


  41              	@ 0 "" 2
  18:main.c        ****     LED_PWM_Start();
  42              		.loc 1 18 0
  43              		.thumb
  44              		.syntax unified
  45 0004 FFF7FEFF 		bl	LED_PWM_Start
  46              	.LVL0:
  47              	.L3:
  19:main.c        ****     for(;;){
  20:main.c        ****         LED_PWM_WriteCompare(intecety++);       
  48              		.loc 1 20 0
  49 0008 084C     		ldr	r4, .L4
  50 000a 2068     		ldr	r0, [r4]
  51 000c 431C     		adds	r3, r0, #1
  52 000e 2360     		str	r3, [r4]
  53 0010 FFF7FEFF 		bl	LED_PWM_WriteCompare
  54              	.LVL1:
  21:main.c        ****         if (intecety > 10000){
  55              		.loc 1 21 0
  56 0014 2268     		ldr	r2, [r4]
  57 0016 064B     		ldr	r3, .L4+4
  58 0018 9A42     		cmp	r2, r3
  59 001a 02D9     		bls	.L2
  22:main.c        ****            intecety = 0; 
  60              		.loc 1 22 0
  61 001c 0022     		movs	r2, #0
  62 001e 034B     		ldr	r3, .L4
  63 0020 1A60     		str	r2, [r3]
  64              	.L2:
  23:main.c        ****         }
  24:main.c        ****         CyDelay(1);
  65              		.loc 1 24 0
  66 0022 0120     		movs	r0, #1
  67 0024 FFF7FEFF 		bl	CyDelay
  68              	.LVL2:
  25:main.c        ****     }
  69              		.loc 1 25 0
  70 0028 EEE7     		b	.L3
  71              	.L5:
  72 002a C046     		.align	2
  73              	.L4:
  74 002c 00000000 		.word	.LANCHOR0
  75 0030 10270000 		.word	10000
  76              		.cfi_endproc
  77              	.LFE35:
  78              		.size	main, .-main
  79              		.global	intecety
  80              		.bss
  81              		.align	2
  82              		.set	.LANCHOR0,. + 0
  83              		.type	intecety, %object
  84              		.size	intecety, 4
  85              	intecety:
  86 0000 00000000 		.space	4
  87              		.text
  88              	.Letext0:
  89              		.file 2 "Generated_Source\\PSoC4/LED_PWM.h"
ARM GAS  C:\Users\ORA\AppData\Local\Temp\cc4AyqZv.s 			page 3


  90              		.file 3 "Generated_Source\\PSoC4/CyLib.h"
  91              		.file 4 "Generated_Source\\PSoC4/cytypes.h"
  92              		.section	.debug_info,"",%progbits
  93              	.Ldebug_info0:
  94 0000 06010000 		.4byte	0x106
  95 0004 0400     		.2byte	0x4
  96 0006 00000000 		.4byte	.Ldebug_abbrev0
  97 000a 04       		.byte	0x4
  98 000b 01       		.uleb128 0x1
  99 000c 13010000 		.4byte	.LASF17
 100 0010 0C       		.byte	0xc
 101 0011 30000000 		.4byte	.LASF18
 102 0015 AD000000 		.4byte	.LASF19
 103 0019 00000000 		.4byte	.Ldebug_ranges0+0
 104 001d 00000000 		.4byte	0
 105 0021 00000000 		.4byte	.Ldebug_line0
 106 0025 02       		.uleb128 0x2
 107 0026 01       		.byte	0x1
 108 0027 06       		.byte	0x6
 109 0028 B4010000 		.4byte	.LASF0
 110 002c 02       		.uleb128 0x2
 111 002d 01       		.byte	0x1
 112 002e 08       		.byte	0x8
 113 002f 91000000 		.4byte	.LASF1
 114 0033 02       		.uleb128 0x2
 115 0034 02       		.byte	0x2
 116 0035 05       		.byte	0x5
 117 0036 CC010000 		.4byte	.LASF2
 118 003a 02       		.uleb128 0x2
 119 003b 02       		.byte	0x2
 120 003c 07       		.byte	0x7
 121 003d A1010000 		.4byte	.LASF3
 122 0041 02       		.uleb128 0x2
 123 0042 04       		.byte	0x4
 124 0043 05       		.byte	0x5
 125 0044 A4000000 		.4byte	.LASF4
 126 0048 02       		.uleb128 0x2
 127 0049 04       		.byte	0x4
 128 004a 07       		.byte	0x7
 129 004b 44000000 		.4byte	.LASF5
 130 004f 02       		.uleb128 0x2
 131 0050 08       		.byte	0x8
 132 0051 05       		.byte	0x5
 133 0052 00000000 		.4byte	.LASF6
 134 0056 02       		.uleb128 0x2
 135 0057 08       		.byte	0x8
 136 0058 07       		.byte	0x7
 137 0059 56000000 		.4byte	.LASF7
 138 005d 03       		.uleb128 0x3
 139 005e 04       		.byte	0x4
 140 005f 05       		.byte	0x5
 141 0060 696E7400 		.ascii	"int\000"
 142 0064 02       		.uleb128 0x2
 143 0065 04       		.byte	0x4
 144 0066 07       		.byte	0x7
 145 0067 23000000 		.4byte	.LASF8
 146 006b 04       		.uleb128 0x4
ARM GAS  C:\Users\ORA\AppData\Local\Temp\cc4AyqZv.s 			page 4


 147 006c 0E000000 		.4byte	.LASF20
 148 0070 04       		.byte	0x4
 149 0071 E801     		.2byte	0x1e8
 150 0073 48000000 		.4byte	0x48
 151 0077 02       		.uleb128 0x2
 152 0078 04       		.byte	0x4
 153 0079 04       		.byte	0x4
 154 007a 6D000000 		.4byte	.LASF9
 155 007e 02       		.uleb128 0x2
 156 007f 08       		.byte	0x8
 157 0080 04       		.byte	0x4
 158 0081 0C010000 		.4byte	.LASF10
 159 0085 02       		.uleb128 0x2
 160 0086 01       		.byte	0x1
 161 0087 08       		.byte	0x8
 162 0088 9F000000 		.4byte	.LASF11
 163 008c 02       		.uleb128 0x2
 164 008d 08       		.byte	0x8
 165 008e 04       		.byte	0x4
 166 008f C0010000 		.4byte	.LASF12
 167 0093 02       		.uleb128 0x2
 168 0094 04       		.byte	0x4
 169 0095 07       		.byte	0x7
 170 0096 D6010000 		.4byte	.LASF13
 171 009a 05       		.uleb128 0x5
 172 009b 37000000 		.4byte	.LASF21
 173 009f 01       		.byte	0x1
 174 00a0 0F       		.byte	0xf
 175 00a1 5D000000 		.4byte	0x5d
 176 00a5 00000000 		.4byte	.LFB35
 177 00a9 34000000 		.4byte	.LFE35-.LFB35
 178 00ad 01       		.uleb128 0x1
 179 00ae 9C       		.byte	0x9c
 180 00af D5000000 		.4byte	0xd5
 181 00b3 06       		.uleb128 0x6
 182 00b4 08000000 		.4byte	.LVL0
 183 00b8 E6000000 		.4byte	0xe6
 184 00bc 06       		.uleb128 0x6
 185 00bd 14000000 		.4byte	.LVL1
 186 00c1 F2000000 		.4byte	0xf2
 187 00c5 07       		.uleb128 0x7
 188 00c6 28000000 		.4byte	.LVL2
 189 00ca FE000000 		.4byte	0xfe
 190 00ce 08       		.uleb128 0x8
 191 00cf 01       		.uleb128 0x1
 192 00d0 50       		.byte	0x50
 193 00d1 01       		.uleb128 0x1
 194 00d2 31       		.byte	0x31
 195 00d3 00       		.byte	0
 196 00d4 00       		.byte	0
 197 00d5 09       		.uleb128 0x9
 198 00d6 73000000 		.4byte	.LASF22
 199 00da 01       		.byte	0x1
 200 00db 0D       		.byte	0xd
 201 00dc 6B000000 		.4byte	0x6b
 202 00e0 05       		.uleb128 0x5
 203 00e1 03       		.byte	0x3
ARM GAS  C:\Users\ORA\AppData\Local\Temp\cc4AyqZv.s 			page 5


 204 00e2 00000000 		.4byte	intecety
 205 00e6 0A       		.uleb128 0xa
 206 00e7 15000000 		.4byte	.LASF14
 207 00eb 15000000 		.4byte	.LASF14
 208 00ef 02       		.byte	0x2
 209 00f0 3201     		.2byte	0x132
 210 00f2 0A       		.uleb128 0xa
 211 00f3 7C000000 		.4byte	.LASF15
 212 00f7 7C000000 		.4byte	.LASF15
 213 00fb 02       		.byte	0x2
 214 00fc 5501     		.2byte	0x155
 215 00fe 0B       		.uleb128 0xb
 216 00ff 3C000000 		.4byte	.LASF16
 217 0103 3C000000 		.4byte	.LASF16
 218 0107 03       		.byte	0x3
 219 0108 D9       		.byte	0xd9
 220 0109 00       		.byte	0
 221              		.section	.debug_abbrev,"",%progbits
 222              	.Ldebug_abbrev0:
 223 0000 01       		.uleb128 0x1
 224 0001 11       		.uleb128 0x11
 225 0002 01       		.byte	0x1
 226 0003 25       		.uleb128 0x25
 227 0004 0E       		.uleb128 0xe
 228 0005 13       		.uleb128 0x13
 229 0006 0B       		.uleb128 0xb
 230 0007 03       		.uleb128 0x3
 231 0008 0E       		.uleb128 0xe
 232 0009 1B       		.uleb128 0x1b
 233 000a 0E       		.uleb128 0xe
 234 000b 55       		.uleb128 0x55
 235 000c 17       		.uleb128 0x17
 236 000d 11       		.uleb128 0x11
 237 000e 01       		.uleb128 0x1
 238 000f 10       		.uleb128 0x10
 239 0010 17       		.uleb128 0x17
 240 0011 00       		.byte	0
 241 0012 00       		.byte	0
 242 0013 02       		.uleb128 0x2
 243 0014 24       		.uleb128 0x24
 244 0015 00       		.byte	0
 245 0016 0B       		.uleb128 0xb
 246 0017 0B       		.uleb128 0xb
 247 0018 3E       		.uleb128 0x3e
 248 0019 0B       		.uleb128 0xb
 249 001a 03       		.uleb128 0x3
 250 001b 0E       		.uleb128 0xe
 251 001c 00       		.byte	0
 252 001d 00       		.byte	0
 253 001e 03       		.uleb128 0x3
 254 001f 24       		.uleb128 0x24
 255 0020 00       		.byte	0
 256 0021 0B       		.uleb128 0xb
 257 0022 0B       		.uleb128 0xb
 258 0023 3E       		.uleb128 0x3e
 259 0024 0B       		.uleb128 0xb
 260 0025 03       		.uleb128 0x3
ARM GAS  C:\Users\ORA\AppData\Local\Temp\cc4AyqZv.s 			page 6


 261 0026 08       		.uleb128 0x8
 262 0027 00       		.byte	0
 263 0028 00       		.byte	0
 264 0029 04       		.uleb128 0x4
 265 002a 16       		.uleb128 0x16
 266 002b 00       		.byte	0
 267 002c 03       		.uleb128 0x3
 268 002d 0E       		.uleb128 0xe
 269 002e 3A       		.uleb128 0x3a
 270 002f 0B       		.uleb128 0xb
 271 0030 3B       		.uleb128 0x3b
 272 0031 05       		.uleb128 0x5
 273 0032 49       		.uleb128 0x49
 274 0033 13       		.uleb128 0x13
 275 0034 00       		.byte	0
 276 0035 00       		.byte	0
 277 0036 05       		.uleb128 0x5
 278 0037 2E       		.uleb128 0x2e
 279 0038 01       		.byte	0x1
 280 0039 3F       		.uleb128 0x3f
 281 003a 19       		.uleb128 0x19
 282 003b 03       		.uleb128 0x3
 283 003c 0E       		.uleb128 0xe
 284 003d 3A       		.uleb128 0x3a
 285 003e 0B       		.uleb128 0xb
 286 003f 3B       		.uleb128 0x3b
 287 0040 0B       		.uleb128 0xb
 288 0041 27       		.uleb128 0x27
 289 0042 19       		.uleb128 0x19
 290 0043 49       		.uleb128 0x49
 291 0044 13       		.uleb128 0x13
 292 0045 8701     		.uleb128 0x87
 293 0047 19       		.uleb128 0x19
 294 0048 11       		.uleb128 0x11
 295 0049 01       		.uleb128 0x1
 296 004a 12       		.uleb128 0x12
 297 004b 06       		.uleb128 0x6
 298 004c 40       		.uleb128 0x40
 299 004d 18       		.uleb128 0x18
 300 004e 9742     		.uleb128 0x2117
 301 0050 19       		.uleb128 0x19
 302 0051 01       		.uleb128 0x1
 303 0052 13       		.uleb128 0x13
 304 0053 00       		.byte	0
 305 0054 00       		.byte	0
 306 0055 06       		.uleb128 0x6
 307 0056 898201   		.uleb128 0x4109
 308 0059 00       		.byte	0
 309 005a 11       		.uleb128 0x11
 310 005b 01       		.uleb128 0x1
 311 005c 31       		.uleb128 0x31
 312 005d 13       		.uleb128 0x13
 313 005e 00       		.byte	0
 314 005f 00       		.byte	0
 315 0060 07       		.uleb128 0x7
 316 0061 898201   		.uleb128 0x4109
 317 0064 01       		.byte	0x1
ARM GAS  C:\Users\ORA\AppData\Local\Temp\cc4AyqZv.s 			page 7


 318 0065 11       		.uleb128 0x11
 319 0066 01       		.uleb128 0x1
 320 0067 31       		.uleb128 0x31
 321 0068 13       		.uleb128 0x13
 322 0069 00       		.byte	0
 323 006a 00       		.byte	0
 324 006b 08       		.uleb128 0x8
 325 006c 8A8201   		.uleb128 0x410a
 326 006f 00       		.byte	0
 327 0070 02       		.uleb128 0x2
 328 0071 18       		.uleb128 0x18
 329 0072 9142     		.uleb128 0x2111
 330 0074 18       		.uleb128 0x18
 331 0075 00       		.byte	0
 332 0076 00       		.byte	0
 333 0077 09       		.uleb128 0x9
 334 0078 34       		.uleb128 0x34
 335 0079 00       		.byte	0
 336 007a 03       		.uleb128 0x3
 337 007b 0E       		.uleb128 0xe
 338 007c 3A       		.uleb128 0x3a
 339 007d 0B       		.uleb128 0xb
 340 007e 3B       		.uleb128 0x3b
 341 007f 0B       		.uleb128 0xb
 342 0080 49       		.uleb128 0x49
 343 0081 13       		.uleb128 0x13
 344 0082 3F       		.uleb128 0x3f
 345 0083 19       		.uleb128 0x19
 346 0084 02       		.uleb128 0x2
 347 0085 18       		.uleb128 0x18
 348 0086 00       		.byte	0
 349 0087 00       		.byte	0
 350 0088 0A       		.uleb128 0xa
 351 0089 2E       		.uleb128 0x2e
 352 008a 00       		.byte	0
 353 008b 3F       		.uleb128 0x3f
 354 008c 19       		.uleb128 0x19
 355 008d 3C       		.uleb128 0x3c
 356 008e 19       		.uleb128 0x19
 357 008f 6E       		.uleb128 0x6e
 358 0090 0E       		.uleb128 0xe
 359 0091 03       		.uleb128 0x3
 360 0092 0E       		.uleb128 0xe
 361 0093 3A       		.uleb128 0x3a
 362 0094 0B       		.uleb128 0xb
 363 0095 3B       		.uleb128 0x3b
 364 0096 05       		.uleb128 0x5
 365 0097 00       		.byte	0
 366 0098 00       		.byte	0
 367 0099 0B       		.uleb128 0xb
 368 009a 2E       		.uleb128 0x2e
 369 009b 00       		.byte	0
 370 009c 3F       		.uleb128 0x3f
 371 009d 19       		.uleb128 0x19
 372 009e 3C       		.uleb128 0x3c
 373 009f 19       		.uleb128 0x19
 374 00a0 6E       		.uleb128 0x6e
ARM GAS  C:\Users\ORA\AppData\Local\Temp\cc4AyqZv.s 			page 8


 375 00a1 0E       		.uleb128 0xe
 376 00a2 03       		.uleb128 0x3
 377 00a3 0E       		.uleb128 0xe
 378 00a4 3A       		.uleb128 0x3a
 379 00a5 0B       		.uleb128 0xb
 380 00a6 3B       		.uleb128 0x3b
 381 00a7 0B       		.uleb128 0xb
 382 00a8 00       		.byte	0
 383 00a9 00       		.byte	0
 384 00aa 00       		.byte	0
 385              		.section	.debug_aranges,"",%progbits
 386 0000 1C000000 		.4byte	0x1c
 387 0004 0200     		.2byte	0x2
 388 0006 00000000 		.4byte	.Ldebug_info0
 389 000a 04       		.byte	0x4
 390 000b 00       		.byte	0
 391 000c 0000     		.2byte	0
 392 000e 0000     		.2byte	0
 393 0010 00000000 		.4byte	.LFB35
 394 0014 34000000 		.4byte	.LFE35-.LFB35
 395 0018 00000000 		.4byte	0
 396 001c 00000000 		.4byte	0
 397              		.section	.debug_ranges,"",%progbits
 398              	.Ldebug_ranges0:
 399 0000 00000000 		.4byte	.LFB35
 400 0004 34000000 		.4byte	.LFE35
 401 0008 00000000 		.4byte	0
 402 000c 00000000 		.4byte	0
 403              		.section	.debug_line,"",%progbits
 404              	.Ldebug_line0:
 405 0000 75000000 		.section	.debug_str,"MS",%progbits,1
 405      02005900 
 405      00000201 
 405      FB0E0D00 
 405      01010101 
 406              	.LASF6:
 407 0000 6C6F6E67 		.ascii	"long long int\000"
 407      206C6F6E 
 407      6720696E 
 407      7400
 408              	.LASF20:
 409 000e 75696E74 		.ascii	"uint32\000"
 409      333200
 410              	.LASF14:
 411 0015 4C45445F 		.ascii	"LED_PWM_Start\000"
 411      50574D5F 
 411      53746172 
 411      7400
 412              	.LASF8:
 413 0023 756E7369 		.ascii	"unsigned int\000"
 413      676E6564 
 413      20696E74 
 413      00
 414              	.LASF18:
 415 0030 6D61696E 		.ascii	"main.c\000"
 415      2E6300
 416              	.LASF21:
ARM GAS  C:\Users\ORA\AppData\Local\Temp\cc4AyqZv.s 			page 9


 417 0037 6D61696E 		.ascii	"main\000"
 417      00
 418              	.LASF16:
 419 003c 43794465 		.ascii	"CyDelay\000"
 419      6C617900 
 420              	.LASF5:
 421 0044 6C6F6E67 		.ascii	"long unsigned int\000"
 421      20756E73 
 421      69676E65 
 421      6420696E 
 421      7400
 422              	.LASF7:
 423 0056 6C6F6E67 		.ascii	"long long unsigned int\000"
 423      206C6F6E 
 423      6720756E 
 423      7369676E 
 423      65642069 
 424              	.LASF9:
 425 006d 666C6F61 		.ascii	"float\000"
 425      7400
 426              	.LASF22:
 427 0073 696E7465 		.ascii	"intecety\000"
 427      63657479 
 427      00
 428              	.LASF15:
 429 007c 4C45445F 		.ascii	"LED_PWM_WriteCompare\000"
 429      50574D5F 
 429      57726974 
 429      65436F6D 
 429      70617265 
 430              	.LASF1:
 431 0091 756E7369 		.ascii	"unsigned char\000"
 431      676E6564 
 431      20636861 
 431      7200
 432              	.LASF11:
 433 009f 63686172 		.ascii	"char\000"
 433      00
 434              	.LASF4:
 435 00a4 6C6F6E67 		.ascii	"long int\000"
 435      20696E74 
 435      00
 436              	.LASF19:
 437 00ad 433A5C55 		.ascii	"C:\\Users\\ORA\\OneDrive - PetNovations\\Cypress - "
 437      73657273 
 437      5C4F5241 
 437      5C4F6E65 
 437      44726976 
 438 00dc 424C455C 		.ascii	"BLE\\Lessons\\Lesson07_LED_SW_PWM_RED_GREEN.cydsn\000"
 438      4C657373 
 438      6F6E735C 
 438      4C657373 
 438      6F6E3037 
 439              	.LASF10:
 440 010c 646F7562 		.ascii	"double\000"
 440      6C6500
 441              	.LASF17:
ARM GAS  C:\Users\ORA\AppData\Local\Temp\cc4AyqZv.s 			page 10


 442 0113 474E5520 		.ascii	"GNU C11 5.4.1 20160609 (release) [ARM/embedded-5-br"
 442      43313120 
 442      352E342E 
 442      31203230 
 442      31363036 
 443 0146 616E6368 		.ascii	"anch revision 237715] -mcpu=cortex-m0 -mthumb -g -O"
 443      20726576 
 443      6973696F 
 443      6E203233 
 443      37373135 
 444 0179 67202D66 		.ascii	"g -ffunction-sections -ffat-lto-objects\000"
 444      66756E63 
 444      74696F6E 
 444      2D736563 
 444      74696F6E 
 445              	.LASF3:
 446 01a1 73686F72 		.ascii	"short unsigned int\000"
 446      7420756E 
 446      7369676E 
 446      65642069 
 446      6E7400
 447              	.LASF0:
 448 01b4 7369676E 		.ascii	"signed char\000"
 448      65642063 
 448      68617200 
 449              	.LASF12:
 450 01c0 6C6F6E67 		.ascii	"long double\000"
 450      20646F75 
 450      626C6500 
 451              	.LASF2:
 452 01cc 73686F72 		.ascii	"short int\000"
 452      7420696E 
 452      7400
 453              	.LASF13:
 454 01d6 73697A65 		.ascii	"sizetype\000"
 454      74797065 
 454      00
 455              		.ident	"GCC: (GNU Tools for ARM Embedded Processors) 5.4.1 20160609 (release) [ARM/embedded-5-bran
