ARM GAS  C:\Users\ORA\AppData\Local\Temp\ccPgXlCE.s 			page 1


   1              		.syntax unified
   2              		.cpu cortex-m0
   3              		.fpu softvfp
   4              		.eabi_attribute 20, 1
   5              		.eabi_attribute 21, 1
   6              		.eabi_attribute 23, 3
   7              		.eabi_attribute 24, 1
   8              		.eabi_attribute 25, 1
   9              		.eabi_attribute 26, 1
  10              		.eabi_attribute 30, 1
  11              		.eabi_attribute 34, 0
  12              		.eabi_attribute 18, 4
  13              		.thumb
  14              		.syntax unified
  15              		.file	"LED_SW.c"
  16              		.text
  17              	.Ltext0:
  18              		.cfi_sections	.debug_frame
  19              		.section	.text.LED_SW_SetDriveMode,"ax",%progbits
  20              		.align	2
  21              		.global	LED_SW_SetDriveMode
  22              		.code	16
  23              		.thumb_func
  24              		.type	LED_SW_SetDriveMode, %function
  25              	LED_SW_SetDriveMode:
  26              	.LFB0:
  27              		.file 1 "Generated_Source\\PSoC4\\LED_SW.c"
   1:Generated_Source\PSoC4/LED_SW.c **** /*******************************************************************************
   2:Generated_Source\PSoC4/LED_SW.c **** * File Name: LED_SW.c  
   3:Generated_Source\PSoC4/LED_SW.c **** * Version 2.20
   4:Generated_Source\PSoC4/LED_SW.c **** *
   5:Generated_Source\PSoC4/LED_SW.c **** * Description:
   6:Generated_Source\PSoC4/LED_SW.c **** *  This file contains API to enable firmware control of a Pins component.
   7:Generated_Source\PSoC4/LED_SW.c **** *
   8:Generated_Source\PSoC4/LED_SW.c **** ********************************************************************************
   9:Generated_Source\PSoC4/LED_SW.c **** * Copyright 2008-2015, Cypress Semiconductor Corporation.  All rights reserved.
  10:Generated_Source\PSoC4/LED_SW.c **** * You may use this file only in accordance with the license, terms, conditions, 
  11:Generated_Source\PSoC4/LED_SW.c **** * disclaimers, and limitations in the end user license agreement accompanying 
  12:Generated_Source\PSoC4/LED_SW.c **** * the software package with which this file was provided.
  13:Generated_Source\PSoC4/LED_SW.c **** *******************************************************************************/
  14:Generated_Source\PSoC4/LED_SW.c **** 
  15:Generated_Source\PSoC4/LED_SW.c **** #include "cytypes.h"
  16:Generated_Source\PSoC4/LED_SW.c **** #include "LED_SW.h"
  17:Generated_Source\PSoC4/LED_SW.c **** 
  18:Generated_Source\PSoC4/LED_SW.c **** 
  19:Generated_Source\PSoC4/LED_SW.c **** #if defined(LED_SW__PC)
  20:Generated_Source\PSoC4/LED_SW.c ****     #define LED_SW_SetP4PinDriveMode(shift, mode)  \
  21:Generated_Source\PSoC4/LED_SW.c ****     do { \
  22:Generated_Source\PSoC4/LED_SW.c ****         LED_SW_PC =   (LED_SW_PC & \
  23:Generated_Source\PSoC4/LED_SW.c ****                                 (uint32)(~(uint32)(LED_SW_DRIVE_MODE_IND_MASK << \
  24:Generated_Source\PSoC4/LED_SW.c ****                                 (LED_SW_DRIVE_MODE_BITS * (shift))))) | \
  25:Generated_Source\PSoC4/LED_SW.c ****                                 (uint32)((uint32)(mode) << \
  26:Generated_Source\PSoC4/LED_SW.c ****                                 (LED_SW_DRIVE_MODE_BITS * (shift))); \
  27:Generated_Source\PSoC4/LED_SW.c ****     } while (0)
  28:Generated_Source\PSoC4/LED_SW.c **** #else
  29:Generated_Source\PSoC4/LED_SW.c ****     #if (CY_PSOC4_4200L)
  30:Generated_Source\PSoC4/LED_SW.c ****         #define LED_SW_SetP4PinDriveMode(shift, mode)  \
ARM GAS  C:\Users\ORA\AppData\Local\Temp\ccPgXlCE.s 			page 2


  31:Generated_Source\PSoC4/LED_SW.c ****         do { \
  32:Generated_Source\PSoC4/LED_SW.c ****             LED_SW_USBIO_CTRL_REG = (LED_SW_USBIO_CTRL_REG & \
  33:Generated_Source\PSoC4/LED_SW.c ****                                     (uint32)(~(uint32)(LED_SW_DRIVE_MODE_IND_MASK << \
  34:Generated_Source\PSoC4/LED_SW.c ****                                     (LED_SW_DRIVE_MODE_BITS * (shift))))) | \
  35:Generated_Source\PSoC4/LED_SW.c ****                                     (uint32)((uint32)(mode) << \
  36:Generated_Source\PSoC4/LED_SW.c ****                                     (LED_SW_DRIVE_MODE_BITS * (shift))); \
  37:Generated_Source\PSoC4/LED_SW.c ****         } while (0)
  38:Generated_Source\PSoC4/LED_SW.c ****     #endif
  39:Generated_Source\PSoC4/LED_SW.c **** #endif
  40:Generated_Source\PSoC4/LED_SW.c ****   
  41:Generated_Source\PSoC4/LED_SW.c **** 
  42:Generated_Source\PSoC4/LED_SW.c **** #if defined(LED_SW__PC) || (CY_PSOC4_4200L) 
  43:Generated_Source\PSoC4/LED_SW.c ****     /*******************************************************************************
  44:Generated_Source\PSoC4/LED_SW.c ****     * Function Name: LED_SW_SetDriveMode
  45:Generated_Source\PSoC4/LED_SW.c ****     ****************************************************************************//**
  46:Generated_Source\PSoC4/LED_SW.c ****     *
  47:Generated_Source\PSoC4/LED_SW.c ****     * \brief Sets the drive mode for each of the Pins component's pins.
  48:Generated_Source\PSoC4/LED_SW.c ****     * 
  49:Generated_Source\PSoC4/LED_SW.c ****     * <b>Note</b> This affects all pins in the Pins component instance. Use the
  50:Generated_Source\PSoC4/LED_SW.c ****     * Per-Pin APIs if you wish to control individual pin's drive modes.
  51:Generated_Source\PSoC4/LED_SW.c ****     *
  52:Generated_Source\PSoC4/LED_SW.c ****     * <b>Note</b> USBIOs have limited drive functionality. Refer to the Drive Mode
  53:Generated_Source\PSoC4/LED_SW.c ****     * parameter for more information.
  54:Generated_Source\PSoC4/LED_SW.c ****     *
  55:Generated_Source\PSoC4/LED_SW.c ****     * \param mode
  56:Generated_Source\PSoC4/LED_SW.c ****     *  Mode for the selected signals. Valid options are documented in 
  57:Generated_Source\PSoC4/LED_SW.c ****     *  \ref driveMode.
  58:Generated_Source\PSoC4/LED_SW.c ****     *
  59:Generated_Source\PSoC4/LED_SW.c ****     * \return
  60:Generated_Source\PSoC4/LED_SW.c ****     *  None
  61:Generated_Source\PSoC4/LED_SW.c ****     *
  62:Generated_Source\PSoC4/LED_SW.c ****     * \sideeffect
  63:Generated_Source\PSoC4/LED_SW.c ****     *  If you use read-modify-write operations that are not atomic, the ISR can
  64:Generated_Source\PSoC4/LED_SW.c ****     *  cause corruption of this function. An ISR that interrupts this function 
  65:Generated_Source\PSoC4/LED_SW.c ****     *  and performs writes to the Pins component Drive Mode registers can cause 
  66:Generated_Source\PSoC4/LED_SW.c ****     *  corrupted port data. To avoid this issue, you should either use the Per-Pin
  67:Generated_Source\PSoC4/LED_SW.c ****     *  APIs (primary method) or disable interrupts around this function.
  68:Generated_Source\PSoC4/LED_SW.c ****     *
  69:Generated_Source\PSoC4/LED_SW.c ****     * \funcusage
  70:Generated_Source\PSoC4/LED_SW.c ****     *  \snippet LED_SW_SUT.c usage_LED_SW_SetDriveMode
  71:Generated_Source\PSoC4/LED_SW.c ****     *******************************************************************************/
  72:Generated_Source\PSoC4/LED_SW.c ****     void LED_SW_SetDriveMode(uint8 mode)
  73:Generated_Source\PSoC4/LED_SW.c ****     {
  28              		.loc 1 73 0
  29              		.cfi_startproc
  30              		@ args = 0, pretend = 0, frame = 0
  31              		@ frame_needed = 0, uses_anonymous_args = 0
  32              		@ link register save eliminated.
  33              	.LVL0:
  74:Generated_Source\PSoC4/LED_SW.c **** 		LED_SW_SetP4PinDriveMode(LED_SW__0__SHIFT, mode);
  34              		.loc 1 74 0
  35 0000 034A     		ldr	r2, .L2
  36 0002 1168     		ldr	r1, [r2]
  37 0004 034B     		ldr	r3, .L2+4
  38 0006 0B40     		ands	r3, r1
  39 0008 4005     		lsls	r0, r0, #21
  40              	.LVL1:
ARM GAS  C:\Users\ORA\AppData\Local\Temp\ccPgXlCE.s 			page 3


  41 000a 1843     		orrs	r0, r3
  42 000c 1060     		str	r0, [r2]
  75:Generated_Source\PSoC4/LED_SW.c ****     }
  43              		.loc 1 75 0
  44              		@ sp needed
  45 000e 7047     		bx	lr
  46              	.L3:
  47              		.align	2
  48              	.L2:
  49 0010 08020440 		.word	1074004488
  50 0014 FFFF1FFF 		.word	-14680065
  51              		.cfi_endproc
  52              	.LFE0:
  53              		.size	LED_SW_SetDriveMode, .-LED_SW_SetDriveMode
  54              		.section	.text.LED_SW_Write,"ax",%progbits
  55              		.align	2
  56              		.global	LED_SW_Write
  57              		.code	16
  58              		.thumb_func
  59              		.type	LED_SW_Write, %function
  60              	LED_SW_Write:
  61              	.LFB1:
  76:Generated_Source\PSoC4/LED_SW.c **** #endif
  77:Generated_Source\PSoC4/LED_SW.c **** 
  78:Generated_Source\PSoC4/LED_SW.c **** 
  79:Generated_Source\PSoC4/LED_SW.c **** /*******************************************************************************
  80:Generated_Source\PSoC4/LED_SW.c **** * Function Name: LED_SW_Write
  81:Generated_Source\PSoC4/LED_SW.c **** ****************************************************************************//**
  82:Generated_Source\PSoC4/LED_SW.c **** *
  83:Generated_Source\PSoC4/LED_SW.c **** * \brief Writes the value to the physical port (data output register), masking
  84:Generated_Source\PSoC4/LED_SW.c **** *  and shifting the bits appropriately. 
  85:Generated_Source\PSoC4/LED_SW.c **** *
  86:Generated_Source\PSoC4/LED_SW.c **** * The data output register controls the signal applied to the physical pin in 
  87:Generated_Source\PSoC4/LED_SW.c **** * conjunction with the drive mode parameter. This function avoids changing 
  88:Generated_Source\PSoC4/LED_SW.c **** * other bits in the port by using the appropriate method (read-modify-write or
  89:Generated_Source\PSoC4/LED_SW.c **** * bit banding).
  90:Generated_Source\PSoC4/LED_SW.c **** *
  91:Generated_Source\PSoC4/LED_SW.c **** * <b>Note</b> This function should not be used on a hardware digital output pin 
  92:Generated_Source\PSoC4/LED_SW.c **** * as it is driven by the hardware signal attached to it.
  93:Generated_Source\PSoC4/LED_SW.c **** *
  94:Generated_Source\PSoC4/LED_SW.c **** * \param value
  95:Generated_Source\PSoC4/LED_SW.c **** *  Value to write to the component instance.
  96:Generated_Source\PSoC4/LED_SW.c **** *
  97:Generated_Source\PSoC4/LED_SW.c **** * \return 
  98:Generated_Source\PSoC4/LED_SW.c **** *  None 
  99:Generated_Source\PSoC4/LED_SW.c **** *
 100:Generated_Source\PSoC4/LED_SW.c **** * \sideeffect
 101:Generated_Source\PSoC4/LED_SW.c **** *  If you use read-modify-write operations that are not atomic; the Interrupt 
 102:Generated_Source\PSoC4/LED_SW.c **** *  Service Routines (ISR) can cause corruption of this function. An ISR that 
 103:Generated_Source\PSoC4/LED_SW.c **** *  interrupts this function and performs writes to the Pins component data 
 104:Generated_Source\PSoC4/LED_SW.c **** *  register can cause corrupted port data. To avoid this issue, you should 
 105:Generated_Source\PSoC4/LED_SW.c **** *  either use the Per-Pin APIs (primary method) or disable interrupts around 
 106:Generated_Source\PSoC4/LED_SW.c **** *  this function.
 107:Generated_Source\PSoC4/LED_SW.c **** *
 108:Generated_Source\PSoC4/LED_SW.c **** * \funcusage
 109:Generated_Source\PSoC4/LED_SW.c **** *  \snippet LED_SW_SUT.c usage_LED_SW_Write
 110:Generated_Source\PSoC4/LED_SW.c **** *******************************************************************************/
ARM GAS  C:\Users\ORA\AppData\Local\Temp\ccPgXlCE.s 			page 4


 111:Generated_Source\PSoC4/LED_SW.c **** void LED_SW_Write(uint8 value)
 112:Generated_Source\PSoC4/LED_SW.c **** {
  62              		.loc 1 112 0
  63              		.cfi_startproc
  64              		@ args = 0, pretend = 0, frame = 0
  65              		@ frame_needed = 0, uses_anonymous_args = 0
  66              		@ link register save eliminated.
  67              	.LVL2:
 113:Generated_Source\PSoC4/LED_SW.c ****     uint8 drVal = (uint8)(LED_SW_DR & (uint8)(~LED_SW_MASK));
  68              		.loc 1 113 0
  69 0000 0449     		ldr	r1, .L5
  70 0002 0A68     		ldr	r2, [r1]
  71 0004 7F23     		movs	r3, #127
  72 0006 1A40     		ands	r2, r3
  73              	.LVL3:
 114:Generated_Source\PSoC4/LED_SW.c ****     drVal = (drVal | ((uint8)(value << LED_SW_SHIFT) & LED_SW_MASK));
  74              		.loc 1 114 0
  75 0008 C301     		lsls	r3, r0, #7
  76 000a D8B2     		uxtb	r0, r3
  77              	.LVL4:
  78 000c 1043     		orrs	r0, r2
  79              	.LVL5:
 115:Generated_Source\PSoC4/LED_SW.c ****     LED_SW_DR = (uint32)drVal;
  80              		.loc 1 115 0
  81 000e 0860     		str	r0, [r1]
 116:Generated_Source\PSoC4/LED_SW.c **** }
  82              		.loc 1 116 0
  83              		@ sp needed
  84 0010 7047     		bx	lr
  85              	.L6:
  86 0012 C046     		.align	2
  87              	.L5:
  88 0014 00020440 		.word	1074004480
  89              		.cfi_endproc
  90              	.LFE1:
  91              		.size	LED_SW_Write, .-LED_SW_Write
  92              		.section	.text.LED_SW_Read,"ax",%progbits
  93              		.align	2
  94              		.global	LED_SW_Read
  95              		.code	16
  96              		.thumb_func
  97              		.type	LED_SW_Read, %function
  98              	LED_SW_Read:
  99              	.LFB2:
 117:Generated_Source\PSoC4/LED_SW.c **** 
 118:Generated_Source\PSoC4/LED_SW.c **** 
 119:Generated_Source\PSoC4/LED_SW.c **** /*******************************************************************************
 120:Generated_Source\PSoC4/LED_SW.c **** * Function Name: LED_SW_Read
 121:Generated_Source\PSoC4/LED_SW.c **** ****************************************************************************//**
 122:Generated_Source\PSoC4/LED_SW.c **** *
 123:Generated_Source\PSoC4/LED_SW.c **** * \brief Reads the associated physical port (pin status register) and masks 
 124:Generated_Source\PSoC4/LED_SW.c **** *  the required bits according to the width and bit position of the component
 125:Generated_Source\PSoC4/LED_SW.c **** *  instance. 
 126:Generated_Source\PSoC4/LED_SW.c **** *
 127:Generated_Source\PSoC4/LED_SW.c **** * The pin's status register returns the current logic level present on the 
 128:Generated_Source\PSoC4/LED_SW.c **** * physical pin.
 129:Generated_Source\PSoC4/LED_SW.c **** *
ARM GAS  C:\Users\ORA\AppData\Local\Temp\ccPgXlCE.s 			page 5


 130:Generated_Source\PSoC4/LED_SW.c **** * \return 
 131:Generated_Source\PSoC4/LED_SW.c **** *  The current value for the pins in the component as a right justified number.
 132:Generated_Source\PSoC4/LED_SW.c **** *
 133:Generated_Source\PSoC4/LED_SW.c **** * \funcusage
 134:Generated_Source\PSoC4/LED_SW.c **** *  \snippet LED_SW_SUT.c usage_LED_SW_Read  
 135:Generated_Source\PSoC4/LED_SW.c **** *******************************************************************************/
 136:Generated_Source\PSoC4/LED_SW.c **** uint8 LED_SW_Read(void)
 137:Generated_Source\PSoC4/LED_SW.c **** {
 100              		.loc 1 137 0
 101              		.cfi_startproc
 102              		@ args = 0, pretend = 0, frame = 0
 103              		@ frame_needed = 0, uses_anonymous_args = 0
 104              		@ link register save eliminated.
 138:Generated_Source\PSoC4/LED_SW.c ****     return (uint8)((LED_SW_PS & LED_SW_MASK) >> LED_SW_SHIFT);
 105              		.loc 1 138 0
 106 0000 024B     		ldr	r3, .L8
 107 0002 1868     		ldr	r0, [r3]
 108 0004 C009     		lsrs	r0, r0, #7
 109 0006 0123     		movs	r3, #1
 110 0008 1840     		ands	r0, r3
 139:Generated_Source\PSoC4/LED_SW.c **** }
 111              		.loc 1 139 0
 112              		@ sp needed
 113 000a 7047     		bx	lr
 114              	.L9:
 115              		.align	2
 116              	.L8:
 117 000c 04020440 		.word	1074004484
 118              		.cfi_endproc
 119              	.LFE2:
 120              		.size	LED_SW_Read, .-LED_SW_Read
 121              		.section	.text.LED_SW_ReadDataReg,"ax",%progbits
 122              		.align	2
 123              		.global	LED_SW_ReadDataReg
 124              		.code	16
 125              		.thumb_func
 126              		.type	LED_SW_ReadDataReg, %function
 127              	LED_SW_ReadDataReg:
 128              	.LFB3:
 140:Generated_Source\PSoC4/LED_SW.c **** 
 141:Generated_Source\PSoC4/LED_SW.c **** 
 142:Generated_Source\PSoC4/LED_SW.c **** /*******************************************************************************
 143:Generated_Source\PSoC4/LED_SW.c **** * Function Name: LED_SW_ReadDataReg
 144:Generated_Source\PSoC4/LED_SW.c **** ****************************************************************************//**
 145:Generated_Source\PSoC4/LED_SW.c **** *
 146:Generated_Source\PSoC4/LED_SW.c **** * \brief Reads the associated physical port's data output register and masks 
 147:Generated_Source\PSoC4/LED_SW.c **** *  the correct bits according to the width and bit position of the component 
 148:Generated_Source\PSoC4/LED_SW.c **** *  instance. 
 149:Generated_Source\PSoC4/LED_SW.c **** *
 150:Generated_Source\PSoC4/LED_SW.c **** * The data output register controls the signal applied to the physical pin in 
 151:Generated_Source\PSoC4/LED_SW.c **** * conjunction with the drive mode parameter. This is not the same as the 
 152:Generated_Source\PSoC4/LED_SW.c **** * preferred LED_SW_Read() API because the 
 153:Generated_Source\PSoC4/LED_SW.c **** * LED_SW_ReadDataReg() reads the data register instead of the status 
 154:Generated_Source\PSoC4/LED_SW.c **** * register. For output pins this is a useful function to determine the value 
 155:Generated_Source\PSoC4/LED_SW.c **** * just written to the pin.
 156:Generated_Source\PSoC4/LED_SW.c **** *
 157:Generated_Source\PSoC4/LED_SW.c **** * \return 
ARM GAS  C:\Users\ORA\AppData\Local\Temp\ccPgXlCE.s 			page 6


 158:Generated_Source\PSoC4/LED_SW.c **** *  The current value of the data register masked and shifted into a right 
 159:Generated_Source\PSoC4/LED_SW.c **** *  justified number for the component instance.
 160:Generated_Source\PSoC4/LED_SW.c **** *
 161:Generated_Source\PSoC4/LED_SW.c **** * \funcusage
 162:Generated_Source\PSoC4/LED_SW.c **** *  \snippet LED_SW_SUT.c usage_LED_SW_ReadDataReg 
 163:Generated_Source\PSoC4/LED_SW.c **** *******************************************************************************/
 164:Generated_Source\PSoC4/LED_SW.c **** uint8 LED_SW_ReadDataReg(void)
 165:Generated_Source\PSoC4/LED_SW.c **** {
 129              		.loc 1 165 0
 130              		.cfi_startproc
 131              		@ args = 0, pretend = 0, frame = 0
 132              		@ frame_needed = 0, uses_anonymous_args = 0
 133              		@ link register save eliminated.
 166:Generated_Source\PSoC4/LED_SW.c ****     return (uint8)((LED_SW_DR & LED_SW_MASK) >> LED_SW_SHIFT);
 134              		.loc 1 166 0
 135 0000 024B     		ldr	r3, .L11
 136 0002 1868     		ldr	r0, [r3]
 137 0004 C009     		lsrs	r0, r0, #7
 138 0006 0123     		movs	r3, #1
 139 0008 1840     		ands	r0, r3
 167:Generated_Source\PSoC4/LED_SW.c **** }
 140              		.loc 1 167 0
 141              		@ sp needed
 142 000a 7047     		bx	lr
 143              	.L12:
 144              		.align	2
 145              	.L11:
 146 000c 00020440 		.word	1074004480
 147              		.cfi_endproc
 148              	.LFE3:
 149              		.size	LED_SW_ReadDataReg, .-LED_SW_ReadDataReg
 150              		.section	.text.LED_SW_SetInterruptMode,"ax",%progbits
 151              		.align	2
 152              		.global	LED_SW_SetInterruptMode
 153              		.code	16
 154              		.thumb_func
 155              		.type	LED_SW_SetInterruptMode, %function
 156              	LED_SW_SetInterruptMode:
 157              	.LFB4:
 168:Generated_Source\PSoC4/LED_SW.c **** 
 169:Generated_Source\PSoC4/LED_SW.c **** 
 170:Generated_Source\PSoC4/LED_SW.c **** /*******************************************************************************
 171:Generated_Source\PSoC4/LED_SW.c **** * Function Name: LED_SW_SetInterruptMode
 172:Generated_Source\PSoC4/LED_SW.c **** ****************************************************************************//**
 173:Generated_Source\PSoC4/LED_SW.c **** *
 174:Generated_Source\PSoC4/LED_SW.c **** * \brief Configures the interrupt mode for each of the Pins component's
 175:Generated_Source\PSoC4/LED_SW.c **** *  pins. Alternatively you may set the interrupt mode for all the pins
 176:Generated_Source\PSoC4/LED_SW.c **** *  specified in the Pins component.
 177:Generated_Source\PSoC4/LED_SW.c **** *
 178:Generated_Source\PSoC4/LED_SW.c **** *  <b>Note</b> The interrupt is port-wide and therefore any enabled pin
 179:Generated_Source\PSoC4/LED_SW.c **** *  interrupt may trigger it.
 180:Generated_Source\PSoC4/LED_SW.c **** *
 181:Generated_Source\PSoC4/LED_SW.c **** * \param position
 182:Generated_Source\PSoC4/LED_SW.c **** *  The pin position as listed in the Pins component. You may OR these to be 
 183:Generated_Source\PSoC4/LED_SW.c **** *  able to configure the interrupt mode of multiple pins within a Pins 
 184:Generated_Source\PSoC4/LED_SW.c **** *  component. Or you may use LED_SW_INTR_ALL to configure the
 185:Generated_Source\PSoC4/LED_SW.c **** *  interrupt mode of all the pins in the Pins component.       
ARM GAS  C:\Users\ORA\AppData\Local\Temp\ccPgXlCE.s 			page 7


 186:Generated_Source\PSoC4/LED_SW.c **** *  - LED_SW_0_INTR       (First pin in the list)
 187:Generated_Source\PSoC4/LED_SW.c **** *  - LED_SW_1_INTR       (Second pin in the list)
 188:Generated_Source\PSoC4/LED_SW.c **** *  - ...
 189:Generated_Source\PSoC4/LED_SW.c **** *  - LED_SW_INTR_ALL     (All pins in Pins component)
 190:Generated_Source\PSoC4/LED_SW.c **** *
 191:Generated_Source\PSoC4/LED_SW.c **** * \param mode
 192:Generated_Source\PSoC4/LED_SW.c **** *  Interrupt mode for the selected pins. Valid options are documented in
 193:Generated_Source\PSoC4/LED_SW.c **** *  \ref intrMode.
 194:Generated_Source\PSoC4/LED_SW.c **** *
 195:Generated_Source\PSoC4/LED_SW.c **** * \return 
 196:Generated_Source\PSoC4/LED_SW.c **** *  None
 197:Generated_Source\PSoC4/LED_SW.c **** *  
 198:Generated_Source\PSoC4/LED_SW.c **** * \sideeffect
 199:Generated_Source\PSoC4/LED_SW.c **** *  It is recommended that the interrupt be disabled before calling this 
 200:Generated_Source\PSoC4/LED_SW.c **** *  function to avoid unintended interrupt requests. Note that the interrupt
 201:Generated_Source\PSoC4/LED_SW.c **** *  type is port wide, and therefore will trigger for any enabled pin on the 
 202:Generated_Source\PSoC4/LED_SW.c **** *  port.
 203:Generated_Source\PSoC4/LED_SW.c **** *
 204:Generated_Source\PSoC4/LED_SW.c **** * \funcusage
 205:Generated_Source\PSoC4/LED_SW.c **** *  \snippet LED_SW_SUT.c usage_LED_SW_SetInterruptMode
 206:Generated_Source\PSoC4/LED_SW.c **** *******************************************************************************/
 207:Generated_Source\PSoC4/LED_SW.c **** void LED_SW_SetInterruptMode(uint16 position, uint16 mode)
 208:Generated_Source\PSoC4/LED_SW.c **** {
 158              		.loc 1 208 0
 159              		.cfi_startproc
 160              		@ args = 0, pretend = 0, frame = 0
 161              		@ frame_needed = 0, uses_anonymous_args = 0
 162              		@ link register save eliminated.
 163              	.LVL6:
 209:Generated_Source\PSoC4/LED_SW.c ****     uint32 intrCfg;
 210:Generated_Source\PSoC4/LED_SW.c ****     
 211:Generated_Source\PSoC4/LED_SW.c ****     intrCfg =  LED_SW_INTCFG & (uint32)(~(uint32)position);
 164              		.loc 1 211 0
 165 0000 034A     		ldr	r2, .L14
 166 0002 1368     		ldr	r3, [r2]
 167 0004 8343     		bics	r3, r0
 168              	.LVL7:
 212:Generated_Source\PSoC4/LED_SW.c ****     LED_SW_INTCFG = intrCfg | ((uint32)position & (uint32)mode);
 169              		.loc 1 212 0
 170 0006 0840     		ands	r0, r1
 171              	.LVL8:
 172 0008 1843     		orrs	r0, r3
 173 000a 1060     		str	r0, [r2]
 213:Generated_Source\PSoC4/LED_SW.c **** }
 174              		.loc 1 213 0
 175              		@ sp needed
 176 000c 7047     		bx	lr
 177              	.L15:
 178 000e C046     		.align	2
 179              	.L14:
 180 0010 0C020440 		.word	1074004492
 181              		.cfi_endproc
 182              	.LFE4:
 183              		.size	LED_SW_SetInterruptMode, .-LED_SW_SetInterruptMode
 184              		.section	.text.LED_SW_ClearInterrupt,"ax",%progbits
 185              		.align	2
 186              		.global	LED_SW_ClearInterrupt
ARM GAS  C:\Users\ORA\AppData\Local\Temp\ccPgXlCE.s 			page 8


 187              		.code	16
 188              		.thumb_func
 189              		.type	LED_SW_ClearInterrupt, %function
 190              	LED_SW_ClearInterrupt:
 191              	.LFB5:
 214:Generated_Source\PSoC4/LED_SW.c **** 
 215:Generated_Source\PSoC4/LED_SW.c **** 
 216:Generated_Source\PSoC4/LED_SW.c **** /*******************************************************************************
 217:Generated_Source\PSoC4/LED_SW.c **** * Function Name: LED_SW_ClearInterrupt
 218:Generated_Source\PSoC4/LED_SW.c **** ****************************************************************************//**
 219:Generated_Source\PSoC4/LED_SW.c **** *
 220:Generated_Source\PSoC4/LED_SW.c **** * \brief Clears any active interrupts attached with the component and returns 
 221:Generated_Source\PSoC4/LED_SW.c **** *  the value of the interrupt status register allowing determination of which
 222:Generated_Source\PSoC4/LED_SW.c **** *  pins generated an interrupt event.
 223:Generated_Source\PSoC4/LED_SW.c **** *
 224:Generated_Source\PSoC4/LED_SW.c **** * \return 
 225:Generated_Source\PSoC4/LED_SW.c **** *  The right-shifted current value of the interrupt status register. Each pin 
 226:Generated_Source\PSoC4/LED_SW.c **** *  has one bit set if it generated an interrupt event. For example, bit 0 is 
 227:Generated_Source\PSoC4/LED_SW.c **** *  for pin 0 and bit 1 is for pin 1 of the Pins component.
 228:Generated_Source\PSoC4/LED_SW.c **** *  
 229:Generated_Source\PSoC4/LED_SW.c **** * \sideeffect
 230:Generated_Source\PSoC4/LED_SW.c **** *  Clears all bits of the physical port's interrupt status register, not just
 231:Generated_Source\PSoC4/LED_SW.c **** *  those associated with the Pins component.
 232:Generated_Source\PSoC4/LED_SW.c **** *
 233:Generated_Source\PSoC4/LED_SW.c **** * \funcusage
 234:Generated_Source\PSoC4/LED_SW.c **** *  \snippet LED_SW_SUT.c usage_LED_SW_ClearInterrupt
 235:Generated_Source\PSoC4/LED_SW.c **** *******************************************************************************/
 236:Generated_Source\PSoC4/LED_SW.c **** uint8 LED_SW_ClearInterrupt(void)
 237:Generated_Source\PSoC4/LED_SW.c **** {
 192              		.loc 1 237 0
 193              		.cfi_startproc
 194              		@ args = 0, pretend = 0, frame = 0
 195              		@ frame_needed = 0, uses_anonymous_args = 0
 196              		@ link register save eliminated.
 238:Generated_Source\PSoC4/LED_SW.c **** 	uint8 maskedStatus = (uint8)(LED_SW_INTSTAT & LED_SW_MASK);
 197              		.loc 1 238 0
 198 0000 034B     		ldr	r3, .L17
 199 0002 1868     		ldr	r0, [r3]
 200 0004 C0B2     		uxtb	r0, r0
 201 0006 7F22     		movs	r2, #127
 202 0008 9043     		bics	r0, r2
 203              	.LVL9:
 239:Generated_Source\PSoC4/LED_SW.c **** 	LED_SW_INTSTAT = maskedStatus;
 204              		.loc 1 239 0
 205 000a 1860     		str	r0, [r3]
 240:Generated_Source\PSoC4/LED_SW.c ****     return maskedStatus >> LED_SW_SHIFT;
 206              		.loc 1 240 0
 207 000c C009     		lsrs	r0, r0, #7
 208              	.LVL10:
 241:Generated_Source\PSoC4/LED_SW.c **** }
 209              		.loc 1 241 0
 210              		@ sp needed
 211 000e 7047     		bx	lr
 212              	.L18:
 213              		.align	2
 214              	.L17:
 215 0010 10020440 		.word	1074004496
ARM GAS  C:\Users\ORA\AppData\Local\Temp\ccPgXlCE.s 			page 9


 216              		.cfi_endproc
 217              	.LFE5:
 218              		.size	LED_SW_ClearInterrupt, .-LED_SW_ClearInterrupt
 219              		.text
 220              	.Letext0:
 221              		.file 2 "Generated_Source\\PSoC4\\cytypes.h"
 222              		.section	.debug_info,"",%progbits
 223              	.Ldebug_info0:
 224 0000 99010000 		.4byte	0x199
 225 0004 0400     		.2byte	0x4
 226 0006 00000000 		.4byte	.Ldebug_abbrev0
 227 000a 04       		.byte	0x4
 228 000b 01       		.uleb128 0x1
 229 000c F1000000 		.4byte	.LASF28
 230 0010 0C       		.byte	0xc
 231 0011 CC000000 		.4byte	.LASF29
 232 0015 FB010000 		.4byte	.LASF30
 233 0019 00000000 		.4byte	.Ldebug_ranges0+0
 234 001d 00000000 		.4byte	0
 235 0021 00000000 		.4byte	.Ldebug_line0
 236 0025 02       		.uleb128 0x2
 237 0026 01       		.byte	0x1
 238 0027 06       		.byte	0x6
 239 0028 EF010000 		.4byte	.LASF0
 240 002c 02       		.uleb128 0x2
 241 002d 01       		.byte	0x1
 242 002e 08       		.byte	0x8
 243 002f 49000000 		.4byte	.LASF1
 244 0033 02       		.uleb128 0x2
 245 0034 02       		.byte	0x2
 246 0035 05       		.byte	0x5
 247 0036 B3010000 		.4byte	.LASF2
 248 003a 02       		.uleb128 0x2
 249 003b 02       		.byte	0x2
 250 003c 07       		.byte	0x7
 251 003d 6F000000 		.4byte	.LASF3
 252 0041 02       		.uleb128 0x2
 253 0042 04       		.byte	0x4
 254 0043 05       		.byte	0x5
 255 0044 E6010000 		.4byte	.LASF4
 256 0048 02       		.uleb128 0x2
 257 0049 04       		.byte	0x4
 258 004a 07       		.byte	0x7
 259 004b 5D000000 		.4byte	.LASF5
 260 004f 02       		.uleb128 0x2
 261 0050 08       		.byte	0x8
 262 0051 05       		.byte	0x5
 263 0052 7F010000 		.4byte	.LASF6
 264 0056 02       		.uleb128 0x2
 265 0057 08       		.byte	0x8
 266 0058 07       		.byte	0x7
 267 0059 B5000000 		.4byte	.LASF7
 268 005d 03       		.uleb128 0x3
 269 005e 04       		.byte	0x4
 270 005f 05       		.byte	0x5
 271 0060 696E7400 		.ascii	"int\000"
 272 0064 02       		.uleb128 0x2
ARM GAS  C:\Users\ORA\AppData\Local\Temp\ccPgXlCE.s 			page 10


 273 0065 04       		.byte	0x4
 274 0066 07       		.byte	0x7
 275 0067 A8000000 		.4byte	.LASF8
 276 006b 04       		.uleb128 0x4
 277 006c BD010000 		.4byte	.LASF9
 278 0070 02       		.byte	0x2
 279 0071 E601     		.2byte	0x1e6
 280 0073 2C000000 		.4byte	0x2c
 281 0077 04       		.uleb128 0x4
 282 0078 89000000 		.4byte	.LASF10
 283 007c 02       		.byte	0x2
 284 007d E701     		.2byte	0x1e7
 285 007f 3A000000 		.4byte	0x3a
 286 0083 04       		.uleb128 0x4
 287 0084 99000000 		.4byte	.LASF11
 288 0088 02       		.byte	0x2
 289 0089 E801     		.2byte	0x1e8
 290 008b 48000000 		.4byte	0x48
 291 008f 02       		.uleb128 0x2
 292 0090 04       		.byte	0x4
 293 0091 04       		.byte	0x4
 294 0092 43000000 		.4byte	.LASF12
 295 0096 02       		.uleb128 0x2
 296 0097 08       		.byte	0x8
 297 0098 04       		.byte	0x4
 298 0099 82000000 		.4byte	.LASF13
 299 009d 02       		.uleb128 0x2
 300 009e 01       		.byte	0x1
 301 009f 08       		.byte	0x8
 302 00a0 9A010000 		.4byte	.LASF14
 303 00a4 04       		.uleb128 0x4
 304 00a5 00000000 		.4byte	.LASF15
 305 00a9 02       		.byte	0x2
 306 00aa 9202     		.2byte	0x292
 307 00ac B0000000 		.4byte	0xb0
 308 00b0 05       		.uleb128 0x5
 309 00b1 83000000 		.4byte	0x83
 310 00b5 06       		.uleb128 0x6
 311 00b6 9F010000 		.4byte	.LASF16
 312 00ba 01       		.byte	0x1
 313 00bb 48       		.byte	0x48
 314 00bc 00000000 		.4byte	.LFB0
 315 00c0 18000000 		.4byte	.LFE0-.LFB0
 316 00c4 01       		.uleb128 0x1
 317 00c5 9C       		.byte	0x9c
 318 00c6 DA000000 		.4byte	0xda
 319 00ca 07       		.uleb128 0x7
 320 00cb EC000000 		.4byte	.LASF18
 321 00cf 01       		.byte	0x1
 322 00d0 48       		.byte	0x48
 323 00d1 6B000000 		.4byte	0x6b
 324 00d5 00000000 		.4byte	.LLST0
 325 00d9 00       		.byte	0
 326 00da 06       		.uleb128 0x6
 327 00db C3010000 		.4byte	.LASF17
 328 00df 01       		.byte	0x1
 329 00e0 6F       		.byte	0x6f
ARM GAS  C:\Users\ORA\AppData\Local\Temp\ccPgXlCE.s 			page 11


 330 00e1 00000000 		.4byte	.LFB1
 331 00e5 18000000 		.4byte	.LFE1-.LFB1
 332 00e9 01       		.uleb128 0x1
 333 00ea 9C       		.byte	0x9c
 334 00eb 0E010000 		.4byte	0x10e
 335 00ef 07       		.uleb128 0x7
 336 00f0 2A000000 		.4byte	.LASF19
 337 00f4 01       		.byte	0x1
 338 00f5 6F       		.byte	0x6f
 339 00f6 6B000000 		.4byte	0x6b
 340 00fa 21000000 		.4byte	.LLST1
 341 00fe 08       		.uleb128 0x8
 342 00ff 57000000 		.4byte	.LASF24
 343 0103 01       		.byte	0x1
 344 0104 71       		.byte	0x71
 345 0105 6B000000 		.4byte	0x6b
 346 0109 42000000 		.4byte	.LLST2
 347 010d 00       		.byte	0
 348 010e 09       		.uleb128 0x9
 349 010f 06000000 		.4byte	.LASF20
 350 0113 01       		.byte	0x1
 351 0114 88       		.byte	0x88
 352 0115 6B000000 		.4byte	0x6b
 353 0119 00000000 		.4byte	.LFB2
 354 011d 10000000 		.4byte	.LFE2-.LFB2
 355 0121 01       		.uleb128 0x1
 356 0122 9C       		.byte	0x9c
 357 0123 09       		.uleb128 0x9
 358 0124 30000000 		.4byte	.LASF21
 359 0128 01       		.byte	0x1
 360 0129 A4       		.byte	0xa4
 361 012a 6B000000 		.4byte	0x6b
 362 012e 00000000 		.4byte	.LFB3
 363 0132 10000000 		.4byte	.LFE3-.LFB3
 364 0136 01       		.uleb128 0x1
 365 0137 9C       		.byte	0x9c
 366 0138 06       		.uleb128 0x6
 367 0139 12000000 		.4byte	.LASF22
 368 013d 01       		.byte	0x1
 369 013e CF       		.byte	0xcf
 370 013f 00000000 		.4byte	.LFB4
 371 0143 14000000 		.4byte	.LFE4-.LFB4
 372 0147 01       		.uleb128 0x1
 373 0148 9C       		.byte	0x9c
 374 0149 77010000 		.4byte	0x177
 375 014d 07       		.uleb128 0x7
 376 014e 90000000 		.4byte	.LASF23
 377 0152 01       		.byte	0x1
 378 0153 CF       		.byte	0xcf
 379 0154 77000000 		.4byte	0x77
 380 0158 60000000 		.4byte	.LLST3
 381 015c 0A       		.uleb128 0xa
 382 015d EC000000 		.4byte	.LASF18
 383 0161 01       		.byte	0x1
 384 0162 CF       		.byte	0xcf
 385 0163 77000000 		.4byte	0x77
 386 0167 01       		.uleb128 0x1
ARM GAS  C:\Users\ORA\AppData\Local\Temp\ccPgXlCE.s 			page 12


 387 0168 51       		.byte	0x51
 388 0169 0B       		.uleb128 0xb
 389 016a A0000000 		.4byte	.LASF25
 390 016e 01       		.byte	0x1
 391 016f D1       		.byte	0xd1
 392 0170 83000000 		.4byte	0x83
 393 0174 01       		.uleb128 0x1
 394 0175 53       		.byte	0x53
 395 0176 00       		.byte	0
 396 0177 0C       		.uleb128 0xc
 397 0178 D0010000 		.4byte	.LASF26
 398 017c 01       		.byte	0x1
 399 017d EC       		.byte	0xec
 400 017e 6B000000 		.4byte	0x6b
 401 0182 00000000 		.4byte	.LFB5
 402 0186 14000000 		.4byte	.LFE5-.LFB5
 403 018a 01       		.uleb128 0x1
 404 018b 9C       		.byte	0x9c
 405 018c 08       		.uleb128 0x8
 406 018d 8D010000 		.4byte	.LASF27
 407 0191 01       		.byte	0x1
 408 0192 EE       		.byte	0xee
 409 0193 6B000000 		.4byte	0x6b
 410 0197 81000000 		.4byte	.LLST4
 411 019b 00       		.byte	0
 412 019c 00       		.byte	0
 413              		.section	.debug_abbrev,"",%progbits
 414              	.Ldebug_abbrev0:
 415 0000 01       		.uleb128 0x1
 416 0001 11       		.uleb128 0x11
 417 0002 01       		.byte	0x1
 418 0003 25       		.uleb128 0x25
 419 0004 0E       		.uleb128 0xe
 420 0005 13       		.uleb128 0x13
 421 0006 0B       		.uleb128 0xb
 422 0007 03       		.uleb128 0x3
 423 0008 0E       		.uleb128 0xe
 424 0009 1B       		.uleb128 0x1b
 425 000a 0E       		.uleb128 0xe
 426 000b 55       		.uleb128 0x55
 427 000c 17       		.uleb128 0x17
 428 000d 11       		.uleb128 0x11
 429 000e 01       		.uleb128 0x1
 430 000f 10       		.uleb128 0x10
 431 0010 17       		.uleb128 0x17
 432 0011 00       		.byte	0
 433 0012 00       		.byte	0
 434 0013 02       		.uleb128 0x2
 435 0014 24       		.uleb128 0x24
 436 0015 00       		.byte	0
 437 0016 0B       		.uleb128 0xb
 438 0017 0B       		.uleb128 0xb
 439 0018 3E       		.uleb128 0x3e
 440 0019 0B       		.uleb128 0xb
 441 001a 03       		.uleb128 0x3
 442 001b 0E       		.uleb128 0xe
 443 001c 00       		.byte	0
ARM GAS  C:\Users\ORA\AppData\Local\Temp\ccPgXlCE.s 			page 13


 444 001d 00       		.byte	0
 445 001e 03       		.uleb128 0x3
 446 001f 24       		.uleb128 0x24
 447 0020 00       		.byte	0
 448 0021 0B       		.uleb128 0xb
 449 0022 0B       		.uleb128 0xb
 450 0023 3E       		.uleb128 0x3e
 451 0024 0B       		.uleb128 0xb
 452 0025 03       		.uleb128 0x3
 453 0026 08       		.uleb128 0x8
 454 0027 00       		.byte	0
 455 0028 00       		.byte	0
 456 0029 04       		.uleb128 0x4
 457 002a 16       		.uleb128 0x16
 458 002b 00       		.byte	0
 459 002c 03       		.uleb128 0x3
 460 002d 0E       		.uleb128 0xe
 461 002e 3A       		.uleb128 0x3a
 462 002f 0B       		.uleb128 0xb
 463 0030 3B       		.uleb128 0x3b
 464 0031 05       		.uleb128 0x5
 465 0032 49       		.uleb128 0x49
 466 0033 13       		.uleb128 0x13
 467 0034 00       		.byte	0
 468 0035 00       		.byte	0
 469 0036 05       		.uleb128 0x5
 470 0037 35       		.uleb128 0x35
 471 0038 00       		.byte	0
 472 0039 49       		.uleb128 0x49
 473 003a 13       		.uleb128 0x13
 474 003b 00       		.byte	0
 475 003c 00       		.byte	0
 476 003d 06       		.uleb128 0x6
 477 003e 2E       		.uleb128 0x2e
 478 003f 01       		.byte	0x1
 479 0040 3F       		.uleb128 0x3f
 480 0041 19       		.uleb128 0x19
 481 0042 03       		.uleb128 0x3
 482 0043 0E       		.uleb128 0xe
 483 0044 3A       		.uleb128 0x3a
 484 0045 0B       		.uleb128 0xb
 485 0046 3B       		.uleb128 0x3b
 486 0047 0B       		.uleb128 0xb
 487 0048 27       		.uleb128 0x27
 488 0049 19       		.uleb128 0x19
 489 004a 11       		.uleb128 0x11
 490 004b 01       		.uleb128 0x1
 491 004c 12       		.uleb128 0x12
 492 004d 06       		.uleb128 0x6
 493 004e 40       		.uleb128 0x40
 494 004f 18       		.uleb128 0x18
 495 0050 9742     		.uleb128 0x2117
 496 0052 19       		.uleb128 0x19
 497 0053 01       		.uleb128 0x1
 498 0054 13       		.uleb128 0x13
 499 0055 00       		.byte	0
 500 0056 00       		.byte	0
ARM GAS  C:\Users\ORA\AppData\Local\Temp\ccPgXlCE.s 			page 14


 501 0057 07       		.uleb128 0x7
 502 0058 05       		.uleb128 0x5
 503 0059 00       		.byte	0
 504 005a 03       		.uleb128 0x3
 505 005b 0E       		.uleb128 0xe
 506 005c 3A       		.uleb128 0x3a
 507 005d 0B       		.uleb128 0xb
 508 005e 3B       		.uleb128 0x3b
 509 005f 0B       		.uleb128 0xb
 510 0060 49       		.uleb128 0x49
 511 0061 13       		.uleb128 0x13
 512 0062 02       		.uleb128 0x2
 513 0063 17       		.uleb128 0x17
 514 0064 00       		.byte	0
 515 0065 00       		.byte	0
 516 0066 08       		.uleb128 0x8
 517 0067 34       		.uleb128 0x34
 518 0068 00       		.byte	0
 519 0069 03       		.uleb128 0x3
 520 006a 0E       		.uleb128 0xe
 521 006b 3A       		.uleb128 0x3a
 522 006c 0B       		.uleb128 0xb
 523 006d 3B       		.uleb128 0x3b
 524 006e 0B       		.uleb128 0xb
 525 006f 49       		.uleb128 0x49
 526 0070 13       		.uleb128 0x13
 527 0071 02       		.uleb128 0x2
 528 0072 17       		.uleb128 0x17
 529 0073 00       		.byte	0
 530 0074 00       		.byte	0
 531 0075 09       		.uleb128 0x9
 532 0076 2E       		.uleb128 0x2e
 533 0077 00       		.byte	0
 534 0078 3F       		.uleb128 0x3f
 535 0079 19       		.uleb128 0x19
 536 007a 03       		.uleb128 0x3
 537 007b 0E       		.uleb128 0xe
 538 007c 3A       		.uleb128 0x3a
 539 007d 0B       		.uleb128 0xb
 540 007e 3B       		.uleb128 0x3b
 541 007f 0B       		.uleb128 0xb
 542 0080 27       		.uleb128 0x27
 543 0081 19       		.uleb128 0x19
 544 0082 49       		.uleb128 0x49
 545 0083 13       		.uleb128 0x13
 546 0084 11       		.uleb128 0x11
 547 0085 01       		.uleb128 0x1
 548 0086 12       		.uleb128 0x12
 549 0087 06       		.uleb128 0x6
 550 0088 40       		.uleb128 0x40
 551 0089 18       		.uleb128 0x18
 552 008a 9742     		.uleb128 0x2117
 553 008c 19       		.uleb128 0x19
 554 008d 00       		.byte	0
 555 008e 00       		.byte	0
 556 008f 0A       		.uleb128 0xa
 557 0090 05       		.uleb128 0x5
ARM GAS  C:\Users\ORA\AppData\Local\Temp\ccPgXlCE.s 			page 15


 558 0091 00       		.byte	0
 559 0092 03       		.uleb128 0x3
 560 0093 0E       		.uleb128 0xe
 561 0094 3A       		.uleb128 0x3a
 562 0095 0B       		.uleb128 0xb
 563 0096 3B       		.uleb128 0x3b
 564 0097 0B       		.uleb128 0xb
 565 0098 49       		.uleb128 0x49
 566 0099 13       		.uleb128 0x13
 567 009a 02       		.uleb128 0x2
 568 009b 18       		.uleb128 0x18
 569 009c 00       		.byte	0
 570 009d 00       		.byte	0
 571 009e 0B       		.uleb128 0xb
 572 009f 34       		.uleb128 0x34
 573 00a0 00       		.byte	0
 574 00a1 03       		.uleb128 0x3
 575 00a2 0E       		.uleb128 0xe
 576 00a3 3A       		.uleb128 0x3a
 577 00a4 0B       		.uleb128 0xb
 578 00a5 3B       		.uleb128 0x3b
 579 00a6 0B       		.uleb128 0xb
 580 00a7 49       		.uleb128 0x49
 581 00a8 13       		.uleb128 0x13
 582 00a9 02       		.uleb128 0x2
 583 00aa 18       		.uleb128 0x18
 584 00ab 00       		.byte	0
 585 00ac 00       		.byte	0
 586 00ad 0C       		.uleb128 0xc
 587 00ae 2E       		.uleb128 0x2e
 588 00af 01       		.byte	0x1
 589 00b0 3F       		.uleb128 0x3f
 590 00b1 19       		.uleb128 0x19
 591 00b2 03       		.uleb128 0x3
 592 00b3 0E       		.uleb128 0xe
 593 00b4 3A       		.uleb128 0x3a
 594 00b5 0B       		.uleb128 0xb
 595 00b6 3B       		.uleb128 0x3b
 596 00b7 0B       		.uleb128 0xb
 597 00b8 27       		.uleb128 0x27
 598 00b9 19       		.uleb128 0x19
 599 00ba 49       		.uleb128 0x49
 600 00bb 13       		.uleb128 0x13
 601 00bc 11       		.uleb128 0x11
 602 00bd 01       		.uleb128 0x1
 603 00be 12       		.uleb128 0x12
 604 00bf 06       		.uleb128 0x6
 605 00c0 40       		.uleb128 0x40
 606 00c1 18       		.uleb128 0x18
 607 00c2 9742     		.uleb128 0x2117
 608 00c4 19       		.uleb128 0x19
 609 00c5 00       		.byte	0
 610 00c6 00       		.byte	0
 611 00c7 00       		.byte	0
 612              		.section	.debug_loc,"",%progbits
 613              	.Ldebug_loc0:
 614              	.LLST0:
ARM GAS  C:\Users\ORA\AppData\Local\Temp\ccPgXlCE.s 			page 16


 615 0000 00000000 		.4byte	.LVL0
 616 0004 0A000000 		.4byte	.LVL1
 617 0008 0100     		.2byte	0x1
 618 000a 50       		.byte	0x50
 619 000b 0A000000 		.4byte	.LVL1
 620 000f 18000000 		.4byte	.LFE0
 621 0013 0400     		.2byte	0x4
 622 0015 F3       		.byte	0xf3
 623 0016 01       		.uleb128 0x1
 624 0017 50       		.byte	0x50
 625 0018 9F       		.byte	0x9f
 626 0019 00000000 		.4byte	0
 627 001d 00000000 		.4byte	0
 628              	.LLST1:
 629 0021 00000000 		.4byte	.LVL2
 630 0025 0C000000 		.4byte	.LVL4
 631 0029 0100     		.2byte	0x1
 632 002b 50       		.byte	0x50
 633 002c 0C000000 		.4byte	.LVL4
 634 0030 18000000 		.4byte	.LFE1
 635 0034 0400     		.2byte	0x4
 636 0036 F3       		.byte	0xf3
 637 0037 01       		.uleb128 0x1
 638 0038 50       		.byte	0x50
 639 0039 9F       		.byte	0x9f
 640 003a 00000000 		.4byte	0
 641 003e 00000000 		.4byte	0
 642              	.LLST2:
 643 0042 08000000 		.4byte	.LVL3
 644 0046 0E000000 		.4byte	.LVL5
 645 004a 0100     		.2byte	0x1
 646 004c 52       		.byte	0x52
 647 004d 0E000000 		.4byte	.LVL5
 648 0051 18000000 		.4byte	.LFE1
 649 0055 0100     		.2byte	0x1
 650 0057 50       		.byte	0x50
 651 0058 00000000 		.4byte	0
 652 005c 00000000 		.4byte	0
 653              	.LLST3:
 654 0060 00000000 		.4byte	.LVL6
 655 0064 08000000 		.4byte	.LVL8
 656 0068 0100     		.2byte	0x1
 657 006a 50       		.byte	0x50
 658 006b 08000000 		.4byte	.LVL8
 659 006f 14000000 		.4byte	.LFE4
 660 0073 0400     		.2byte	0x4
 661 0075 F3       		.byte	0xf3
 662 0076 01       		.uleb128 0x1
 663 0077 50       		.byte	0x50
 664 0078 9F       		.byte	0x9f
 665 0079 00000000 		.4byte	0
 666 007d 00000000 		.4byte	0
 667              	.LLST4:
 668 0081 0A000000 		.4byte	.LVL9
 669 0085 0E000000 		.4byte	.LVL10
 670 0089 0100     		.2byte	0x1
 671 008b 50       		.byte	0x50
ARM GAS  C:\Users\ORA\AppData\Local\Temp\ccPgXlCE.s 			page 17


 672 008c 0E000000 		.4byte	.LVL10
 673 0090 14000000 		.4byte	.LFE5
 674 0094 0400     		.2byte	0x4
 675 0096 73       		.byte	0x73
 676 0097 00       		.sleb128 0
 677 0098 06       		.byte	0x6
 678 0099 9F       		.byte	0x9f
 679 009a 00000000 		.4byte	0
 680 009e 00000000 		.4byte	0
 681              		.section	.debug_aranges,"",%progbits
 682 0000 44000000 		.4byte	0x44
 683 0004 0200     		.2byte	0x2
 684 0006 00000000 		.4byte	.Ldebug_info0
 685 000a 04       		.byte	0x4
 686 000b 00       		.byte	0
 687 000c 0000     		.2byte	0
 688 000e 0000     		.2byte	0
 689 0010 00000000 		.4byte	.LFB0
 690 0014 18000000 		.4byte	.LFE0-.LFB0
 691 0018 00000000 		.4byte	.LFB1
 692 001c 18000000 		.4byte	.LFE1-.LFB1
 693 0020 00000000 		.4byte	.LFB2
 694 0024 10000000 		.4byte	.LFE2-.LFB2
 695 0028 00000000 		.4byte	.LFB3
 696 002c 10000000 		.4byte	.LFE3-.LFB3
 697 0030 00000000 		.4byte	.LFB4
 698 0034 14000000 		.4byte	.LFE4-.LFB4
 699 0038 00000000 		.4byte	.LFB5
 700 003c 14000000 		.4byte	.LFE5-.LFB5
 701 0040 00000000 		.4byte	0
 702 0044 00000000 		.4byte	0
 703              		.section	.debug_ranges,"",%progbits
 704              	.Ldebug_ranges0:
 705 0000 00000000 		.4byte	.LFB0
 706 0004 18000000 		.4byte	.LFE0
 707 0008 00000000 		.4byte	.LFB1
 708 000c 18000000 		.4byte	.LFE1
 709 0010 00000000 		.4byte	.LFB2
 710 0014 10000000 		.4byte	.LFE2
 711 0018 00000000 		.4byte	.LFB3
 712 001c 10000000 		.4byte	.LFE3
 713 0020 00000000 		.4byte	.LFB4
 714 0024 14000000 		.4byte	.LFE4
 715 0028 00000000 		.4byte	.LFB5
 716 002c 14000000 		.4byte	.LFE5
 717 0030 00000000 		.4byte	0
 718 0034 00000000 		.4byte	0
 719              		.section	.debug_line,"",%progbits
 720              	.Ldebug_line0:
 721 0000 BA000000 		.section	.debug_str,"MS",%progbits,1
 721      02004300 
 721      00000201 
 721      FB0E0D00 
 721      01010101 
 722              	.LASF15:
 723 0000 72656733 		.ascii	"reg32\000"
 723      3200
ARM GAS  C:\Users\ORA\AppData\Local\Temp\ccPgXlCE.s 			page 18


 724              	.LASF20:
 725 0006 4C45445F 		.ascii	"LED_SW_Read\000"
 725      53575F52 
 725      65616400 
 726              	.LASF22:
 727 0012 4C45445F 		.ascii	"LED_SW_SetInterruptMode\000"
 727      53575F53 
 727      6574496E 
 727      74657272 
 727      7570744D 
 728              	.LASF19:
 729 002a 76616C75 		.ascii	"value\000"
 729      6500
 730              	.LASF21:
 731 0030 4C45445F 		.ascii	"LED_SW_ReadDataReg\000"
 731      53575F52 
 731      65616444 
 731      61746152 
 731      656700
 732              	.LASF12:
 733 0043 666C6F61 		.ascii	"float\000"
 733      7400
 734              	.LASF1:
 735 0049 756E7369 		.ascii	"unsigned char\000"
 735      676E6564 
 735      20636861 
 735      7200
 736              	.LASF24:
 737 0057 64725661 		.ascii	"drVal\000"
 737      6C00
 738              	.LASF5:
 739 005d 6C6F6E67 		.ascii	"long unsigned int\000"
 739      20756E73 
 739      69676E65 
 739      6420696E 
 739      7400
 740              	.LASF3:
 741 006f 73686F72 		.ascii	"short unsigned int\000"
 741      7420756E 
 741      7369676E 
 741      65642069 
 741      6E7400
 742              	.LASF13:
 743 0082 646F7562 		.ascii	"double\000"
 743      6C6500
 744              	.LASF10:
 745 0089 75696E74 		.ascii	"uint16\000"
 745      313600
 746              	.LASF23:
 747 0090 706F7369 		.ascii	"position\000"
 747      74696F6E 
 747      00
 748              	.LASF11:
 749 0099 75696E74 		.ascii	"uint32\000"
 749      333200
 750              	.LASF25:
 751 00a0 696E7472 		.ascii	"intrCfg\000"
ARM GAS  C:\Users\ORA\AppData\Local\Temp\ccPgXlCE.s 			page 19


 751      43666700 
 752              	.LASF8:
 753 00a8 756E7369 		.ascii	"unsigned int\000"
 753      676E6564 
 753      20696E74 
 753      00
 754              	.LASF7:
 755 00b5 6C6F6E67 		.ascii	"long long unsigned int\000"
 755      206C6F6E 
 755      6720756E 
 755      7369676E 
 755      65642069 
 756              	.LASF29:
 757 00cc 47656E65 		.ascii	"Generated_Source\\PSoC4\\LED_SW.c\000"
 757      72617465 
 757      645F536F 
 757      75726365 
 757      5C50536F 
 758              	.LASF18:
 759 00ec 6D6F6465 		.ascii	"mode\000"
 759      00
 760              	.LASF28:
 761 00f1 474E5520 		.ascii	"GNU C11 5.4.1 20160609 (release) [ARM/embedded-5-br"
 761      43313120 
 761      352E342E 
 761      31203230 
 761      31363036 
 762 0124 616E6368 		.ascii	"anch revision 237715] -mcpu=cortex-m0 -mthumb -g -O"
 762      20726576 
 762      6973696F 
 762      6E203233 
 762      37373135 
 763 0157 67202D66 		.ascii	"g -ffunction-sections -ffat-lto-objects\000"
 763      66756E63 
 763      74696F6E 
 763      2D736563 
 763      74696F6E 
 764              	.LASF6:
 765 017f 6C6F6E67 		.ascii	"long long int\000"
 765      206C6F6E 
 765      6720696E 
 765      7400
 766              	.LASF27:
 767 018d 6D61736B 		.ascii	"maskedStatus\000"
 767      65645374 
 767      61747573 
 767      00
 768              	.LASF14:
 769 019a 63686172 		.ascii	"char\000"
 769      00
 770              	.LASF16:
 771 019f 4C45445F 		.ascii	"LED_SW_SetDriveMode\000"
 771      53575F53 
 771      65744472 
 771      6976654D 
 771      6F646500 
 772              	.LASF2:
ARM GAS  C:\Users\ORA\AppData\Local\Temp\ccPgXlCE.s 			page 20


 773 01b3 73686F72 		.ascii	"short int\000"
 773      7420696E 
 773      7400
 774              	.LASF9:
 775 01bd 75696E74 		.ascii	"uint8\000"
 775      3800
 776              	.LASF17:
 777 01c3 4C45445F 		.ascii	"LED_SW_Write\000"
 777      53575F57 
 777      72697465 
 777      00
 778              	.LASF26:
 779 01d0 4C45445F 		.ascii	"LED_SW_ClearInterrupt\000"
 779      53575F43 
 779      6C656172 
 779      496E7465 
 779      72727570 
 780              	.LASF4:
 781 01e6 6C6F6E67 		.ascii	"long int\000"
 781      20696E74 
 781      00
 782              	.LASF0:
 783 01ef 7369676E 		.ascii	"signed char\000"
 783      65642063 
 783      68617200 
 784              	.LASF30:
 785 01fb 433A5C55 		.ascii	"C:\\Users\\ORA\\OneDrive - PetNovations\\Cypress - "
 785      73657273 
 785      5C4F5241 
 785      5C4F6E65 
 785      44726976 
 786 022a 424C455C 		.ascii	"BLE\\Lessons\\Lesson10_I2C_Transmit.cydsn\000"
 786      4C657373 
 786      6F6E735C 
 786      4C657373 
 786      6F6E3130 
 787              		.ident	"GCC: (GNU Tools for ARM Embedded Processors) 5.4.1 20160609 (release) [ARM/embedded-5-bran
