ARM GAS  C:\Users\ORA\AppData\Local\Temp\ccgPtB1c.s 			page 1


   1              		.syntax unified
   2              		.cpu cortex-m0
   3              		.fpu softvfp
   4              		.eabi_attribute 20, 1
   5              		.eabi_attribute 21, 1
   6              		.eabi_attribute 23, 3
   7              		.eabi_attribute 24, 1
   8              		.eabi_attribute 25, 1
   9              		.eabi_attribute 26, 1
  10              		.eabi_attribute 30, 1
  11              		.eabi_attribute 34, 0
  12              		.eabi_attribute 18, 4
  13              		.thumb
  14              		.syntax unified
  15              		.file	"main.c"
  16              		.text
  17              	.Ltext0:
  18              		.cfi_sections	.debug_frame
  19              		.section	.text.main,"ax",%progbits
  20              		.align	2
  21              		.global	main
  22              		.code	16
  23              		.thumb_func
  24              		.type	main, %function
  25              	main:
  26              	.LFB35:
  27              		.file 1 "main.c"
   1:main.c        **** /* ========================================
   2:main.c        ****  *
   3:main.c        ****  * Copyright YOUR COMPANY, THE YEAR
   4:main.c        ****  * All Rights Reserved
   5:main.c        ****  * UNPUBLISHED, LICENSED SOFTWARE.
   6:main.c        ****  *
   7:main.c        ****  * CONFIDENTIAL AND PROPRIETARY INFORMATION
   8:main.c        ****  * WHICH IS THE PROPERTY OF your company.
   9:main.c        ****  *
  10:main.c        ****  * ========================================
  11:main.c        **** */
  12:main.c        **** #include "project.h"
  13:main.c        **** #define BUFF_SIZE 1 
  14:main.c        **** uint16 counter= 0,lastCount =0,diff;
  15:main.c        **** 
  16:main.c        **** 
  17:main.c        **** int main(void)
  18:main.c        **** {
  28              		.loc 1 18 0
  29              		.cfi_startproc
  30              		@ args = 0, pretend = 0, frame = 8
  31              		@ frame_needed = 0, uses_anonymous_args = 0
  32 0000 10B5     		push	{r4, lr}
  33              		.cfi_def_cfa_offset 8
  34              		.cfi_offset 4, -8
  35              		.cfi_offset 14, -4
  36 0002 82B0     		sub	sp, sp, #8
  37              		.cfi_def_cfa_offset 16
  19:main.c        ****     uint8 i2cBuff[2]={0};
  38              		.loc 1 19 0
ARM GAS  C:\Users\ORA\AppData\Local\Temp\ccgPtB1c.s 			page 2


  39 0004 01AC     		add	r4, sp, #4
  40 0006 0023     		movs	r3, #0
  41 0008 2380     		strh	r3, [r4]
  20:main.c        ****     CyGlobalIntEnable; /* Enable global interrupts. */
  42              		.loc 1 20 0
  43              		.syntax divided
  44              	@ 20 "main.c" 1
  45 000a 62B6     		CPSIE   i
  46              	@ 0 "" 2
  21:main.c        ****     LED_RED_PWM_Start();    
  47              		.loc 1 21 0
  48              		.thumb
  49              		.syntax unified
  50 000c FFF7FEFF 		bl	LED_RED_PWM_Start
  51              	.LVL0:
  22:main.c        **** 
  23:main.c        ****     I2C_Start();
  52              		.loc 1 23 0
  53 0010 FFF7FEFF 		bl	I2C_Start
  54              	.LVL1:
  24:main.c        ****     I2C_EzI2CSetBuffer1(BUFF_SIZE,0,i2cBuff);
  55              		.loc 1 24 0
  56 0014 2200     		movs	r2, r4
  57 0016 0021     		movs	r1, #0
  58 0018 0120     		movs	r0, #1
  59 001a FFF7FEFF 		bl	I2C_EzI2CSetBuffer1
  60              	.LVL2:
  61              	.L2:
  25:main.c        ****     
  26:main.c        ****     for (;;){
  27:main.c        ****         i2cBuff[0] = LED_RED_PWM_ReadCounter();
  62              		.loc 1 27 0 discriminator 1
  63 001e FFF7FEFF 		bl	LED_RED_PWM_ReadCounter
  64              	.LVL3:
  65 0022 01AB     		add	r3, sp, #4
  66 0024 1870     		strb	r0, [r3]
  67 0026 FAE7     		b	.L2
  68              		.cfi_endproc
  69              	.LFE35:
  70              		.size	main, .-main
  71              		.comm	diff,2,2
  72              		.global	lastCount
  73              		.global	counter
  74              		.bss
  75              		.align	1
  76              		.type	lastCount, %object
  77              		.size	lastCount, 2
  78              	lastCount:
  79 0000 0000     		.space	2
  80              		.type	counter, %object
  81              		.size	counter, 2
  82              	counter:
  83 0002 0000     		.space	2
  84              		.text
  85              	.Letext0:
  86              		.file 2 "Generated_Source\\PSoC4/cytypes.h"
  87              		.file 3 "Generated_Source\\PSoC4/LED_RED_PWM.h"
ARM GAS  C:\Users\ORA\AppData\Local\Temp\ccgPtB1c.s 			page 3


  88              		.file 4 "Generated_Source\\PSoC4/I2C.h"
  89              		.file 5 "Generated_Source\\PSoC4/I2C_EZI2C.h"
  90              		.section	.debug_info,"",%progbits
  91              	.Ldebug_info0:
  92 0000 75010000 		.4byte	0x175
  93 0004 0400     		.2byte	0x4
  94 0006 00000000 		.4byte	.Ldebug_abbrev0
  95 000a 04       		.byte	0x4
  96 000b 01       		.uleb128 0x1
  97 000c EB000000 		.4byte	.LASF23
  98 0010 0C       		.byte	0xc
  99 0011 2D000000 		.4byte	.LASF24
 100 0015 A4010000 		.4byte	.LASF25
 101 0019 00000000 		.4byte	.Ldebug_ranges0+0
 102 001d 00000000 		.4byte	0
 103 0021 00000000 		.4byte	.Ldebug_line0
 104 0025 02       		.uleb128 0x2
 105 0026 01       		.byte	0x1
 106 0027 06       		.byte	0x6
 107 0028 8C010000 		.4byte	.LASF0
 108 002c 02       		.uleb128 0x2
 109 002d 01       		.byte	0x1
 110 002e 08       		.byte	0x8
 111 002f 9E000000 		.4byte	.LASF1
 112 0033 02       		.uleb128 0x2
 113 0034 02       		.byte	0x2
 114 0035 05       		.byte	0x5
 115 0036 D2000000 		.4byte	.LASF2
 116 003a 02       		.uleb128 0x2
 117 003b 02       		.byte	0x2
 118 003c 07       		.byte	0x7
 119 003d 79010000 		.4byte	.LASF3
 120 0041 02       		.uleb128 0x2
 121 0042 04       		.byte	0x4
 122 0043 05       		.byte	0x5
 123 0044 C9000000 		.4byte	.LASF4
 124 0048 02       		.uleb128 0x2
 125 0049 04       		.byte	0x4
 126 004a 07       		.byte	0x7
 127 004b 3F000000 		.4byte	.LASF5
 128 004f 02       		.uleb128 0x2
 129 0050 08       		.byte	0x8
 130 0051 05       		.byte	0x5
 131 0052 00000000 		.4byte	.LASF6
 132 0056 02       		.uleb128 0x2
 133 0057 08       		.byte	0x8
 134 0058 07       		.byte	0x7
 135 0059 51000000 		.4byte	.LASF7
 136 005d 03       		.uleb128 0x3
 137 005e 04       		.byte	0x4
 138 005f 05       		.byte	0x5
 139 0060 696E7400 		.ascii	"int\000"
 140 0064 02       		.uleb128 0x2
 141 0065 04       		.byte	0x4
 142 0066 07       		.byte	0x7
 143 0067 18000000 		.4byte	.LASF8
 144 006b 04       		.uleb128 0x4
ARM GAS  C:\Users\ORA\AppData\Local\Temp\ccgPtB1c.s 			page 4


 145 006c 39000000 		.4byte	.LASF9
 146 0070 02       		.byte	0x2
 147 0071 E601     		.2byte	0x1e6
 148 0073 2C000000 		.4byte	0x2c
 149 0077 04       		.uleb128 0x4
 150 0078 FB010000 		.4byte	.LASF10
 151 007c 02       		.byte	0x2
 152 007d E701     		.2byte	0x1e7
 153 007f 3A000000 		.4byte	0x3a
 154 0083 02       		.uleb128 0x2
 155 0084 04       		.byte	0x4
 156 0085 04       		.byte	0x4
 157 0086 68000000 		.4byte	.LASF11
 158 008a 02       		.uleb128 0x2
 159 008b 08       		.byte	0x8
 160 008c 04       		.byte	0x4
 161 008d DC000000 		.4byte	.LASF12
 162 0091 02       		.uleb128 0x2
 163 0092 01       		.byte	0x1
 164 0093 08       		.byte	0x8
 165 0094 AC000000 		.4byte	.LASF13
 166 0098 02       		.uleb128 0x2
 167 0099 08       		.byte	0x8
 168 009a 04       		.byte	0x4
 169 009b 98010000 		.4byte	.LASF14
 170 009f 02       		.uleb128 0x2
 171 00a0 04       		.byte	0x4
 172 00a1 07       		.byte	0x7
 173 00a2 07020000 		.4byte	.LASF15
 174 00a6 05       		.uleb128 0x5
 175 00a7 34000000 		.4byte	.LASF26
 176 00ab 01       		.byte	0x1
 177 00ac 11       		.byte	0x11
 178 00ad 5D000000 		.4byte	0x5d
 179 00b1 00000000 		.4byte	.LFB35
 180 00b5 28000000 		.4byte	.LFE35-.LFB35
 181 00b9 01       		.uleb128 0x1
 182 00ba 9C       		.byte	0x9c
 183 00bb 07010000 		.4byte	0x107
 184 00bf 06       		.uleb128 0x6
 185 00c0 25000000 		.4byte	.LASF27
 186 00c4 01       		.byte	0x1
 187 00c5 13       		.byte	0x13
 188 00c6 07010000 		.4byte	0x107
 189 00ca 02       		.uleb128 0x2
 190 00cb 91       		.byte	0x91
 191 00cc 74       		.sleb128 -12
 192 00cd 07       		.uleb128 0x7
 193 00ce 10000000 		.4byte	.LVL0
 194 00d2 4A010000 		.4byte	0x14a
 195 00d6 07       		.uleb128 0x7
 196 00d7 14000000 		.4byte	.LVL1
 197 00db 56010000 		.4byte	0x156
 198 00df 08       		.uleb128 0x8
 199 00e0 1E000000 		.4byte	.LVL2
 200 00e4 61010000 		.4byte	0x161
 201 00e8 FD000000 		.4byte	0xfd
ARM GAS  C:\Users\ORA\AppData\Local\Temp\ccgPtB1c.s 			page 5


 202 00ec 09       		.uleb128 0x9
 203 00ed 01       		.uleb128 0x1
 204 00ee 50       		.byte	0x50
 205 00ef 01       		.uleb128 0x1
 206 00f0 31       		.byte	0x31
 207 00f1 09       		.uleb128 0x9
 208 00f2 01       		.uleb128 0x1
 209 00f3 51       		.byte	0x51
 210 00f4 01       		.uleb128 0x1
 211 00f5 30       		.byte	0x30
 212 00f6 09       		.uleb128 0x9
 213 00f7 01       		.uleb128 0x1
 214 00f8 52       		.byte	0x52
 215 00f9 02       		.uleb128 0x2
 216 00fa 74       		.byte	0x74
 217 00fb 00       		.sleb128 0
 218 00fc 00       		.byte	0
 219 00fd 07       		.uleb128 0x7
 220 00fe 22000000 		.4byte	.LVL3
 221 0102 6C010000 		.4byte	0x16c
 222 0106 00       		.byte	0
 223 0107 0A       		.uleb128 0xa
 224 0108 6B000000 		.4byte	0x6b
 225 010c 17010000 		.4byte	0x117
 226 0110 0B       		.uleb128 0xb
 227 0111 9F000000 		.4byte	0x9f
 228 0115 01       		.byte	0x1
 229 0116 00       		.byte	0
 230 0117 0C       		.uleb128 0xc
 231 0118 E3000000 		.4byte	.LASF16
 232 011c 01       		.byte	0x1
 233 011d 0E       		.byte	0xe
 234 011e 77000000 		.4byte	0x77
 235 0122 05       		.uleb128 0x5
 236 0123 03       		.byte	0x3
 237 0124 00000000 		.4byte	counter
 238 0128 0C       		.uleb128 0xc
 239 0129 94000000 		.4byte	.LASF17
 240 012d 01       		.byte	0x1
 241 012e 0E       		.byte	0xe
 242 012f 77000000 		.4byte	0x77
 243 0133 05       		.uleb128 0x5
 244 0134 03       		.byte	0x3
 245 0135 00000000 		.4byte	lastCount
 246 0139 0C       		.uleb128 0xc
 247 013a 02020000 		.4byte	.LASF18
 248 013e 01       		.byte	0x1
 249 013f 0E       		.byte	0xe
 250 0140 77000000 		.4byte	0x77
 251 0144 05       		.uleb128 0x5
 252 0145 03       		.byte	0x3
 253 0146 00000000 		.4byte	diff
 254 014a 0D       		.uleb128 0xd
 255 014b 82000000 		.4byte	.LASF19
 256 014f 82000000 		.4byte	.LASF19
 257 0153 03       		.byte	0x3
 258 0154 3201     		.2byte	0x132
ARM GAS  C:\Users\ORA\AppData\Local\Temp\ccgPtB1c.s 			page 6


 259 0156 0E       		.uleb128 0xe
 260 0157 0E000000 		.4byte	.LASF20
 261 015b 0E000000 		.4byte	.LASF20
 262 015f 04       		.byte	0x4
 263 0160 72       		.byte	0x72
 264 0161 0E       		.uleb128 0xe
 265 0162 6E000000 		.4byte	.LASF21
 266 0166 6E000000 		.4byte	.LASF21
 267 016a 05       		.byte	0x5
 268 016b A2       		.byte	0xa2
 269 016c 0D       		.uleb128 0xd
 270 016d B1000000 		.4byte	.LASF22
 271 0171 B1000000 		.4byte	.LASF22
 272 0175 03       		.byte	0x3
 273 0176 4B01     		.2byte	0x14b
 274 0178 00       		.byte	0
 275              		.section	.debug_abbrev,"",%progbits
 276              	.Ldebug_abbrev0:
 277 0000 01       		.uleb128 0x1
 278 0001 11       		.uleb128 0x11
 279 0002 01       		.byte	0x1
 280 0003 25       		.uleb128 0x25
 281 0004 0E       		.uleb128 0xe
 282 0005 13       		.uleb128 0x13
 283 0006 0B       		.uleb128 0xb
 284 0007 03       		.uleb128 0x3
 285 0008 0E       		.uleb128 0xe
 286 0009 1B       		.uleb128 0x1b
 287 000a 0E       		.uleb128 0xe
 288 000b 55       		.uleb128 0x55
 289 000c 17       		.uleb128 0x17
 290 000d 11       		.uleb128 0x11
 291 000e 01       		.uleb128 0x1
 292 000f 10       		.uleb128 0x10
 293 0010 17       		.uleb128 0x17
 294 0011 00       		.byte	0
 295 0012 00       		.byte	0
 296 0013 02       		.uleb128 0x2
 297 0014 24       		.uleb128 0x24
 298 0015 00       		.byte	0
 299 0016 0B       		.uleb128 0xb
 300 0017 0B       		.uleb128 0xb
 301 0018 3E       		.uleb128 0x3e
 302 0019 0B       		.uleb128 0xb
 303 001a 03       		.uleb128 0x3
 304 001b 0E       		.uleb128 0xe
 305 001c 00       		.byte	0
 306 001d 00       		.byte	0
 307 001e 03       		.uleb128 0x3
 308 001f 24       		.uleb128 0x24
 309 0020 00       		.byte	0
 310 0021 0B       		.uleb128 0xb
 311 0022 0B       		.uleb128 0xb
 312 0023 3E       		.uleb128 0x3e
 313 0024 0B       		.uleb128 0xb
 314 0025 03       		.uleb128 0x3
 315 0026 08       		.uleb128 0x8
ARM GAS  C:\Users\ORA\AppData\Local\Temp\ccgPtB1c.s 			page 7


 316 0027 00       		.byte	0
 317 0028 00       		.byte	0
 318 0029 04       		.uleb128 0x4
 319 002a 16       		.uleb128 0x16
 320 002b 00       		.byte	0
 321 002c 03       		.uleb128 0x3
 322 002d 0E       		.uleb128 0xe
 323 002e 3A       		.uleb128 0x3a
 324 002f 0B       		.uleb128 0xb
 325 0030 3B       		.uleb128 0x3b
 326 0031 05       		.uleb128 0x5
 327 0032 49       		.uleb128 0x49
 328 0033 13       		.uleb128 0x13
 329 0034 00       		.byte	0
 330 0035 00       		.byte	0
 331 0036 05       		.uleb128 0x5
 332 0037 2E       		.uleb128 0x2e
 333 0038 01       		.byte	0x1
 334 0039 3F       		.uleb128 0x3f
 335 003a 19       		.uleb128 0x19
 336 003b 03       		.uleb128 0x3
 337 003c 0E       		.uleb128 0xe
 338 003d 3A       		.uleb128 0x3a
 339 003e 0B       		.uleb128 0xb
 340 003f 3B       		.uleb128 0x3b
 341 0040 0B       		.uleb128 0xb
 342 0041 27       		.uleb128 0x27
 343 0042 19       		.uleb128 0x19
 344 0043 49       		.uleb128 0x49
 345 0044 13       		.uleb128 0x13
 346 0045 8701     		.uleb128 0x87
 347 0047 19       		.uleb128 0x19
 348 0048 11       		.uleb128 0x11
 349 0049 01       		.uleb128 0x1
 350 004a 12       		.uleb128 0x12
 351 004b 06       		.uleb128 0x6
 352 004c 40       		.uleb128 0x40
 353 004d 18       		.uleb128 0x18
 354 004e 9742     		.uleb128 0x2117
 355 0050 19       		.uleb128 0x19
 356 0051 01       		.uleb128 0x1
 357 0052 13       		.uleb128 0x13
 358 0053 00       		.byte	0
 359 0054 00       		.byte	0
 360 0055 06       		.uleb128 0x6
 361 0056 34       		.uleb128 0x34
 362 0057 00       		.byte	0
 363 0058 03       		.uleb128 0x3
 364 0059 0E       		.uleb128 0xe
 365 005a 3A       		.uleb128 0x3a
 366 005b 0B       		.uleb128 0xb
 367 005c 3B       		.uleb128 0x3b
 368 005d 0B       		.uleb128 0xb
 369 005e 49       		.uleb128 0x49
 370 005f 13       		.uleb128 0x13
 371 0060 02       		.uleb128 0x2
 372 0061 18       		.uleb128 0x18
ARM GAS  C:\Users\ORA\AppData\Local\Temp\ccgPtB1c.s 			page 8


 373 0062 00       		.byte	0
 374 0063 00       		.byte	0
 375 0064 07       		.uleb128 0x7
 376 0065 898201   		.uleb128 0x4109
 377 0068 00       		.byte	0
 378 0069 11       		.uleb128 0x11
 379 006a 01       		.uleb128 0x1
 380 006b 31       		.uleb128 0x31
 381 006c 13       		.uleb128 0x13
 382 006d 00       		.byte	0
 383 006e 00       		.byte	0
 384 006f 08       		.uleb128 0x8
 385 0070 898201   		.uleb128 0x4109
 386 0073 01       		.byte	0x1
 387 0074 11       		.uleb128 0x11
 388 0075 01       		.uleb128 0x1
 389 0076 31       		.uleb128 0x31
 390 0077 13       		.uleb128 0x13
 391 0078 01       		.uleb128 0x1
 392 0079 13       		.uleb128 0x13
 393 007a 00       		.byte	0
 394 007b 00       		.byte	0
 395 007c 09       		.uleb128 0x9
 396 007d 8A8201   		.uleb128 0x410a
 397 0080 00       		.byte	0
 398 0081 02       		.uleb128 0x2
 399 0082 18       		.uleb128 0x18
 400 0083 9142     		.uleb128 0x2111
 401 0085 18       		.uleb128 0x18
 402 0086 00       		.byte	0
 403 0087 00       		.byte	0
 404 0088 0A       		.uleb128 0xa
 405 0089 01       		.uleb128 0x1
 406 008a 01       		.byte	0x1
 407 008b 49       		.uleb128 0x49
 408 008c 13       		.uleb128 0x13
 409 008d 01       		.uleb128 0x1
 410 008e 13       		.uleb128 0x13
 411 008f 00       		.byte	0
 412 0090 00       		.byte	0
 413 0091 0B       		.uleb128 0xb
 414 0092 21       		.uleb128 0x21
 415 0093 00       		.byte	0
 416 0094 49       		.uleb128 0x49
 417 0095 13       		.uleb128 0x13
 418 0096 2F       		.uleb128 0x2f
 419 0097 0B       		.uleb128 0xb
 420 0098 00       		.byte	0
 421 0099 00       		.byte	0
 422 009a 0C       		.uleb128 0xc
 423 009b 34       		.uleb128 0x34
 424 009c 00       		.byte	0
 425 009d 03       		.uleb128 0x3
 426 009e 0E       		.uleb128 0xe
 427 009f 3A       		.uleb128 0x3a
 428 00a0 0B       		.uleb128 0xb
 429 00a1 3B       		.uleb128 0x3b
ARM GAS  C:\Users\ORA\AppData\Local\Temp\ccgPtB1c.s 			page 9


 430 00a2 0B       		.uleb128 0xb
 431 00a3 49       		.uleb128 0x49
 432 00a4 13       		.uleb128 0x13
 433 00a5 3F       		.uleb128 0x3f
 434 00a6 19       		.uleb128 0x19
 435 00a7 02       		.uleb128 0x2
 436 00a8 18       		.uleb128 0x18
 437 00a9 00       		.byte	0
 438 00aa 00       		.byte	0
 439 00ab 0D       		.uleb128 0xd
 440 00ac 2E       		.uleb128 0x2e
 441 00ad 00       		.byte	0
 442 00ae 3F       		.uleb128 0x3f
 443 00af 19       		.uleb128 0x19
 444 00b0 3C       		.uleb128 0x3c
 445 00b1 19       		.uleb128 0x19
 446 00b2 6E       		.uleb128 0x6e
 447 00b3 0E       		.uleb128 0xe
 448 00b4 03       		.uleb128 0x3
 449 00b5 0E       		.uleb128 0xe
 450 00b6 3A       		.uleb128 0x3a
 451 00b7 0B       		.uleb128 0xb
 452 00b8 3B       		.uleb128 0x3b
 453 00b9 05       		.uleb128 0x5
 454 00ba 00       		.byte	0
 455 00bb 00       		.byte	0
 456 00bc 0E       		.uleb128 0xe
 457 00bd 2E       		.uleb128 0x2e
 458 00be 00       		.byte	0
 459 00bf 3F       		.uleb128 0x3f
 460 00c0 19       		.uleb128 0x19
 461 00c1 3C       		.uleb128 0x3c
 462 00c2 19       		.uleb128 0x19
 463 00c3 6E       		.uleb128 0x6e
 464 00c4 0E       		.uleb128 0xe
 465 00c5 03       		.uleb128 0x3
 466 00c6 0E       		.uleb128 0xe
 467 00c7 3A       		.uleb128 0x3a
 468 00c8 0B       		.uleb128 0xb
 469 00c9 3B       		.uleb128 0x3b
 470 00ca 0B       		.uleb128 0xb
 471 00cb 00       		.byte	0
 472 00cc 00       		.byte	0
 473 00cd 00       		.byte	0
 474              		.section	.debug_aranges,"",%progbits
 475 0000 1C000000 		.4byte	0x1c
 476 0004 0200     		.2byte	0x2
 477 0006 00000000 		.4byte	.Ldebug_info0
 478 000a 04       		.byte	0x4
 479 000b 00       		.byte	0
 480 000c 0000     		.2byte	0
 481 000e 0000     		.2byte	0
 482 0010 00000000 		.4byte	.LFB35
 483 0014 28000000 		.4byte	.LFE35-.LFB35
 484 0018 00000000 		.4byte	0
 485 001c 00000000 		.4byte	0
 486              		.section	.debug_ranges,"",%progbits
ARM GAS  C:\Users\ORA\AppData\Local\Temp\ccgPtB1c.s 			page 10


 487              	.Ldebug_ranges0:
 488 0000 00000000 		.4byte	.LFB35
 489 0004 28000000 		.4byte	.LFE35
 490 0008 00000000 		.4byte	0
 491 000c 00000000 		.4byte	0
 492              		.section	.debug_line,"",%progbits
 493              	.Ldebug_line0:
 494 0000 89000000 		.section	.debug_str,"MS",%progbits,1
 494      02006A00 
 494      00000201 
 494      FB0E0D00 
 494      01010101 
 495              	.LASF6:
 496 0000 6C6F6E67 		.ascii	"long long int\000"
 496      206C6F6E 
 496      6720696E 
 496      7400
 497              	.LASF20:
 498 000e 4932435F 		.ascii	"I2C_Start\000"
 498      53746172 
 498      7400
 499              	.LASF8:
 500 0018 756E7369 		.ascii	"unsigned int\000"
 500      676E6564 
 500      20696E74 
 500      00
 501              	.LASF27:
 502 0025 69326342 		.ascii	"i2cBuff\000"
 502      75666600 
 503              	.LASF24:
 504 002d 6D61696E 		.ascii	"main.c\000"
 504      2E6300
 505              	.LASF26:
 506 0034 6D61696E 		.ascii	"main\000"
 506      00
 507              	.LASF9:
 508 0039 75696E74 		.ascii	"uint8\000"
 508      3800
 509              	.LASF5:
 510 003f 6C6F6E67 		.ascii	"long unsigned int\000"
 510      20756E73 
 510      69676E65 
 510      6420696E 
 510      7400
 511              	.LASF7:
 512 0051 6C6F6E67 		.ascii	"long long unsigned int\000"
 512      206C6F6E 
 512      6720756E 
 512      7369676E 
 512      65642069 
 513              	.LASF11:
 514 0068 666C6F61 		.ascii	"float\000"
 514      7400
 515              	.LASF21:
 516 006e 4932435F 		.ascii	"I2C_EzI2CSetBuffer1\000"
 516      457A4932 
 516      43536574 
ARM GAS  C:\Users\ORA\AppData\Local\Temp\ccgPtB1c.s 			page 11


 516      42756666 
 516      65723100 
 517              	.LASF19:
 518 0082 4C45445F 		.ascii	"LED_RED_PWM_Start\000"
 518      5245445F 
 518      50574D5F 
 518      53746172 
 518      7400
 519              	.LASF17:
 520 0094 6C617374 		.ascii	"lastCount\000"
 520      436F756E 
 520      7400
 521              	.LASF1:
 522 009e 756E7369 		.ascii	"unsigned char\000"
 522      676E6564 
 522      20636861 
 522      7200
 523              	.LASF13:
 524 00ac 63686172 		.ascii	"char\000"
 524      00
 525              	.LASF22:
 526 00b1 4C45445F 		.ascii	"LED_RED_PWM_ReadCounter\000"
 526      5245445F 
 526      50574D5F 
 526      52656164 
 526      436F756E 
 527              	.LASF4:
 528 00c9 6C6F6E67 		.ascii	"long int\000"
 528      20696E74 
 528      00
 529              	.LASF2:
 530 00d2 73686F72 		.ascii	"short int\000"
 530      7420696E 
 530      7400
 531              	.LASF12:
 532 00dc 646F7562 		.ascii	"double\000"
 532      6C6500
 533              	.LASF16:
 534 00e3 636F756E 		.ascii	"counter\000"
 534      74657200 
 535              	.LASF23:
 536 00eb 474E5520 		.ascii	"GNU C11 5.4.1 20160609 (release) [ARM/embedded-5-br"
 536      43313120 
 536      352E342E 
 536      31203230 
 536      31363036 
 537 011e 616E6368 		.ascii	"anch revision 237715] -mcpu=cortex-m0 -mthumb -g -O"
 537      20726576 
 537      6973696F 
 537      6E203233 
 537      37373135 
 538 0151 67202D66 		.ascii	"g -ffunction-sections -ffat-lto-objects\000"
 538      66756E63 
 538      74696F6E 
 538      2D736563 
 538      74696F6E 
 539              	.LASF3:
ARM GAS  C:\Users\ORA\AppData\Local\Temp\ccgPtB1c.s 			page 12


 540 0179 73686F72 		.ascii	"short unsigned int\000"
 540      7420756E 
 540      7369676E 
 540      65642069 
 540      6E7400
 541              	.LASF0:
 542 018c 7369676E 		.ascii	"signed char\000"
 542      65642063 
 542      68617200 
 543              	.LASF14:
 544 0198 6C6F6E67 		.ascii	"long double\000"
 544      20646F75 
 544      626C6500 
 545              	.LASF25:
 546 01a4 433A5C55 		.ascii	"C:\\Users\\ORA\\OneDrive - PetNovations\\Cypress - "
 546      73657273 
 546      5C4F5241 
 546      5C4F6E65 
 546      44726976 
 547 01d3 424C455C 		.ascii	"BLE\\Lessons\\Lesson10_I2C_Transmit.cydsn\000"
 547      4C657373 
 547      6F6E735C 
 547      4C657373 
 547      6F6E3130 
 548              	.LASF10:
 549 01fb 75696E74 		.ascii	"uint16\000"
 549      313600
 550              	.LASF18:
 551 0202 64696666 		.ascii	"diff\000"
 551      00
 552              	.LASF15:
 553 0207 73697A65 		.ascii	"sizetype\000"
 553      74797065 
 553      00
 554              		.ident	"GCC: (GNU Tools for ARM Embedded Processors) 5.4.1 20160609 (release) [ARM/embedded-5-bran
