===========Generating Bitstream===========
# UDB_PA_0 (count=15)
00000000: 00 00 99 00 00 00 00 00 00 00 00 00 00 00 00
# IOPINS0_0 (count=28)
0000000f: 00 00 00 00 00 00 00 00 00 00 d8 00 00 00 00 00
0000001f: 00 00 00 00 00 00 00 00 00 00 00 00
# UDB_PA_1 (count=15)
0000002b: 00 00 99 00 00 00 00 00 00 00 00 00 00 00 00
# IOPINS0_1 (count=28)
0000003a: 20 00 00 00 00 00 00 00 00 10 03 00 00 00 00 00
0000004a: 00 00 00 00 00 00 00 00 20 00 00 00
# UDB_PA_2 (count=15)
00000056: 00 00 99 00 00 00 00 00 00 00 00 10 00 00 00
# IOPINS0_2 (count=28)
00000065: c0 00 00 00 00 00 00 00 00 00 58 00 00 00 00 00
00000075: 00 00 00 00 00 00 00 00 00 00 00 00
# UDB_PA_3 (count=15)
00000081: 00 00 99 00 00 00 00 00 00 00 00 35 00 00 00
# IOPINS0_3 (count=28)
00000090: c0 00 00 00 00 00 00 00 00 00 d8 00 00 00 00 00
000000a0: 00 00 00 00 00 00 00 00 00 00 00 00
# IOPINS0_4 (count=28)
000000ac: 00 00 00 00 00 00 00 00 00 00 00 00 00 00 00 00
000000bc: 00 00 00 00 00 00 00 00 00 00 00 00
# IOPINS0_5 (count=28)
000000c8: 00 00 00 00 00 00 00 00 00 00 00 00 00 00 00 00
000000d8: 00 00 00 00 00 00 00 00 00 00 00 00
# IOPINS0_6 (count=28)
000000e4: 00 00 00 00 00 00 00 00 00 00 00 00 00 00 00 00
000000f4: 00 00 00 00 00 00 00 00 00 00 00 00
# INT_SELECT (count=4)
00000100: 00 00 00 00
# INT_CONFIG (count=4)
00000104: 00 00 00 00
# CYDEV_CLK_IMO_CONFIG (count=4)
00000108: 00 00 00 80
# CYDEV_CLK_ILO_CONFIG (count=4)
0000010c: 06 00 00 80
# CYDEV_CLK_SELECT (count=4)
00000110: 00 00 04 00
# CYDEV_WDT_CONFIG (count=4)
00000114: 00 00 00 40
# CYDEV_PERI_PCLK_CTL1 (count=4)
00000118: 40 00 00 00
# TR_GROUP0 (count=32)
0000011c: 00 00 00 00 00 00 00 00 00 00 00 00 00 00 00 00
0000012c: 00 00 00 00 00 00 00 00 00 00 00 00 00 00 00 00

# UDB_0_1_0_CONFIG (count=128)
0000013c: 00 00 00 00 00 00 00 00 00 00 00 00 00 00 00 00
0000014c: 00 00 00 00 00 00 00 00 00 00 00 00 00 00 00 00
0000015c: 00 00 00 00 00 00 00 00 00 00 00 00 00 00 00 00
0000016c: 00 00 00 00 00 00 00 00 00 00 00 00 00 00 00 00
0000017c: 00 00 00 00 00 00 00 00 00 00 00 00 00 00 00 00
0000018c: 00 00 00 00 00 00 00 00 00 00 00 00 00 00 00 00
0000019c: 00 00 00 00 00 00 00 00 00 00 00 00 00 00 00 00
000001ac: 00 00 00 00 00 00 00 00 00 00 00 00 00 00 00 00

# UDB_0_1_1_CONFIG (count=128)
000001bc: 00 00 00 00 00 00 00 00 00 00 00 00 00 00 00 00
000001cc: 00 00 00 00 00 00 00 00 00 00 00 00 00 00 00 00
000001dc: 00 00 00 00 00 00 00 00 00 00 00 00 00 00 00 00
000001ec: 00 00 00 00 00 00 00 00 00 00 00 00 00 00 00 00
000001fc: 00 00 00 00 00 00 00 00 00 00 00 00 00 00 00 00
0000020c: 00 00 00 00 00 00 00 00 00 00 00 00 00 00 00 00
0000021c: 00 00 00 00 00 00 00 00 00 00 00 00 00 00 00 00
0000022c: 00 00 00 00 00 00 00 00 00 00 00 00 00 00 00 00

# UDB_0_0_1_CONFIG (count=128)
0000023c: 00 00 00 00 00 00 00 00 00 00 00 00 00 00 00 00
0000024c: 00 00 00 00 00 00 00 00 00 00 00 00 00 00 00 00
0000025c: 00 00 00 00 00 00 00 00 00 00 00 00 00 00 00 00
0000026c: 00 00 00 00 00 00 00 00 00 00 00 00 00 00 00 00
0000027c: 00 00 00 00 00 00 00 00 00 00 00 00 00 00 00 00
0000028c: 00 00 00 00 00 00 00 00 00 00 00 00 00 00 00 00
0000029c: 00 00 00 00 00 00 00 00 00 00 00 00 00 00 00 00
000002ac: 00 00 00 00 00 00 00 00 00 00 00 00 00 00 00 00

# UDB_0_0_0_CONFIG (count=128)
000002bc: 00 00 00 00 00 00 00 00 00 00 03 00 00 00 01 00
000002cc: 00 00 00 00 00 00 00 00 00 00 00 00 00 00 00 00
000002dc: 00 00 00 00 00 00 00 00 00 00 00 00 00 00 00 00
000002ec: 02 00 00 00 01 00 00 00 00 00 2e 00 00 00 00 00
000002fc: 00 00 00 00 00 00 00 00 00 00 00 00 00 00 00 00
0000030c: 00 00 00 00 00 00 00 00 24 00 00 04 08 00 00 31
0000031c: 00 00 00 00 00 00 00 00 00 00 00 00 00 00 00 00
0000032c: 00 00 00 00 00 00 00 00 00 00 00 00 00 00 00 00

# UWRK_B0_WRK_DP_BITS (count=64)
0000033c: 00 00 00 00 00 00 00 00 00 00 00 00 00 00 00 00
0000034c: 00 00 00 00 00 00 00 00 00 00 00 00 00 00 00 00
0000035c: 00 00 00 00 00 00 00 00 00 00 00 00 00 00 00 00
0000036c: 00 00 00 00 00 00 00 00 00 00 00 00 00 00 00 00

# UWRK_B0_WRK_STATCTL_BITS + 0x00000070 (count=32)
0000037c: 00 00 00 00 00 00 00 00 00 00 00 00 00 00 00 00
0000038c: 00 00 00 00 00 00 00 00 00 00 00 00 00 00 00 00

# UDB_BCTL0_DRV (count=3)
0000039c: 00 00 00
# UDB_BCTL0_BOTSEL_L (count=12)
0000039f: 00 00 00 00 00 00 00 00 00 00 00 00
# DSISWITCH_0_0 (count=128)
000003ab: 00 00 00 00 00 00 00 00 00 00 00 00 00 00 00 00
000003bb: 00 00 00 00 00 00 00 00 00 00 00 00 00 00 00 00
000003cb: 00 00 00 00 00 00 00 00 00 00 00 00 00 00 00 00
000003db: 00 00 00 00 00 00 00 00 00 00 00 00 00 00 00 00
000003eb: 00 00 00 00 00 00 00 00 00 00 00 00 00 00 00 00
000003fb: 00 00 00 00 00 00 00 00 00 04 00 00 00 00 00 00
0000040b: 00 00 00 00 00 00 02 00 00 00 00 00 00 00 00 00
0000041b: 00 00 00 00 00 00 00 00 00 00 00 00 00 00 00 00

# DSI0_0_HV_ROUTING + 0x00000080 (count=128)
0000042b: 00 04 00 00 00 00 00 00 00 00 00 00 00 00 02 02
0000043b: 00 00 00 00 00 00 00 00 00 00 00 00 00 00 00 02
0000044b: 00 00 00 00 00 00 00 00 00 00 00 00 00 00 00 00
0000045b: 00 10 00 00 00 00 00 00 00 00 00 00 00 00 00 00
0000046b: 00 00 00 00 00 00 00 00 00 00 00 00 00 00 00 00
0000047b: 00 00 00 00 00 00 02 00 01 00 00 00 00 00 00 00
0000048b: 0a 00 00 00 00 00 00 00 00 00 00 00 00 00 04 00
0000049b: 00 00 00 00 00 00 00 00 00 00 00 00 00 00 00 00

# DSISWITCH_0_1 (count=128)
000004ab: 00 00 00 00 00 00 00 00 00 00 00 00 00 10 00 00
000004bb: 00 00 00 00 00 00 00 00 00 00 00 00 00 00 00 00
000004cb: 00 00 00 00 00 00 00 00 00 00 00 00 00 00 00 00
000004db: 00 00 00 00 00 00 00 00 00 00 00 00 00 00 00 00
000004eb: 00 00 00 00 00 00 00 00 00 00 00 00 00 00 00 00
000004fb: 00 00 00 00 00 00 00 00 00 00 00 00 00 00 00 02
0000050b: 00 00 00 00 00 00 00 00 00 00 00 00 00 00 00 00
0000051b: 00 00 00 00 00 00 00 00 00 00 00 00 00 00 00 00

# DSI0_1_HV_ROUTING + 0x00000080 (count=128)
0000052b: 00 00 00 00 00 00 00 00 00 00 00 00 00 00 00 00
0000053b: 00 00 00 00 00 00 00 00 00 00 00 00 00 00 00 00
0000054b: 00 00 00 00 00 00 00 00 00 00 00 00 00 00 00 00
0000055b: 00 00 00 00 00 00 00 00 00 00 00 00 00 00 00 00
0000056b: 00 00 01 00 00 00 00 00 00 00 00 00 00 00 00 00
0000057b: 00 00 00 00 00 00 01 00 00 00 00 00 00 00 00 00
0000058b: 00 00 00 00 00 00 00 00 00 00 00 00 00 00 00 00
0000059b: 00 00 00 00 00 00 00 00 00 00 00 00 00 00 00 00

# UDBSWITCH_0_0 (count=128)
000005ab: 50 00 00 00 00 00 00 00 00 00 00 00 00 00 00 00
000005bb: 00 00 00 00 00 00 00 00 50 00 04 10 00 00 00 00
000005cb: 00 00 00 00 00 00 00 00 00 00 00 00 00 00 00 00
000005db: 00 00 00 00 00 00 00 00 00 00 00 00 00 00 00 00
000005eb: 00 00 00 00 00 00 00 00 00 00 00 00 00 00 00 00
000005fb: 00 00 00 00 00 00 00 00 00 10 04 40 00 00 00 00
0000060b: 00 00 00 00 00 00 00 00 00 00 00 00 00 00 00 00
0000061b: 00 00 00 00 00 00 00 00 01 00 00 00 00 00 00 00

# UDB_1_0_HV_ROUTING + 0x00000080 (count=128)
0000062b: 00 00 00 10 00 00 00 00 00 00 00 00 50 10 00 40
0000063b: 00 00 00 00 00 00 00 00 01 00 00 00 00 00 00 00
0000064b: 00 00 00 00 00 00 00 00 00 00 00 00 00 00 00 00
0000065b: 01 00 00 00 00 00 00 00 00 00 00 00 00 00 00 00
0000066b: 03 00 00 00 00 00 00 00 00 00 00 00 00 00 00 00
0000067b: 00 00 00 00 00 00 0e 00 00 00 00 00 00 00 01 00
0000068b: 00 00 00 00 01 00 00 00 00 00 00 00 00 00 00 00
0000069b: 00 00 00 00 00 00 00 00 00 00 00 00 00 00 00 00

# UDBSWITCH_0_1 (count=128)
000006ab: 00 00 00 00 00 00 00 00 00 00 00 00 00 00 00 00
000006bb: 00 00 00 00 00 00 00 00 00 00 00 00 00 00 00 00
000006cb: 00 00 00 00 00 00 00 00 00 00 00 00 00 00 00 00
000006db: 00 00 00 00 00 00 00 00 00 00 00 00 00 00 00 00
000006eb: 00 00 00 00 00 00 00 00 00 00 00 00 00 00 00 00
000006fb: 00 00 00 00 00 00 00 00 00 00 00 00 00 00 00 00
0000070b: 00 00 00 00 00 00 00 00 00 00 00 00 00 00 00 00
0000071b: 00 00 00 00 00 00 00 00 00 00 00 00 00 00 00 00

# UDB_1_1_HV_ROUTING + 0x00000080 (count=128)
0000072b: 00 00 00 00 00 00 00 00 00 00 00 00 00 00 00 00
0000073b: 00 00 00 00 00 00 00 00 00 00 00 00 00 00 00 00
0000074b: 00 00 00 00 00 00 00 00 00 00 00 00 00 00 00 00
0000075b: 00 00 00 00 00 00 00 00 00 00 00 00 00 00 00 00
0000076b: 00 00 00 00 00 00 00 00 00 00 00 00 00 00 00 00
0000077b: 00 00 00 00 00 00 00 00 00 00 00 00 00 00 00 00
0000078b: 00 00 00 00 00 00 00 00 00 00 00 00 00 00 00 00
0000079b: 00 00 00 00 00 00 00 00 00 00 00 00 00 00 00 00

# DSISWITCH_1_0 (count=128)
000007ab: 00 00 00 00 00 00 00 00 00 00 00 00 00 00 00 00
000007bb: 00 00 00 00 00 00 00 00 00 00 00 00 00 00 00 00
000007cb: 00 00 00 00 00 00 00 00 00 00 00 00 00 00 00 00
000007db: 00 00 00 00 00 00 00 00 00 00 00 00 00 00 00 00
000007eb: 00 00 00 00 00 00 00 00 00 00 00 00 00 00 00 00
000007fb: 00 00 00 00 00 00 00 00 00 00 00 00 00 00 00 00
0000080b: 00 00 00 00 00 00 00 00 00 00 00 00 00 00 00 00
0000081b: 00 00 00 00 00 00 00 00 00 00 00 00 00 00 00 00

# DSI2_0_HV_ROUTING + 0x00000080 (count=128)
0000082b: 00 00 00 00 00 00 00 00 00 00 00 00 00 00 00 00
0000083b: 00 00 00 00 00 00 00 00 00 00 00 00 00 00 00 00
0000084b: 00 00 00 00 00 00 00 00 00 00 00 00 00 00 00 00
0000085b: 00 00 00 00 00 00 00 00 00 00 00 00 00 00 00 00
0000086b: 00 00 00 00 00 00 00 00 00 00 00 00 00 00 00 00
0000087b: 00 00 00 00 00 00 00 00 00 00 00 00 00 00 00 00
0000088b: 00 00 00 00 00 00 00 00 00 00 00 00 00 00 00 00
0000089b: 00 00 00 00 00 00 00 00 00 00 00 00 00 00 00 00

# DSISWITCH_1_1 (count=128)
000008ab: 00 00 00 00 00 00 00 00 00 00 00 00 00 00 00 00
000008bb: 00 00 00 00 00 00 00 00 00 00 00 00 00 00 00 00
000008cb: 00 00 00 00 00 00 00 00 00 00 00 00 00 00 00 00
000008db: 00 00 00 00 00 00 00 00 00 00 00 00 00 00 00 00
000008eb: 00 00 00 00 00 00 00 00 00 00 00 00 00 00 00 00
000008fb: 00 00 00 00 00 00 00 00 00 00 00 00 00 00 00 00
0000090b: 00 00 00 00 00 00 00 00 00 00 00 00 00 00 00 00
0000091b: 00 00 00 00 00 00 00 00 00 00 00 00 00 00 00 00

# DSI2_1_HV_ROUTING + 0x00000080 (count=128)
0000092b: 00 00 00 00 00 00 00 00 00 00 00 00 00 00 00 00
0000093b: 00 00 00 00 00 00 00 00 00 00 00 00 00 00 00 00
0000094b: 00 00 00 00 00 00 00 00 00 00 00 00 00 00 00 00
0000095b: 00 00 00 00 00 00 00 00 00 00 00 00 00 00 00 00
0000096b: 00 00 00 00 00 00 00 00 00 00 00 00 00 00 00 00
0000097b: 00 00 00 00 00 00 00 00 00 00 00 00 00 00 00 00
0000098b: 00 00 00 00 00 00 00 00 00 00 00 00 00 00 00 00
0000099b: 00 00 00 00 00 00 00 00 00 00 00 00 00 00 00 00

# HSIOM (count=16384)
000009ab: 00 00 00 ee 00 00 00 00 00 00 00 00 00 00 00 00
000009bb: 00 00 00 00 00 00 00 00 00 00 00 00 00 00 00 00
000009cb: 00 00 00 00 00 00 00 00 00 00 00 00 00 00 00 00
000009db: 00 00 00 00 00 00 00 00 00 00 00 00 00 00 00 00
000009eb: 00 00 00 00 00 00 00 00 00 00 00 00 00 00 00 00
000009fb: 00 00 00 00 00 00 00 00 00 00 00 00 00 00 00 00
00000a0b: 00 00 00 00 00 00 00 00 00 00 00 00 00 00 00 00
00000a1b: 00 00 00 00 00 00 00 00 00 00 00 00 00 00 00 00
00000a2b: 00 00 00 00 00 00 00 00 00 00 00 00 00 00 00 00
00000a3b: 00 00 00 00 00 00 00 00 00 00 00 00 00 00 00 00
00000a4b: 00 00 00 00 00 00 00 00 00 00 00 00 00 00 00 00
00000a5b: 00 00 00 00 00 00 00 00 00 00 00 00 00 00 00 00
00000a6b: 00 00 00 00 00 00 00 00 00 00 00 00 00 00 00 00
00000a7b: 00 00 00 00 00 00 00 00 00 00 00 00 00 00 00 00
00000a8b: 00 00 00 00 00 00 00 00 00 00 00 00 00 00 00 00
00000a9b: 00 00 00 00 00 00 00 00 00 00 00 00 00 00 00 00
00000aab: 00 00 99 00 00 00 00 00 00 00 00 00 00 00 00 00
00000abb: 00 00 00 00 00 00 00 00 00 00 00 00 00 00 00 00
00000acb: 00 00 00 00 00 00 00 00 00 00 00 00 00 00 00 00
00000adb: 00 00 00 00 00 00 00 00 00 00 00 00 00 00 00 00
00000aeb: 00 00 00 00 00 00 00 00 00 00 00 00 00 00 00 00
00000afb: 00 00 00 00 00 00 00 00 00 00 00 00 00 00 00 00
00000b0b: 00 00 00 00 00 00 00 00 00 00 00 00 00 00 00 00
00000b1b: 00 00 00 00 00 00 00 00 00 00 00 00 00 00 00 00
00000b2b: 00 00 00 00 00 00 00 00 00 00 00 00 00 00 00 00
00000b3b: 00 00 00 00 00 00 00 00 00 00 00 00 00 00 00 00
00000b4b: 00 00 00 00 00 00 00 00 00 00 00 00 00 00 00 00
00000b5b: 00 00 00 00 00 00 00 00 00 00 00 00 00 00 00 00
00000b6b: 00 00 00 00 00 00 00 00 00 00 00 00 00 00 00 00
00000b7b: 00 00 00 00 00 00 00 00 00 00 00 00 00 00 00 00
00000b8b: 00 00 00 00 00 00 00 00 00 00 00 00 00 00 00 00
00000b9b: 00 00 00 00 00 00 00 00 00 00 00 00 00 00 00 00
00000bab: 00 00 00 03 00 00 00 00 00 00 00 00 00 00 00 00
00000bbb: 00 00 00 00 00 00 00 00 00 00 00 00 00 00 00 00
00000bcb: 00 00 00 00 00 00 00 00 00 00 00 00 00 00 00 00
00000bdb: 00 00 00 00 00 00 00 00 00 00 00 00 00 00 00 00
00000beb: 00 00 00 00 00 00 00 00 00 00 00 00 00 00 00 00
00000bfb: 00 00 00 00 00 00 00 00 00 00 00 00 00 00 00 00
00000c0b: 00 00 00 00 00 00 00 00 00 00 00 00 00 00 00 00
00000c1b: 00 00 00 00 00 00 00 00 00 00 00 00 00 00 00 00
00000c2b: 00 00 00 00 00 00 00 00 00 00 00 00 00 00 00 00
00000c3b: 00 00 00 00 00 00 00 00 00 00 00 00 00 00 00 00
00000c4b: 00 00 00 00 00 00 00 00 00 00 00 00 00 00 00 00
00000c5b: 00 00 00 00 00 00 00 00 00 00 00 00 00 00 00 00
00000c6b: 00 00 00 00 00 00 00 00 00 00 00 00 00 00 00 00
00000c7b: 00 00 00 00 00 00 00 00 00 00 00 00 00 00 00 00
00000c8b: 00 00 00 00 00 00 00 00 00 00 00 00 00 00 00 00
00000c9b: 00 00 00 00 00 00 00 00 00 00 00 00 00 00 00 00
00000cab: 00 00 00 33 00 00 00 00 00 00 00 00 00 00 00 00
00000cbb: 00 00 00 00 00 00 00 00 00 00 00 00 00 00 00 00
00000ccb: 00 00 00 00 00 00 00 00 00 00 00 00 00 00 00 00
00000cdb: 00 00 00 00 00 00 00 00 00 00 00 00 00 00 00 00
00000ceb: 00 00 00 00 00 00 00 00 00 00 00 00 00 00 00 00
00000cfb: 00 00 00 00 00 00 00 00 00 00 00 00 00 00 00 00
00000d0b: 00 00 00 00 00 00 00 00 00 00 00 00 00 00 00 00
00000d1b: 00 00 00 00 00 00 00 00 00 00 00 00 00 00 00 00
00000d2b: 00 00 00 00 00 00 00 00 00 00 00 00 00 00 00 00
00000d3b: 00 00 00 00 00 00 00 00 00 00 00 00 00 00 00 00
00000d4b: 00 00 00 00 00 00 00 00 00 00 00 00 00 00 00 00
00000d5b: 00 00 00 00 00 00 00 00 00 00 00 00 00 00 00 00
00000d6b: 00 00 00 00 00 00 00 00 00 00 00 00 00 00 00 00
00000d7b: 00 00 00 00 00 00 00 00 00 00 00 00 00 00 00 00
00000d8b: 00 00 00 00 00 00 00 00 00 00 00 00 00 00 00 00
00000d9b: 00 00 00 00 00 00 00 00 00 00 00 00 00 00 00 00
00000dab: 00 00 00 00 00 00 00 00 00 00 00 00 00 00 00 00
00000dbb: 00 00 00 00 00 00 00 00 00 00 00 00 00 00 00 00
00000dcb: 00 00 00 00 00 00 00 00 00 00 00 00 00 00 00 00
00000ddb: 00 00 00 00 00 00 00 00 00 00 00 00 00 00 00 00
00000deb: 00 00 00 00 00 00 00 00 00 00 00 00 00 00 00 00
00000dfb: 00 00 00 00 00 00 00 00 00 00 00 00 00 00 00 00
00000e0b: 00 00 00 00 00 00 00 00 00 00 00 00 00 00 00 00
00000e1b: 00 00 00 00 00 00 00 00 00 00 00 00 00 00 00 00
00000e2b: 00 00 00 00 00 00 00 00 00 00 00 00 00 00 00 00
00000e3b: 00 00 00 00 00 00 00 00 00 00 00 00 00 00 00 00
00000e4b: 00 00 00 00 00 00 00 00 00 00 00 00 00 00 00 00
00000e5b: 00 00 00 00 00 00 00 00 00 00 00 00 00 00 00 00
00000e6b: 00 00 00 00 00 00 00 00 00 00 00 00 00 00 00 00
00000e7b: 00 00 00 00 00 00 00 00 00 00 00 00 00 00 00 00
00000e8b: 00 00 00 00 00 00 00 00 00 00 00 00 00 00 00 00
00000e9b: 00 00 00 00 00 00 00 00 00 00 00 00 00 00 00 00
00000eab: 00 00 00 00 00 00 00 00 00 00 00 00 00 00 00 00
00000ebb: 00 00 00 00 00 00 00 00 00 00 00 00 00 00 00 00
00000ecb: 00 00 00 00 00 00 00 00 00 00 00 00 00 00 00 00
00000edb: 00 00 00 00 00 00 00 00 00 00 00 00 00 00 00 00
00000eeb: 00 00 00 00 00 00 00 00 00 00 00 00 00 00 00 00
00000efb: 00 00 00 00 00 00 00 00 00 00 00 00 00 00 00 00
00000f0b: 00 00 00 00 00 00 00 00 00 00 00 00 00 00 00 00
00000f1b: 00 00 00 00 00 00 00 00 00 00 00 00 00 00 00 00
00000f2b: 00 00 00 00 00 00 00 00 00 00 00 00 00 00 00 00
00000f3b: 00 00 00 00 00 00 00 00 00 00 00 00 00 00 00 00
00000f4b: 00 00 00 00 00 00 00 00 00 00 00 00 00 00 00 00
00000f5b: 00 00 00 00 00 00 00 00 00 00 00 00 00 00 00 00
00000f6b: 00 00 00 00 00 00 00 00 00 00 00 00 00 00 00 00
00000f7b: 00 00 00 00 00 00 00 00 00 00 00 00 00 00 00 00
00000f8b: 00 00 00 00 00 00 00 00 00 00 00 00 00 00 00 00
00000f9b: 00 00 00 00 00 00 00 00 00 00 00 00 00 00 00 00
00000fab: 00 00 00 00 00 00 00 00 00 00 00 00 00 00 00 00
00000fbb: 00 00 00 00 00 00 00 00 00 00 00 00 00 00 00 00
00000fcb: 00 00 00 00 00 00 00 00 00 00 00 00 00 00 00 00
00000fdb: 00 00 00 00 00 00 00 00 00 00 00 00 00 00 00 00
00000feb: 00 00 00 00 00 00 00 00 00 00 00 00 00 00 00 00
00000ffb: 00 00 00 00 00 00 00 00 00 00 00 00 00 00 00 00
0000100b: 00 00 00 00 00 00 00 00 00 00 00 00 00 00 00 00
0000101b: 00 00 00 00 00 00 00 00 00 00 00 00 00 00 00 00
0000102b: 00 00 00 00 00 00 00 00 00 00 00 00 00 00 00 00
0000103b: 00 00 00 00 00 00 00 00 00 00 00 00 00 00 00 00
0000104b: 00 00 00 00 00 00 00 00 00 00 00 00 00 00 00 00
0000105b: 00 00 00 00 00 00 00 00 00 00 00 00 00 00 00 00
0000106b: 00 00 00 00 00 00 00 00 00 00 00 00 00 00 00 00
0000107b: 00 00 00 00 00 00 00 00 00 00 00 00 00 00 00 00
0000108b: 00 00 00 00 00 00 00 00 00 00 00 00 00 00 00 00
0000109b: 00 00 00 00 00 00 00 00 00 00 00 00 00 00 00 00
000010ab: 00 00 00 00 00 00 00 00 00 00 00 00 00 00 00 00
000010bb: 00 00 00 00 00 00 00 00 00 00 00 00 00 00 00 00
000010cb: 00 00 00 00 00 00 00 00 00 00 00 00 00 00 00 00
000010db: 00 00 00 00 00 00 00 00 00 00 00 00 00 00 00 00
000010eb: 00 00 00 00 00 00 00 00 00 00 00 00 00 00 00 00
000010fb: 00 00 00 00 00 00 00 00 00 00 00 00 00 00 00 00
0000110b: 00 00 00 00 00 00 00 00 00 00 00 00 00 00 00 00
0000111b: 00 00 00 00 00 00 00 00 00 00 00 00 00 00 00 00
0000112b: 00 00 00 00 00 00 00 00 00 00 00 00 00 00 00 00
0000113b: 00 00 00 00 00 00 00 00 00 00 00 00 00 00 00 00
0000114b: 00 00 00 00 00 00 00 00 00 00 00 00 00 00 00 00
0000115b: 00 00 00 00 00 00 00 00 00 00 00 00 00 00 00 00
0000116b: 00 00 00 00 00 00 00 00 00 00 00 00 00 00 00 00
0000117b: 00 00 00 00 00 00 00 00 00 00 00 00 00 00 00 00
0000118b: 00 00 00 00 00 00 00 00 00 00 00 00 00 00 00 00
0000119b: 00 00 00 00 00 00 00 00 00 00 00 00 00 00 00 00
000011ab: 00 00 00 00 00 00 00 00 00 00 00 00 00 00 00 00
000011bb: 00 00 00 00 00 00 00 00 00 00 00 00 00 00 00 00
000011cb: 00 00 00 00 00 00 00 00 00 00 00 00 00 00 00 00
000011db: 00 00 00 00 00 00 00 00 00 00 00 00 00 00 00 00
000011eb: 00 00 00 00 00 00 00 00 00 00 00 00 00 00 00 00
000011fb: 00 00 00 00 00 00 00 00 00 00 00 00 00 00 00 00
0000120b: 00 00 00 00 00 00 00 00 00 00 00 00 00 00 00 00
0000121b: 00 00 00 00 00 00 00 00 00 00 00 00 00 00 00 00
0000122b: 00 00 00 00 00 00 00 00 00 00 00 00 00 00 00 00
0000123b: 00 00 00 00 00 00 00 00 00 00 00 00 00 00 00 00
0000124b: 00 00 00 00 00 00 00 00 00 00 00 00 00 00 00 00
0000125b: 00 00 00 00 00 00 00 00 00 00 00 00 00 00 00 00
0000126b: 00 00 00 00 00 00 00 00 00 00 00 00 00 00 00 00
0000127b: 00 00 00 00 00 00 00 00 00 00 00 00 00 00 00 00
0000128b: 00 00 00 00 00 00 00 00 00 00 00 00 00 00 00 00
0000129b: 00 00 00 00 00 00 00 00 00 00 00 00 00 00 00 00
000012ab: 00 00 00 00 00 00 00 00 00 00 00 00 00 00 00 00
000012bb: 00 00 00 00 00 00 00 00 00 00 00 00 00 00 00 00
000012cb: 00 00 00 00 00 00 00 00 00 00 00 00 00 00 00 00
000012db: 00 00 00 00 00 00 00 00 00 00 00 00 00 00 00 00
000012eb: 00 00 00 00 00 00 00 00 00 00 00 00 00 00 00 00
000012fb: 00 00 00 00 00 00 00 00 00 00 00 00 00 00 00 00
0000130b: 00 00 00 00 00 00 00 00 00 00 00 00 00 00 00 00
0000131b: 00 00 00 00 00 00 00 00 00 00 00 00 00 00 00 00
0000132b: 00 00 00 00 00 00 00 00 00 00 00 00 00 00 00 00
0000133b: 00 00 00 00 00 00 00 00 00 00 00 00 00 00 00 00
0000134b: 00 00 00 00 00 00 00 00 00 00 00 00 00 00 00 00
0000135b: 00 00 00 00 00 00 00 00 00 00 00 00 00 00 00 00
0000136b: 00 00 00 00 00 00 00 00 00 00 00 00 00 00 00 00
0000137b: 00 00 00 00 00 00 00 00 00 00 00 00 00 00 00 00
0000138b: 00 00 00 00 00 00 00 00 00 00 00 00 00 00 00 00
0000139b: 00 00 00 00 00 00 00 00 00 00 00 00 00 00 00 00
000013ab: 00 00 00 00 00 00 00 00 00 00 00 00 00 00 00 00
000013bb: 00 00 00 00 00 00 00 00 00 00 00 00 00 00 00 00
000013cb: 00 00 00 00 00 00 00 00 00 00 00 00 00 00 00 00
000013db: 00 00 00 00 00 00 00 00 00 00 00 00 00 00 00 00
000013eb: 00 00 00 00 00 00 00 00 00 00 00 00 00 00 00 00
000013fb: 00 00 00 00 00 00 00 00 00 00 00 00 00 00 00 00
0000140b: 00 00 00 00 00 00 00 00 00 00 00 00 00 00 00 00
0000141b: 00 00 00 00 00 00 00 00 00 00 00 00 00 00 00 00
0000142b: 00 00 00 00 00 00 00 00 00 00 00 00 00 00 00 00
0000143b: 00 00 00 00 00 00 00 00 00 00 00 00 00 00 00 00
0000144b: 00 00 00 00 00 00 00 00 00 00 00 00 00 00 00 00
0000145b: 00 00 00 00 00 00 00 00 00 00 00 00 00 00 00 00
0000146b: 00 00 00 00 00 00 00 00 00 00 00 00 00 00 00 00
0000147b: 00 00 00 00 00 00 00 00 00 00 00 00 00 00 00 00
0000148b: 00 00 00 00 00 00 00 00 00 00 00 00 00 00 00 00
0000149b: 00 00 00 00 00 00 00 00 00 00 00 00 00 00 00 00
000014ab: 00 00 00 00 00 00 00 00 00 00 00 00 00 00 00 00
000014bb: 00 00 00 00 00 00 00 00 00 00 00 00 00 00 00 00
000014cb: 00 00 00 00 00 00 00 00 00 00 00 00 00 00 00 00
000014db: 00 00 00 00 00 00 00 00 00 00 00 00 00 00 00 00
000014eb: 00 00 00 00 00 00 00 00 00 00 00 00 00 00 00 00
000014fb: 00 00 00 00 00 00 00 00 00 00 00 00 00 00 00 00
0000150b: 00 00 00 00 00 00 00 00 00 00 00 00 00 00 00 00
0000151b: 00 00 00 00 00 00 00 00 00 00 00 00 00 00 00 00
0000152b: 00 00 00 00 00 00 00 00 00 00 00 00 00 00 00 00
0000153b: 00 00 00 00 00 00 00 00 00 00 00 00 00 00 00 00
0000154b: 00 00 00 00 00 00 00 00 00 00 00 00 00 00 00 00
0000155b: 00 00 00 00 00 00 00 00 00 00 00 00 00 00 00 00
0000156b: 00 00 00 00 00 00 00 00 00 00 00 00 00 00 00 00
0000157b: 00 00 00 00 00 00 00 00 00 00 00 00 00 00 00 00
0000158b: 00 00 00 00 00 00 00 00 00 00 00 00 00 00 00 00
0000159b: 00 00 00 00 00 00 00 00 00 00 00 00 00 00 00 00
000015ab: 00 00 00 00 00 00 00 00 00 00 00 00 00 00 00 00
000015bb: 00 00 00 00 00 00 00 00 00 00 00 00 00 00 00 00
000015cb: 00 00 00 00 00 00 00 00 00 00 00 00 00 00 00 00
000015db: 00 00 00 00 00 00 00 00 00 00 00 00 00 00 00 00
000015eb: 00 00 00 00 00 00 00 00 00 00 00 00 00 00 00 00
000015fb: 00 00 00 00 00 00 00 00 00 00 00 00 00 00 00 00
0000160b: 00 00 00 00 00 00 00 00 00 00 00 00 00 00 00 00
0000161b: 00 00 00 00 00 00 00 00 00 00 00 00 00 00 00 00
0000162b: 00 00 00 00 00 00 00 00 00 00 00 00 00 00 00 00
0000163b: 00 00 00 00 00 00 00 00 00 00 00 00 00 00 00 00
0000164b: 00 00 00 00 00 00 00 00 00 00 00 00 00 00 00 00
0000165b: 00 00 00 00 00 00 00 00 00 00 00 00 00 00 00 00
0000166b: 00 00 00 00 00 00 00 00 00 00 00 00 00 00 00 00
0000167b: 00 00 00 00 00 00 00 00 00 00 00 00 00 00 00 00
0000168b: 00 00 00 00 00 00 00 00 00 00 00 00 00 00 00 00
0000169b: 00 00 00 00 00 00 00 00 00 00 00 00 00 00 00 00
000016ab: 00 00 00 00 00 00 00 00 00 00 00 00 00 00 00 00
000016bb: 00 00 00 00 00 00 00 00 00 00 00 00 00 00 00 00
000016cb: 00 00 00 00 00 00 00 00 00 00 00 00 00 00 00 00
000016db: 00 00 00 00 00 00 00 00 00 00 00 00 00 00 00 00
000016eb: 00 00 00 00 00 00 00 00 00 00 00 00 00 00 00 00
000016fb: 00 00 00 00 00 00 00 00 00 00 00 00 00 00 00 00
0000170b: 00 00 00 00 00 00 00 00 00 00 00 00 00 00 00 00
0000171b: 00 00 00 00 00 00 00 00 00 00 00 00 00 00 00 00
0000172b: 00 00 00 00 00 00 00 00 00 00 00 00 00 00 00 00
0000173b: 00 00 00 00 00 00 00 00 00 00 00 00 00 00 00 00
0000174b: 00 00 00 00 00 00 00 00 00 00 00 00 00 00 00 00
0000175b: 00 00 00 00 00 00 00 00 00 00 00 00 00 00 00 00
0000176b: 00 00 00 00 00 00 00 00 00 00 00 00 00 00 00 00
0000177b: 00 00 00 00 00 00 00 00 00 00 00 00 00 00 00 00
0000178b: 00 00 00 00 00 00 00 00 00 00 00 00 00 00 00 00
0000179b: 00 00 00 00 00 00 00 00 00 00 00 00 00 00 00 00
000017ab: 00 00 00 00 00 00 00 00 00 00 00 00 00 00 00 00
000017bb: 00 00 00 00 00 00 00 00 00 00 00 00 00 00 00 00
000017cb: 00 00 00 00 00 00 00 00 00 00 00 00 00 00 00 00
000017db: 00 00 00 00 00 00 00 00 00 00 00 00 00 00 00 00
000017eb: 00 00 00 00 00 00 00 00 00 00 00 00 00 00 00 00
000017fb: 00 00 00 00 00 00 00 00 00 00 00 00 00 00 00 00
0000180b: 00 00 00 00 00 00 00 00 00 00 00 00 00 00 00 00
0000181b: 00 00 00 00 00 00 00 00 00 00 00 00 00 00 00 00
0000182b: 00 00 00 00 00 00 00 00 00 00 00 00 00 00 00 00
0000183b: 00 00 00 00 00 00 00 00 00 00 00 00 00 00 00 00
0000184b: 00 00 00 00 00 00 00 00 00 00 00 00 00 00 00 00
0000185b: 00 00 00 00 00 00 00 00 00 00 00 00 00 00 00 00
0000186b: 00 00 00 00 00 00 00 00 00 00 00 00 00 00 00 00
0000187b: 00 00 00 00 00 00 00 00 00 00 00 00 00 00 00 00
0000188b: 00 00 00 00 00 00 00 00 00 00 00 00 00 00 00 00
0000189b: 00 00 00 00 00 00 00 00 00 00 00 00 00 00 00 00
000018ab: 00 00 00 00 00 00 00 00 00 00 00 00 00 00 00 00
000018bb: 00 00 00 00 00 00 00 00 00 00 00 00 00 00 00 00
000018cb: 00 00 00 00 00 00 00 00 00 00 00 00 00 00 00 00
000018db: 00 00 00 00 00 00 00 00 00 00 00 00 00 00 00 00
000018eb: 00 00 00 00 00 00 00 00 00 00 00 00 00 00 00 00
000018fb: 00 00 00 00 00 00 00 00 00 00 00 00 00 00 00 00
0000190b: 00 00 00 00 00 00 00 00 00 00 00 00 00 00 00 00
0000191b: 00 00 00 00 00 00 00 00 00 00 00 00 00 00 00 00
0000192b: 00 00 00 00 00 00 00 00 00 00 00 00 00 00 00 00
0000193b: 00 00 00 00 00 00 00 00 00 00 00 00 00 00 00 00
0000194b: 00 00 00 00 00 00 00 00 00 00 00 00 00 00 00 00
0000195b: 00 00 00 00 00 00 00 00 00 00 00 00 00 00 00 00
0000196b: 00 00 00 00 00 00 00 00 00 00 00 00 00 00 00 00
0000197b: 00 00 00 00 00 00 00 00 00 00 00 00 00 00 00 00
0000198b: 00 00 00 00 00 00 00 00 00 00 00 00 00 00 00 00
0000199b: 00 00 00 00 00 00 00 00 00 00 00 00 00 00 00 00
000019ab: 00 00 00 00 00 00 00 00 00 00 00 00 00 00 00 00
000019bb: 00 00 00 00 00 00 00 00 00 00 00 00 00 00 00 00
000019cb: 00 00 00 00 00 00 00 00 00 00 00 00 00 00 00 00
000019db: 00 00 00 00 00 00 00 00 00 00 00 00 00 00 00 00
000019eb: 00 00 00 00 00 00 00 00 00 00 00 00 00 00 00 00
000019fb: 00 00 00 00 00 00 00 00 00 00 00 00 00 00 00 00
00001a0b: 00 00 00 00 00 00 00 00 00 00 00 00 00 00 00 00
00001a1b: 00 00 00 00 00 00 00 00 00 00 00 00 00 00 00 00
00001a2b: 00 00 00 00 00 00 00 00 00 00 00 00 00 00 00 00
00001a3b: 00 00 00 00 00 00 00 00 00 00 00 00 00 00 00 00
00001a4b: 00 00 00 00 00 00 00 00 00 00 00 00 00 00 00 00
00001a5b: 00 00 00 00 00 00 00 00 00 00 00 00 00 00 00 00
00001a6b: 00 00 00 00 00 00 00 00 00 00 00 00 00 00 00 00
00001a7b: 00 00 00 00 00 00 00 00 00 00 00 00 00 00 00 00
00001a8b: 00 00 00 00 00 00 00 00 00 00 00 00 00 00 00 00
00001a9b: 00 00 00 00 00 00 00 00 00 00 00 00 00 00 00 00
00001aab: 00 00 00 00 00 00 00 00 00 00 00 00 00 00 00 00
00001abb: 00 00 00 00 00 00 00 00 00 00 00 00 00 00 00 00
00001acb: 00 00 00 00 00 00 00 00 00 00 00 00 00 00 00 00
00001adb: 00 00 00 00 00 00 00 00 00 00 00 00 00 00 00 00
00001aeb: 00 00 00 00 00 00 00 00 00 00 00 00 00 00 00 00
00001afb: 00 00 00 00 00 00 00 00 00 00 00 00 00 00 00 00
00001b0b: 00 00 00 00 00 00 00 00 00 00 00 00 00 00 00 00
00001b1b: 00 00 00 00 00 00 00 00 00 00 00 00 00 00 00 00
00001b2b: 00 00 00 00 00 00 00 00 00 00 00 00 00 00 00 00
00001b3b: 00 00 00 00 00 00 00 00 00 00 00 00 00 00 00 00
00001b4b: 00 00 00 00 00 00 00 00 00 00 00 00 00 00 00 00
00001b5b: 00 00 00 00 00 00 00 00 00 00 00 00 00 00 00 00
00001b6b: 00 00 00 00 00 00 00 00 00 00 00 00 00 00 00 00
00001b7b: 00 00 00 00 00 00 00 00 00 00 00 00 00 00 00 00
00001b8b: 00 00 00 00 00 00 00 00 00 00 00 00 00 00 00 00
00001b9b: 00 00 00 00 00 00 00 00 00 00 00 00 00 00 00 00
00001bab: 00 00 00 00 00 00 00 00 00 00 00 00 00 00 00 00
00001bbb: 00 00 00 00 00 00 00 00 00 00 00 00 00 00 00 00
00001bcb: 00 00 00 00 00 00 00 00 00 00 00 00 00 00 00 00
00001bdb: 00 00 00 00 00 00 00 00 00 00 00 00 00 00 00 00
00001beb: 00 00 00 00 00 00 00 00 00 00 00 00 00 00 00 00
00001bfb: 00 00 00 00 00 00 00 00 00 00 00 00 00 00 00 00
00001c0b: 00 00 00 00 00 00 00 00 00 00 00 00 00 00 00 00
00001c1b: 00 00 00 00 00 00 00 00 00 00 00 00 00 00 00 00
00001c2b: 00 00 00 00 00 00 00 00 00 00 00 00 00 00 00 00
00001c3b: 00 00 00 00 00 00 00 00 00 00 00 00 00 00 00 00
00001c4b: 00 00 00 00 00 00 00 00 00 00 00 00 00 00 00 00
00001c5b: 00 00 00 00 00 00 00 00 00 00 00 00 00 00 00 00
00001c6b: 00 00 00 00 00 00 00 00 00 00 00 00 00 00 00 00
00001c7b: 00 00 00 00 00 00 00 00 00 00 00 00 00 00 00 00
00001c8b: 00 00 00 00 00 00 00 00 00 00 00 00 00 00 00 00
00001c9b: 00 00 00 00 00 00 00 00 00 00 00 00 00 00 00 00
00001cab: 00 00 00 00 00 00 00 00 00 00 00 00 00 00 00 00
00001cbb: 00 00 00 00 00 00 00 00 00 00 00 00 00 00 00 00
00001ccb: 00 00 00 00 00 00 00 00 00 00 00 00 00 00 00 00
00001cdb: 00 00 00 00 00 00 00 00 00 00 00 00 00 00 00 00
00001ceb: 00 00 00 00 00 00 00 00 00 00 00 00 00 00 00 00
00001cfb: 00 00 00 00 00 00 00 00 00 00 00 00 00 00 00 00
00001d0b: 00 00 00 00 00 00 00 00 00 00 00 00 00 00 00 00
00001d1b: 00 00 00 00 00 00 00 00 00 00 00 00 00 00 00 00
00001d2b: 00 00 00 00 00 00 00 00 00 00 00 00 00 00 00 00
00001d3b: 00 00 00 00 00 00 00 00 00 00 00 00 00 00 00 00
00001d4b: 00 00 00 00 00 00 00 00 00 00 00 00 00 00 00 00
00001d5b: 00 00 00 00 00 00 00 00 00 00 00 00 00 00 00 00
00001d6b: 00 00 00 00 00 00 00 00 00 00 00 00 00 00 00 00
00001d7b: 00 00 00 00 00 00 00 00 00 00 00 00 00 00 00 00
00001d8b: 00 00 00 00 00 00 00 00 00 00 00 00 00 00 00 00
00001d9b: 00 00 00 00 00 00 00 00 00 00 00 00 00 00 00 00
00001dab: 00 00 00 00 00 00 00 00 00 00 00 00 00 00 00 00
00001dbb: 00 00 00 00 00 00 00 00 00 00 00 00 00 00 00 00
00001dcb: 00 00 00 00 00 00 00 00 00 00 00 00 00 00 00 00
00001ddb: 00 00 00 00 00 00 00 00 00 00 00 00 00 00 00 00
00001deb: 00 00 00 00 00 00 00 00 00 00 00 00 00 00 00 00
00001dfb: 00 00 00 00 00 00 00 00 00 00 00 00 00 00 00 00
00001e0b: 00 00 00 00 00 00 00 00 00 00 00 00 00 00 00 00
00001e1b: 00 00 00 00 00 00 00 00 00 00 00 00 00 00 00 00
00001e2b: 00 00 00 00 00 00 00 00 00 00 00 00 00 00 00 00
00001e3b: 00 00 00 00 00 00 00 00 00 00 00 00 00 00 00 00
00001e4b: 00 00 00 00 00 00 00 00 00 00 00 00 00 00 00 00
00001e5b: 00 00 00 00 00 00 00 00 00 00 00 00 00 00 00 00
00001e6b: 00 00 00 00 00 00 00 00 00 00 00 00 00 00 00 00
00001e7b: 00 00 00 00 00 00 00 00 00 00 00 00 00 00 00 00
00001e8b: 00 00 00 00 00 00 00 00 00 00 00 00 00 00 00 00
00001e9b: 00 00 00 00 00 00 00 00 00 00 00 00 00 00 00 00
00001eab: 00 00 00 00 00 00 00 00 00 00 00 00 00 00 00 00
00001ebb: 00 00 00 00 00 00 00 00 00 00 00 00 00 00 00 00
00001ecb: 00 00 00 00 00 00 00 00 00 00 00 00 00 00 00 00
00001edb: 00 00 00 00 00 00 00 00 00 00 00 00 00 00 00 00
00001eeb: 00 00 00 00 00 00 00 00 00 00 00 00 00 00 00 00
00001efb: 00 00 00 00 00 00 00 00 00 00 00 00 00 00 00 00
00001f0b: 00 00 00 00 00 00 00 00 00 00 00 00 00 00 00 00
00001f1b: 00 00 00 00 00 00 00 00 00 00 00 00 00 00 00 00
00001f2b: 00 00 00 00 00 00 00 00 00 00 00 00 00 00 00 00
00001f3b: 00 00 00 00 00 00 00 00 00 00 00 00 00 00 00 00
00001f4b: 00 00 00 00 00 00 00 00 00 00 00 00 00 00 00 00
00001f5b: 00 00 00 00 00 00 00 00 00 00 00 00 00 00 00 00
00001f6b: 00 00 00 00 00 00 00 00 00 00 00 00 00 00 00 00
00001f7b: 00 00 00 00 00 00 00 00 00 00 00 00 00 00 00 00
00001f8b: 00 00 00 00 00 00 00 00 00 00 00 00 00 00 00 00
00001f9b: 00 00 00 00 00 00 00 00 00 00 00 00 00 00 00 00
00001fab: 00 00 00 00 00 00 00 00 00 00 00 00 00 00 00 00
00001fbb: 00 00 00 00 00 00 00 00 00 00 00 00 00 00 00 00
00001fcb: 00 00 00 00 00 00 00 00 00 00 00 00 00 00 00 00
00001fdb: 00 00 00 00 00 00 00 00 00 00 00 00 00 00 00 00
00001feb: 00 00 00 00 00 00 00 00 00 00 00 00 00 00 00 00
00001ffb: 00 00 00 00 00 00 00 00 00 00 00 00 00 00 00 00
0000200b: 00 00 00 00 00 00 00 00 00 00 00 00 00 00 00 00
0000201b: 00 00 00 00 00 00 00 00 00 00 00 00 00 00 00 00
0000202b: 00 00 00 00 00 00 00 00 00 00 00 00 00 00 00 00
0000203b: 00 00 00 00 00 00 00 00 00 00 00 00 00 00 00 00
0000204b: 00 00 00 00 00 00 00 00 00 00 00 00 00 00 00 00
0000205b: 00 00 00 00 00 00 00 00 00 00 00 00 00 00 00 00
0000206b: 00 00 00 00 00 00 00 00 00 00 00 00 00 00 00 00
0000207b: 00 00 00 00 00 00 00 00 00 00 00 00 00 00 00 00
0000208b: 00 00 00 00 00 00 00 00 00 00 00 00 00 00 00 00
0000209b: 00 00 00 00 00 00 00 00 00 00 00 00 00 00 00 00
000020ab: 00 00 00 00 00 00 00 00 00 00 00 00 00 00 00 00
000020bb: 00 00 00 00 00 00 00 00 00 00 00 00 00 00 00 00
000020cb: 00 00 00 00 00 00 00 00 00 00 00 00 00 00 00 00
000020db: 00 00 00 00 00 00 00 00 00 00 00 00 00 00 00 00
000020eb: 00 00 00 00 00 00 00 00 00 00 00 00 00 00 00 00
000020fb: 00 00 00 00 00 00 00 00 00 00 00 00 00 00 00 00
0000210b: 00 00 00 00 00 00 00 00 00 00 00 00 00 00 00 00
0000211b: 00 00 00 00 00 00 00 00 00 00 00 00 00 00 00 00
0000212b: 00 00 00 00 00 00 00 00 00 00 00 00 00 00 00 00
0000213b: 00 00 00 00 00 00 00 00 00 00 00 00 00 00 00 00
0000214b: 00 00 00 00 00 00 00 00 00 00 00 00 00 00 00 00
0000215b: 00 00 00 00 00 00 00 00 00 00 00 00 00 00 00 00
0000216b: 00 00 00 00 00 00 00 00 00 00 00 00 00 00 00 00
0000217b: 00 00 00 00 00 00 00 00 00 00 00 00 00 00 00 00
0000218b: 00 00 00 00 00 00 00 00 00 00 00 00 00 00 00 00
0000219b: 00 00 00 00 00 00 00 00 00 00 00 00 00 00 00 00
000021ab: 00 00 00 00 00 00 00 00 00 00 00 00 00 00 00 00
000021bb: 00 00 00 00 00 00 00 00 00 00 00 00 00 00 00 00
000021cb: 00 00 00 00 00 00 00 00 00 00 00 00 00 00 00 00
000021db: 00 00 00 00 00 00 00 00 00 00 00 00 00 00 00 00
000021eb: 00 00 00 00 00 00 00 00 00 00 00 00 00 00 00 00
000021fb: 00 00 00 00 00 00 00 00 00 00 00 00 00 00 00 00
0000220b: 00 00 00 00 00 00 00 00 00 00 00 00 00 00 00 00
0000221b: 00 00 00 00 00 00 00 00 00 00 00 00 00 00 00 00
0000222b: 00 00 00 00 00 00 00 00 00 00 00 00 00 00 00 00
0000223b: 00 00 00 00 00 00 00 00 00 00 00 00 00 00 00 00
0000224b: 00 00 00 00 00 00 00 00 00 00 00 00 00 00 00 00
0000225b: 00 00 00 00 00 00 00 00 00 00 00 00 00 00 00 00
0000226b: 00 00 00 00 00 00 00 00 00 00 00 00 00 00 00 00
0000227b: 00 00 00 00 00 00 00 00 00 00 00 00 00 00 00 00
0000228b: 00 00 00 00 00 00 00 00 00 00 00 00 00 00 00 00
0000229b: 00 00 00 00 00 00 00 00 00 00 00 00 00 00 00 00
000022ab: 00 00 00 00 00 00 00 00 00 00 00 00 00 00 00 00
000022bb: 00 00 00 00 00 00 00 00 00 00 00 00 00 00 00 00
000022cb: 00 00 00 00 00 00 00 00 00 00 00 00 00 00 00 00
000022db: 00 00 00 00 00 00 00 00 00 00 00 00 00 00 00 00
000022eb: 00 00 00 00 00 00 00 00 00 00 00 00 00 00 00 00
000022fb: 00 00 00 00 00 00 00 00 00 00 00 00 00 00 00 00
0000230b: 00 00 00 00 00 00 00 00 00 00 00 00 00 00 00 00
0000231b: 00 00 00 00 00 00 00 00 00 00 00 00 00 00 00 00
0000232b: 00 00 00 00 00 00 00 00 00 00 00 00 00 00 00 00
0000233b: 00 00 00 00 00 00 00 00 00 00 00 00 00 00 00 00
0000234b: 00 00 00 00 00 00 00 00 00 00 00 00 00 00 00 00
0000235b: 00 00 00 00 00 00 00 00 00 00 00 00 00 00 00 00
0000236b: 00 00 00 00 00 00 00 00 00 00 00 00 00 00 00 00
0000237b: 00 00 00 00 00 00 00 00 00 00 00 00 00 00 00 00
0000238b: 00 00 00 00 00 00 00 00 00 00 00 00 00 00 00 00
0000239b: 00 00 00 00 00 00 00 00 00 00 00 00 00 00 00 00
000023ab: 00 00 00 00 00 00 00 00 00 00 00 00 00 00 00 00
000023bb: 00 00 00 00 00 00 00 00 00 00 00 00 00 00 00 00
000023cb: 00 00 00 00 00 00 00 00 00 00 00 00 00 00 00 00
000023db: 00 00 00 00 00 00 00 00 00 00 00 00 00 00 00 00
000023eb: 00 00 00 00 00 00 00 00 00 00 00 00 00 00 00 00
000023fb: 00 00 00 00 00 00 00 00 00 00 00 00 00 00 00 00
0000240b: 00 00 00 00 00 00 00 00 00 00 00 00 00 00 00 00
0000241b: 00 00 00 00 00 00 00 00 00 00 00 00 00 00 00 00
0000242b: 00 00 00 00 00 00 00 00 00 00 00 00 00 00 00 00
0000243b: 00 00 00 00 00 00 00 00 00 00 00 00 00 00 00 00
0000244b: 00 00 00 00 00 00 00 00 00 00 00 00 00 00 00 00
0000245b: 00 00 00 00 00 00 00 00 00 00 00 00 00 00 00 00
0000246b: 00 00 00 00 00 00 00 00 00 00 00 00 00 00 00 00
0000247b: 00 00 00 00 00 00 00 00 00 00 00 00 00 00 00 00
0000248b: 00 00 00 00 00 00 00 00 00 00 00 00 00 00 00 00
0000249b: 00 00 00 00 00 00 00 00 00 00 00 00 00 00 00 00
000024ab: 00 00 00 00 00 00 00 00 00 00 00 00 00 00 00 00
000024bb: 00 00 00 00 00 00 00 00 00 00 00 00 00 00 00 00
000024cb: 00 00 00 00 00 00 00 00 00 00 00 00 00 00 00 00
000024db: 00 00 00 00 00 00 00 00 00 00 00 00 00 00 00 00
000024eb: 00 00 00 00 00 00 00 00 00 00 00 00 00 00 00 00
000024fb: 00 00 00 00 00 00 00 00 00 00 00 00 00 00 00 00
0000250b: 00 00 00 00 00 00 00 00 00 00 00 00 00 00 00 00
0000251b: 00 00 00 00 00 00 00 00 00 00 00 00 00 00 00 00
0000252b: 00 00 00 00 00 00 00 00 00 00 00 00 00 00 00 00
0000253b: 00 00 00 00 00 00 00 00 00 00 00 00 00 00 00 00
0000254b: 00 00 00 00 00 00 00 00 00 00 00 00 00 00 00 00
0000255b: 00 00 00 00 00 00 00 00 00 00 00 00 00 00 00 00
0000256b: 00 00 00 00 00 00 00 00 00 00 00 00 00 00 00 00
0000257b: 00 00 00 00 00 00 00 00 00 00 00 00 00 00 00 00
0000258b: 00 00 00 00 00 00 00 00 00 00 00 00 00 00 00 00
0000259b: 00 00 00 00 00 00 00 00 00 00 00 00 00 00 00 00
000025ab: 00 00 00 00 00 00 00 00 00 00 00 00 00 00 00 00
000025bb: 00 00 00 00 00 00 00 00 00 00 00 00 00 00 00 00
000025cb: 00 00 00 00 00 00 00 00 00 00 00 00 00 00 00 00
000025db: 00 00 00 00 00 00 00 00 00 00 00 00 00 00 00 00
000025eb: 00 00 00 00 00 00 00 00 00 00 00 00 00 00 00 00
000025fb: 00 00 00 00 00 00 00 00 00 00 00 00 00 00 00 00
0000260b: 00 00 00 00 00 00 00 00 00 00 00 00 00 00 00 00
0000261b: 00 00 00 00 00 00 00 00 00 00 00 00 00 00 00 00
0000262b: 00 00 00 00 00 00 00 00 00 00 00 00 00 00 00 00
0000263b: 00 00 00 00 00 00 00 00 00 00 00 00 00 00 00 00
0000264b: 00 00 00 00 00 00 00 00 00 00 00 00 00 00 00 00
0000265b: 00 00 00 00 00 00 00 00 00 00 00 00 00 00 00 00
0000266b: 00 00 00 00 00 00 00 00 00 00 00 00 00 00 00 00
0000267b: 00 00 00 00 00 00 00 00 00 00 00 00 00 00 00 00
0000268b: 00 00 00 00 00 00 00 00 00 00 00 00 00 00 00 00
0000269b: 00 00 00 00 00 00 00 00 00 00 00 00 00 00 00 00
000026ab: 00 00 00 00 00 00 00 00 00 00 00 00 00 00 00 00
000026bb: 00 00 00 00 00 00 00 00 00 00 00 00 00 00 00 00
000026cb: 00 00 00 00 00 00 00 00 00 00 00 00 00 00 00 00
000026db: 00 00 00 00 00 00 00 00 00 00 00 00 00 00 00 00
000026eb: 00 00 00 00 00 00 00 00 00 00 00 00 00 00 00 00
000026fb: 00 00 00 00 00 00 00 00 00 00 00 00 00 00 00 00
0000270b: 00 00 00 00 00 00 00 00 00 00 00 00 00 00 00 00
0000271b: 00 00 00 00 00 00 00 00 00 00 00 00 00 00 00 00
0000272b: 00 00 00 00 00 00 00 00 00 00 00 00 00 00 00 00
0000273b: 00 00 00 00 00 00 00 00 00 00 00 00 00 00 00 00
0000274b: 00 00 00 00 00 00 00 00 00 00 00 00 00 00 00 00
0000275b: 00 00 00 00 00 00 00 00 00 00 00 00 00 00 00 00
0000276b: 00 00 00 00 00 00 00 00 00 00 00 00 00 00 00 00
0000277b: 00 00 00 00 00 00 00 00 00 00 00 00 00 00 00 00
0000278b: 00 00 00 00 00 00 00 00 00 00 00 00 00 00 00 00
0000279b: 00 00 00 00 00 00 00 00 00 00 00 00 00 00 00 00
000027ab: 00 00 00 00 00 00 00 00 00 00 00 00 00 00 00 00
000027bb: 00 00 00 00 00 00 00 00 00 00 00 00 00 00 00 00
000027cb: 00 00 00 00 00 00 00 00 00 00 00 00 00 00 00 00
000027db: 00 00 00 00 00 00 00 00 00 00 00 00 00 00 00 00
000027eb: 00 00 00 00 00 00 00 00 00 00 00 00 00 00 00 00
000027fb: 00 00 00 00 00 00 00 00 00 00 00 00 00 00 00 00
0000280b: 00 00 00 00 00 00 00 00 00 00 00 00 00 00 00 00
0000281b: 00 00 00 00 00 00 00 00 00 00 00 00 00 00 00 00
0000282b: 00 00 00 00 00 00 00 00 00 00 00 00 00 00 00 00
0000283b: 00 00 00 00 00 00 00 00 00 00 00 00 00 00 00 00
0000284b: 00 00 00 00 00 00 00 00 00 00 00 00 00 00 00 00
0000285b: 00 00 00 00 00 00 00 00 00 00 00 00 00 00 00 00
0000286b: 00 00 00 00 00 00 00 00 00 00 00 00 00 00 00 00
0000287b: 00 00 00 00 00 00 00 00 00 00 00 00 00 00 00 00
0000288b: 00 00 00 00 00 00 00 00 00 00 00 00 00 00 00 00
0000289b: 00 00 00 00 00 00 00 00 00 00 00 00 00 00 00 00
000028ab: 00 00 00 00 00 00 00 00 00 00 00 00 00 00 00 00
000028bb: 00 00 00 00 00 00 00 00 00 00 00 00 00 00 00 00
000028cb: 00 00 00 00 00 00 00 00 00 00 00 00 00 00 00 00
000028db: 00 00 00 00 00 00 00 00 00 00 00 00 00 00 00 00
000028eb: 00 00 00 00 00 00 00 00 00 00 00 00 00 00 00 00
000028fb: 00 00 00 00 00 00 00 00 00 00 00 00 00 00 00 00
0000290b: 00 00 00 00 00 00 00 00 00 00 00 00 00 00 00 00
0000291b: 00 00 00 00 00 00 00 00 00 00 00 00 00 00 00 00
0000292b: 00 00 00 00 00 00 00 00 00 00 00 00 00 00 00 00
0000293b: 00 00 00 00 00 00 00 00 00 00 00 00 00 00 00 00
0000294b: 00 00 00 00 00 00 00 00 00 00 00 00 00 00 00 00
0000295b: 00 00 00 00 00 00 00 00 00 00 00 00 00 00 00 00
0000296b: 00 00 00 00 00 00 00 00 00 00 00 00 00 00 00 00
0000297b: 00 00 00 00 00 00 00 00 00 00 00 00 00 00 00 00
0000298b: 00 00 00 00 00 00 00 00 00 00 00 00 00 00 00 00
0000299b: 00 00 00 00 00 00 00 00 00 00 00 00 00 00 00 00
000029ab: 00 00 00 00 00 00 00 00 00 00 00 00 00 00 00 00
000029bb: 00 00 00 00 00 00 00 00 00 00 00 00 00 00 00 00
000029cb: 00 00 00 00 00 00 00 00 00 00 00 00 00 00 00 00
000029db: 00 00 00 00 00 00 00 00 00 00 00 00 00 00 00 00
000029eb: 00 00 00 00 00 00 00 00 00 00 00 00 00 00 00 00
000029fb: 00 00 00 00 00 00 00 00 00 00 00 00 00 00 00 00
00002a0b: 00 00 00 00 00 00 00 00 00 00 00 00 00 00 00 00
00002a1b: 00 00 00 00 00 00 00 00 00 00 00 00 00 00 00 00
00002a2b: 00 00 00 00 00 00 00 00 00 00 00 00 00 00 00 00
00002a3b: 00 00 00 00 00 00 00 00 00 00 00 00 00 00 00 00
00002a4b: 00 00 00 00 00 00 00 00 00 00 00 00 00 00 00 00
00002a5b: 00 00 00 00 00 00 00 00 00 00 00 00 00 00 00 00
00002a6b: 00 00 00 00 00 00 00 00 00 00 00 00 00 00 00 00
00002a7b: 00 00 00 00 00 00 00 00 00 00 00 00 00 00 00 00
00002a8b: 00 00 00 00 00 00 00 00 00 00 00 00 00 00 00 00
00002a9b: 00 00 00 00 00 00 00 00 00 00 00 00 00 00 00 00
00002aab: 00 00 00 00 00 00 00 00 00 00 00 00 00 00 00 00
00002abb: 00 00 00 00 00 00 00 00 00 00 00 00 00 00 00 00
00002acb: 00 00 00 00 00 00 00 00 00 00 00 00 00 00 00 00
00002adb: 00 00 00 00 00 00 00 00 00 00 00 00 00 00 00 00
00002aeb: 00 00 00 00 00 00 00 00 00 00 00 00 00 00 00 00
00002afb: 00 00 00 00 00 00 00 00 00 00 00 00 00 00 00 00
00002b0b: 00 00 00 00 00 00 00 00 00 00 00 00 00 00 00 00
00002b1b: 00 00 00 00 00 00 00 00 00 00 00 00 00 00 00 00
00002b2b: 00 00 00 00 00 00 00 00 00 00 00 00 00 00 00 00
00002b3b: 00 00 00 00 00 00 00 00 00 00 00 00 00 00 00 00
00002b4b: 00 00 00 00 00 00 00 00 00 00 00 00 00 00 00 00
00002b5b: 00 00 00 00 00 00 00 00 00 00 00 00 00 00 00 00
00002b6b: 00 00 00 00 00 00 00 00 00 00 00 00 00 00 00 00
00002b7b: 00 00 00 00 00 00 00 00 00 00 00 00 00 00 00 00
00002b8b: 00 00 00 00 00 00 00 00 00 00 00 00 00 00 00 00
00002b9b: 00 00 00 00 00 00 00 00 00 00 00 00 00 00 00 00
00002bab: 00 00 00 00 00 00 00 00 00 00 00 00 00 00 00 00
00002bbb: 00 00 00 00 00 00 00 00 00 00 00 00 00 00 00 00
00002bcb: 00 00 00 00 00 00 00 00 00 00 00 00 00 00 00 00
00002bdb: 00 00 00 00 00 00 00 00 00 00 00 00 00 00 00 00
00002beb: 00 00 00 00 00 00 00 00 00 00 00 00 00 00 00 00
00002bfb: 00 00 00 00 00 00 00 00 00 00 00 00 00 00 00 00
00002c0b: 00 00 00 00 00 00 00 00 00 00 00 00 00 00 00 00
00002c1b: 00 00 00 00 00 00 00 00 00 00 00 00 00 00 00 00
00002c2b: 00 00 00 00 00 00 00 00 00 00 00 00 00 00 00 00
00002c3b: 00 00 00 00 00 00 00 00 00 00 00 00 00 00 00 00
00002c4b: 00 00 00 00 00 00 00 00 00 00 00 00 00 00 00 00
00002c5b: 00 00 00 00 00 00 00 00 00 00 00 00 00 00 00 00
00002c6b: 00 00 00 00 00 00 00 00 00 00 00 00 00 00 00 00
00002c7b: 00 00 00 00 00 00 00 00 00 00 00 00 00 00 00 00
00002c8b: 00 00 00 00 00 00 00 00 00 00 00 00 00 00 00 00
00002c9b: 00 00 00 00 00 00 00 00 00 00 00 00 00 00 00 00
00002cab: 00 00 00 00 00 00 00 00 00 00 00 00 00 00 00 00
00002cbb: 00 00 00 00 00 00 00 00 00 00 00 00 00 00 00 00
00002ccb: 00 00 00 00 00 00 00 00 00 00 00 00 00 00 00 00
00002cdb: 00 00 00 00 00 00 00 00 00 00 00 00 00 00 00 00
00002ceb: 00 00 00 00 00 00 00 00 00 00 00 00 00 00 00 00
00002cfb: 00 00 00 00 00 00 00 00 00 00 00 00 00 00 00 00
00002d0b: 00 00 00 00 00 00 00 00 00 00 00 00 00 00 00 00
00002d1b: 00 00 00 00 00 00 00 00 00 00 00 00 00 00 00 00
00002d2b: 00 00 00 00 00 00 00 00 00 00 00 00 00 00 00 00
00002d3b: 00 00 00 00 00 00 00 00 00 00 00 00 00 00 00 00
00002d4b: 00 00 00 00 00 00 00 00 00 00 00 00 00 00 00 00
00002d5b: 00 00 00 00 00 00 00 00 00 00 00 00 00 00 00 00
00002d6b: 00 00 00 00 00 00 00 00 00 00 00 00 00 00 00 00
00002d7b: 00 00 00 00 00 00 00 00 00 00 00 00 00 00 00 00
00002d8b: 00 00 00 00 00 00 00 00 00 00 00 00 00 00 00 00
00002d9b: 00 00 00 00 00 00 00 00 00 00 00 00 00 00 00 00
00002dab: 00 00 00 00 00 00 00 00 00 00 00 00 00 00 00 00
00002dbb: 00 00 00 00 00 00 00 00 00 00 00 00 00 00 00 00
00002dcb: 00 00 00 00 00 00 00 00 00 00 00 00 00 00 00 00
00002ddb: 00 00 00 00 00 00 00 00 00 00 00 00 00 00 00 00
00002deb: 00 00 00 00 00 00 00 00 00 00 00 00 00 00 00 00
00002dfb: 00 00 00 00 00 00 00 00 00 00 00 00 00 00 00 00
00002e0b: 00 00 00 00 00 00 00 00 00 00 00 00 00 00 00 00
00002e1b: 00 00 00 00 00 00 00 00 00 00 00 00 00 00 00 00
00002e2b: 00 00 00 00 00 00 00 00 00 00 00 00 00 00 00 00
00002e3b: 00 00 00 00 00 00 00 00 00 00 00 00 00 00 00 00
00002e4b: 00 00 00 00 00 00 00 00 00 00 00 00 00 00 00 00
00002e5b: 00 00 00 00 00 00 00 00 00 00 00 00 00 00 00 00
00002e6b: 00 00 00 00 00 00 00 00 00 00 00 00 00 00 00 00
00002e7b: 00 00 00 00 00 00 00 00 00 00 00 00 00 00 00 00
00002e8b: 00 00 00 00 00 00 00 00 00 00 00 00 00 00 00 00
00002e9b: 00 00 00 00 00 00 00 00 00 00 00 00 00 00 00 00
00002eab: 00 00 00 00 00 00 00 00 00 00 00 00 00 00 00 00
00002ebb: 00 00 00 00 00 00 00 00 00 00 00 00 00 00 00 00
00002ecb: 00 00 00 00 00 00 00 00 00 00 00 00 00 00 00 00
00002edb: 00 00 00 00 00 00 00 00 00 00 00 00 00 00 00 00
00002eeb: 00 00 00 00 00 00 00 00 00 00 00 00 00 00 00 00
00002efb: 00 00 00 00 00 00 00 00 00 00 00 00 00 00 00 00
00002f0b: 00 00 00 00 00 00 00 00 00 00 00 00 00 00 00 00
00002f1b: 00 00 00 00 00 00 00 00 00 00 00 00 00 00 00 00
00002f2b: 00 00 00 00 00 00 00 00 00 00 00 00 00 00 00 00
00002f3b: 00 00 00 00 00 00 00 00 00 00 00 00 00 00 00 00
00002f4b: 00 00 00 00 00 00 00 00 00 00 00 00 00 00 00 00
00002f5b: 00 00 00 00 00 00 00 00 00 00 00 00 00 00 00 00
00002f6b: 00 00 00 00 00 00 00 00 00 00 00 00 00 00 00 00
00002f7b: 00 00 00 00 00 00 00 00 00 00 00 00 00 00 00 00
00002f8b: 00 00 00 00 00 00 00 00 00 00 00 00 00 00 00 00
00002f9b: 00 00 00 00 00 00 00 00 00 00 00 00 00 00 00 00
00002fab: 00 00 00 00 00 00 00 00 00 00 00 00 00 00 00 00
00002fbb: 00 00 00 00 00 00 00 00 00 00 00 00 00 00 00 00
00002fcb: 00 00 00 00 00 00 00 00 00 00 00 00 00 00 00 00
00002fdb: 00 00 00 00 00 00 00 00 00 00 00 00 00 00 00 00
00002feb: 00 00 00 00 00 00 00 00 00 00 00 00 00 00 00 00
00002ffb: 00 00 00 00 00 00 00 00 00 00 00 00 00 00 00 00
0000300b: 00 00 00 00 00 00 00 00 00 00 00 00 00 00 00 00
0000301b: 00 00 00 00 00 00 00 00 00 00 00 00 00 00 00 00
0000302b: 00 00 00 00 00 00 00 00 00 00 00 00 00 00 00 00
0000303b: 00 00 00 00 00 00 00 00 00 00 00 00 00 00 00 00
0000304b: 00 00 00 00 00 00 00 00 00 00 00 00 00 00 00 00
0000305b: 00 00 00 00 00 00 00 00 00 00 00 00 00 00 00 00
0000306b: 00 00 00 00 00 00 00 00 00 00 00 00 00 00 00 00
0000307b: 00 00 00 00 00 00 00 00 00 00 00 00 00 00 00 00
0000308b: 00 00 00 00 00 00 00 00 00 00 00 00 00 00 00 00
0000309b: 00 00 00 00 00 00 00 00 00 00 00 00 00 00 00 00
000030ab: 00 00 00 00 00 00 00 00 00 00 00 00 00 00 00 00
000030bb: 00 00 00 00 00 00 00 00 00 00 00 00 00 00 00 00
000030cb: 00 00 00 00 00 00 00 00 00 00 00 00 00 00 00 00
000030db: 00 00 00 00 00 00 00 00 00 00 00 00 00 00 00 00
000030eb: 00 00 00 00 00 00 00 00 00 00 00 00 00 00 00 00
000030fb: 00 00 00 00 00 00 00 00 00 00 00 00 00 00 00 00
0000310b: 00 00 00 00 00 00 00 00 00 00 00 00 00 00 00 00
0000311b: 00 00 00 00 00 00 00 00 00 00 00 00 00 00 00 00
0000312b: 00 00 00 00 00 00 00 00 00 00 00 00 00 00 00 00
0000313b: 00 00 00 00 00 00 00 00 00 00 00 00 00 00 00 00
0000314b: 00 00 00 00 00 00 00 00 00 00 00 00 00 00 00 00
0000315b: 00 00 00 00 00 00 00 00 00 00 00 00 00 00 00 00
0000316b: 00 00 00 00 00 00 00 00 00 00 00 00 00 00 00 00
0000317b: 00 00 00 00 00 00 00 00 00 00 00 00 00 00 00 00
0000318b: 00 00 00 00 00 00 00 00 00 00 00 00 00 00 00 00
0000319b: 00 00 00 00 00 00 00 00 00 00 00 00 00 00 00 00
000031ab: 00 00 00 00 00 00 00 00 00 00 00 00 00 00 00 00
000031bb: 00 00 00 00 00 00 00 00 00 00 00 00 00 00 00 00
000031cb: 00 00 00 00 00 00 00 00 00 00 00 00 00 00 00 00
000031db: 00 00 00 00 00 00 00 00 00 00 00 00 00 00 00 00
000031eb: 00 00 00 00 00 00 00 00 00 00 00 00 00 00 00 00
000031fb: 00 00 00 00 00 00 00 00 00 00 00 00 00 00 00 00
0000320b: 00 00 00 00 00 00 00 00 00 00 00 00 00 00 00 00
0000321b: 00 00 00 00 00 00 00 00 00 00 00 00 00 00 00 00
0000322b: 00 00 00 00 00 00 00 00 00 00 00 00 00 00 00 00
0000323b: 00 00 00 00 00 00 00 00 00 00 00 00 00 00 00 00
0000324b: 00 00 00 00 00 00 00 00 00 00 00 00 00 00 00 00
0000325b: 00 00 00 00 00 00 00 00 00 00 00 00 00 00 00 00
0000326b: 00 00 00 00 00 00 00 00 00 00 00 00 00 00 00 00
0000327b: 00 00 00 00 00 00 00 00 00 00 00 00 00 00 00 00
0000328b: 00 00 00 00 00 00 00 00 00 00 00 00 00 00 00 00
0000329b: 00 00 00 00 00 00 00 00 00 00 00 00 00 00 00 00
000032ab: 00 00 00 00 00 00 00 00 00 00 00 00 00 00 00 00
000032bb: 00 00 00 00 00 00 00 00 00 00 00 00 00 00 00 00
000032cb: 00 00 00 00 00 00 00 00 00 00 00 00 00 00 00 00
000032db: 00 00 00 00 00 00 00 00 00 00 00 00 00 00 00 00
000032eb: 00 00 00 00 00 00 00 00 00 00 00 00 00 00 00 00
000032fb: 00 00 00 00 00 00 00 00 00 00 00 00 00 00 00 00
0000330b: 00 00 00 00 00 00 00 00 00 00 00 00 00 00 00 00
0000331b: 00 00 00 00 00 00 00 00 00 00 00 00 00 00 00 00
0000332b: 00 00 00 00 00 00 00 00 00 00 00 00 00 00 00 00
0000333b: 00 00 00 00 00 00 00 00 00 00 00 00 00 00 00 00
0000334b: 00 00 00 00 00 00 00 00 00 00 00 00 00 00 00 00
0000335b: 00 00 00 00 00 00 00 00 00 00 00 00 00 00 00 00
0000336b: 00 00 00 00 00 00 00 00 00 00 00 00 00 00 00 00
0000337b: 00 00 00 00 00 00 00 00 00 00 00 00 00 00 00 00
0000338b: 00 00 00 00 00 00 00 00 00 00 00 00 00 00 00 00
0000339b: 00 00 00 00 00 00 00 00 00 00 00 00 00 00 00 00
000033ab: 00 00 00 00 00 00 00 00 00 00 00 00 00 00 00 00
000033bb: 00 00 00 00 00 00 00 00 00 00 00 00 00 00 00 00
000033cb: 00 00 00 00 00 00 00 00 00 00 00 00 00 00 00 00
000033db: 00 00 00 00 00 00 00 00 00 00 00 00 00 00 00 00
000033eb: 00 00 00 00 00 00 00 00 00 00 00 00 00 00 00 00
000033fb: 00 00 00 00 00 00 00 00 00 00 00 00 00 00 00 00
0000340b: 00 00 00 00 00 00 00 00 00 00 00 00 00 00 00 00
0000341b: 00 00 00 00 00 00 00 00 00 00 00 00 00 00 00 00
0000342b: 00 00 00 00 00 00 00 00 00 00 00 00 00 00 00 00
0000343b: 00 00 00 00 00 00 00 00 00 00 00 00 00 00 00 00
0000344b: 00 00 00 00 00 00 00 00 00 00 00 00 00 00 00 00
0000345b: 00 00 00 00 00 00 00 00 00 00 00 00 00 00 00 00
0000346b: 00 00 00 00 00 00 00 00 00 00 00 00 00 00 00 00
0000347b: 00 00 00 00 00 00 00 00 00 00 00 00 00 00 00 00
0000348b: 00 00 00 00 00 00 00 00 00 00 00 00 00 00 00 00
0000349b: 00 00 00 00 00 00 00 00 00 00 00 00 00 00 00 00
000034ab: 00 00 00 00 00 00 00 00 00 00 00 00 00 00 00 00
000034bb: 00 00 00 00 00 00 00 00 00 00 00 00 00 00 00 00
000034cb: 00 00 00 00 00 00 00 00 00 00 00 00 00 00 00 00
000034db: 00 00 00 00 00 00 00 00 00 00 00 00 00 00 00 00
000034eb: 00 00 00 00 00 00 00 00 00 00 00 00 00 00 00 00
000034fb: 00 00 00 00 00 00 00 00 00 00 00 00 00 00 00 00
0000350b: 00 00 00 00 00 00 00 00 00 00 00 00 00 00 00 00
0000351b: 00 00 00 00 00 00 00 00 00 00 00 00 00 00 00 00
0000352b: 00 00 00 00 00 00 00 00 00 00 00 00 00 00 00 00
0000353b: 00 00 00 00 00 00 00 00 00 00 00 00 00 00 00 00
0000354b: 00 00 00 00 00 00 00 00 00 00 00 00 00 00 00 00
0000355b: 00 00 00 00 00 00 00 00 00 00 00 00 00 00 00 00
0000356b: 00 00 00 00 00 00 00 00 00 00 00 00 00 00 00 00
0000357b: 00 00 00 00 00 00 00 00 00 00 00 00 00 00 00 00
0000358b: 00 00 00 00 00 00 00 00 00 00 00 00 00 00 00 00
0000359b: 00 00 00 00 00 00 00 00 00 00 00 00 00 00 00 00
000035ab: 00 00 00 00 00 00 00 00 00 00 00 00 00 00 00 00
000035bb: 00 00 00 00 00 00 00 00 00 00 00 00 00 00 00 00
000035cb: 00 00 00 00 00 00 00 00 00 00 00 00 00 00 00 00
000035db: 00 00 00 00 00 00 00 00 00 00 00 00 00 00 00 00
000035eb: 00 00 00 00 00 00 00 00 00 00 00 00 00 00 00 00
000035fb: 00 00 00 00 00 00 00 00 00 00 00 00 00 00 00 00
0000360b: 00 00 00 00 00 00 00 00 00 00 00 00 00 00 00 00
0000361b: 00 00 00 00 00 00 00 00 00 00 00 00 00 00 00 00
0000362b: 00 00 00 00 00 00 00 00 00 00 00 00 00 00 00 00
0000363b: 00 00 00 00 00 00 00 00 00 00 00 00 00 00 00 00
0000364b: 00 00 00 00 00 00 00 00 00 00 00 00 00 00 00 00
0000365b: 00 00 00 00 00 00 00 00 00 00 00 00 00 00 00 00
0000366b: 00 00 00 00 00 00 00 00 00 00 00 00 00 00 00 00
0000367b: 00 00 00 00 00 00 00 00 00 00 00 00 00 00 00 00
0000368b: 00 00 00 00 00 00 00 00 00 00 00 00 00 00 00 00
0000369b: 00 00 00 00 00 00 00 00 00 00 00 00 00 00 00 00
000036ab: 00 00 00 00 00 00 00 00 00 00 00 00 00 00 00 00
000036bb: 00 00 00 00 00 00 00 00 00 00 00 00 00 00 00 00
000036cb: 00 00 00 00 00 00 00 00 00 00 00 00 00 00 00 00
000036db: 00 00 00 00 00 00 00 00 00 00 00 00 00 00 00 00
000036eb: 00 00 00 00 00 00 00 00 00 00 00 00 00 00 00 00
000036fb: 00 00 00 00 00 00 00 00 00 00 00 00 00 00 00 00
0000370b: 00 00 00 00 00 00 00 00 00 00 00 00 00 00 00 00
0000371b: 00 00 00 00 00 00 00 00 00 00 00 00 00 00 00 00
0000372b: 00 00 00 00 00 00 00 00 00 00 00 00 00 00 00 00
0000373b: 00 00 00 00 00 00 00 00 00 00 00 00 00 00 00 00
0000374b: 00 00 00 00 00 00 00 00 00 00 00 00 00 00 00 00
0000375b: 00 00 00 00 00 00 00 00 00 00 00 00 00 00 00 00
0000376b: 00 00 00 00 00 00 00 00 00 00 00 00 00 00 00 00
0000377b: 00 00 00 00 00 00 00 00 00 00 00 00 00 00 00 00
0000378b: 00 00 00 00 00 00 00 00 00 00 00 00 00 00 00 00
0000379b: 00 00 00 00 00 00 00 00 00 00 00 00 00 00 00 00
000037ab: 00 00 00 00 00 00 00 00 00 00 00 00 00 00 00 00
000037bb: 00 00 00 00 00 00 00 00 00 00 00 00 00 00 00 00
000037cb: 00 00 00 00 00 00 00 00 00 00 00 00 00 00 00 00
000037db: 00 00 00 00 00 00 00 00 00 00 00 00 00 00 00 00
000037eb: 00 00 00 00 00 00 00 00 00 00 00 00 00 00 00 00
000037fb: 00 00 00 00 00 00 00 00 00 00 00 00 00 00 00 00
0000380b: 00 00 00 00 00 00 00 00 00 00 00 00 00 00 00 00
0000381b: 00 00 00 00 00 00 00 00 00 00 00 00 00 00 00 00
0000382b: 00 00 00 00 00 00 00 00 00 00 00 00 00 00 00 00
0000383b: 00 00 00 00 00 00 00 00 00 00 00 00 00 00 00 00
0000384b: 00 00 00 00 00 00 00 00 00 00 00 00 00 00 00 00
0000385b: 00 00 00 00 00 00 00 00 00 00 00 00 00 00 00 00
0000386b: 00 00 00 00 00 00 00 00 00 00 00 00 00 00 00 00
0000387b: 00 00 00 00 00 00 00 00 00 00 00 00 00 00 00 00
0000388b: 00 00 00 00 00 00 00 00 00 00 00 00 00 00 00 00
0000389b: 00 00 00 00 00 00 00 00 00 00 00 00 00 00 00 00
000038ab: 00 00 00 00 00 00 00 00 00 00 00 00 00 00 00 00
000038bb: 00 00 00 00 00 00 00 00 00 00 00 00 00 00 00 00
000038cb: 00 00 00 00 00 00 00 00 00 00 00 00 00 00 00 00
000038db: 00 00 00 00 00 00 00 00 00 00 00 00 00 00 00 00
000038eb: 00 00 00 00 00 00 00 00 00 00 00 00 00 00 00 00
000038fb: 00 00 00 00 00 00 00 00 00 00 00 00 00 00 00 00
0000390b: 00 00 00 00 00 00 00 00 00 00 00 00 00 00 00 00
0000391b: 00 00 00 00 00 00 00 00 00 00 00 00 00 00 00 00
0000392b: 00 00 00 00 00 00 00 00 00 00 00 00 00 00 00 00
0000393b: 00 00 00 00 00 00 00 00 00 00 00 00 00 00 00 00
0000394b: 00 00 00 00 00 00 00 00 00 00 00 00 00 00 00 00
0000395b: 00 00 00 00 00 00 00 00 00 00 00 00 00 00 00 00
0000396b: 00 00 00 00 00 00 00 00 00 00 00 00 00 00 00 00
0000397b: 00 00 00 00 00 00 00 00 00 00 00 00 00 00 00 00
0000398b: 00 00 00 00 00 00 00 00 00 00 00 00 00 00 00 00
0000399b: 00 00 00 00 00 00 00 00 00 00 00 00 00 00 00 00
000039ab: 00 00 00 00 00 00 00 00 00 00 00 00 00 00 00 00
000039bb: 00 00 00 00 00 00 00 00 00 00 00 00 00 00 00 00
000039cb: 00 00 00 00 00 00 00 00 00 00 00 00 00 00 00 00
000039db: 00 00 00 00 00 00 00 00 00 00 00 00 00 00 00 00
000039eb: 00 00 00 00 00 00 00 00 00 00 00 00 00 00 00 00
000039fb: 00 00 00 00 00 00 00 00 00 00 00 00 00 00 00 00
00003a0b: 00 00 00 00 00 00 00 00 00 00 00 00 00 00 00 00
00003a1b: 00 00 00 00 00 00 00 00 00 00 00 00 00 00 00 00
00003a2b: 00 00 00 00 00 00 00 00 00 00 00 00 00 00 00 00
00003a3b: 00 00 00 00 00 00 00 00 00 00 00 00 00 00 00 00
00003a4b: 00 00 00 00 00 00 00 00 00 00 00 00 00 00 00 00
00003a5b: 00 00 00 00 00 00 00 00 00 00 00 00 00 00 00 00
00003a6b: 00 00 00 00 00 00 00 00 00 00 00 00 00 00 00 00
00003a7b: 00 00 00 00 00 00 00 00 00 00 00 00 00 00 00 00
00003a8b: 00 00 00 00 00 00 00 00 00 00 00 00 00 00 00 00
00003a9b: 00 00 00 00 00 00 00 00 00 00 00 00 00 00 00 00
00003aab: 00 00 00 00 00 00 00 00 00 00 00 00 00 00 00 00
00003abb: 00 00 00 00 00 00 00 00 00 00 00 00 00 00 00 00
00003acb: 00 00 00 00 00 00 00 00 00 00 00 00 00 00 00 00
00003adb: 00 00 00 00 00 00 00 00 00 00 00 00 00 00 00 00
00003aeb: 00 00 00 00 00 00 00 00 00 00 00 00 00 00 00 00
00003afb: 00 00 00 00 00 00 00 00 00 00 00 00 00 00 00 00
00003b0b: 00 00 00 00 00 00 00 00 00 00 00 00 00 00 00 00
00003b1b: 00 00 00 00 00 00 00 00 00 00 00 00 00 00 00 00
00003b2b: 00 00 00 00 00 00 00 00 00 00 00 00 00 00 00 00
00003b3b: 00 00 00 00 00 00 00 00 00 00 00 00 00 00 00 00
00003b4b: 00 00 00 00 00 00 00 00 00 00 00 00 00 00 00 00
00003b5b: 00 00 00 00 00 00 00 00 00 00 00 00 00 00 00 00
00003b6b: 00 00 00 00 00 00 00 00 00 00 00 00 00 00 00 00
00003b7b: 00 00 00 00 00 00 00 00 00 00 00 00 00 00 00 00
00003b8b: 00 00 00 00 00 00 00 00 00 00 00 00 00 00 00 00
00003b9b: 00 00 00 00 00 00 00 00 00 00 00 00 00 00 00 00
00003bab: 00 00 00 00 00 00 00 00 00 00 00 00 00 00 00 00
00003bbb: 00 00 00 00 00 00 00 00 00 00 00 00 00 00 00 00
00003bcb: 00 00 00 00 00 00 00 00 00 00 00 00 00 00 00 00
00003bdb: 00 00 00 00 00 00 00 00 00 00 00 00 00 00 00 00
00003beb: 00 00 00 00 00 00 00 00 00 00 00 00 00 00 00 00
00003bfb: 00 00 00 00 00 00 00 00 00 00 00 00 00 00 00 00
00003c0b: 00 00 00 00 00 00 00 00 00 00 00 00 00 00 00 00
00003c1b: 00 00 00 00 00 00 00 00 00 00 00 00 00 00 00 00
00003c2b: 00 00 00 00 00 00 00 00 00 00 00 00 00 00 00 00
00003c3b: 00 00 00 00 00 00 00 00 00 00 00 00 00 00 00 00
00003c4b: 00 00 00 00 00 00 00 00 00 00 00 00 00 00 00 00
00003c5b: 00 00 00 00 00 00 00 00 00 00 00 00 00 00 00 00
00003c6b: 00 00 00 00 00 00 00 00 00 00 00 00 00 00 00 00
00003c7b: 00 00 00 00 00 00 00 00 00 00 00 00 00 00 00 00
00003c8b: 00 00 00 00 00 00 00 00 00 00 00 00 00 00 00 00
00003c9b: 00 00 00 00 00 00 00 00 00 00 00 00 00 00 00 00
00003cab: 00 00 00 00 00 00 00 00 00 00 00 00 00 00 00 00
00003cbb: 00 00 00 00 00 00 00 00 00 00 00 00 00 00 00 00
00003ccb: 00 00 00 00 00 00 00 00 00 00 00 00 00 00 00 00
00003cdb: 00 00 00 00 00 00 00 00 00 00 00 00 00 00 00 00
00003ceb: 00 00 00 00 00 00 00 00 00 00 00 00 00 00 00 00
00003cfb: 00 00 00 00 00 00 00 00 00 00 00 00 00 00 00 00
00003d0b: 00 00 00 00 00 00 00 00 00 00 00 00 00 00 00 00
00003d1b: 00 00 00 00 00 00 00 00 00 00 00 00 00 00 00 00
00003d2b: 00 00 00 00 00 00 00 00 00 00 00 00 00 00 00 00
00003d3b: 00 00 00 00 00 00 00 00 00 00 00 00 00 00 00 00
00003d4b: 00 00 00 00 00 00 00 00 00 00 00 00 00 00 00 00
00003d5b: 00 00 00 00 00 00 00 00 00 00 00 00 00 00 00 00
00003d6b: 00 00 00 00 00 00 00 00 00 00 00 00 00 00 00 00
00003d7b: 00 00 00 00 00 00 00 00 00 00 00 00 00 00 00 00
00003d8b: 00 00 00 00 00 00 00 00 00 00 00 00 00 00 00 00
00003d9b: 00 00 00 00 00 00 00 00 00 00 00 00 00 00 00 00
00003dab: 00 00 00 00 00 00 00 00 00 00 00 00 00 00 00 00
00003dbb: 00 00 00 00 00 00 00 00 00 00 00 00 00 00 00 00
00003dcb: 00 00 00 00 00 00 00 00 00 00 00 00 00 00 00 00
00003ddb: 00 00 00 00 00 00 00 00 00 00 00 00 00 00 00 00
00003deb: 00 00 00 00 00 00 00 00 00 00 00 00 00 00 00 00
00003dfb: 00 00 00 00 00 00 00 00 00 00 00 00 00 00 00 00
00003e0b: 00 00 00 00 00 00 00 00 00 00 00 00 00 00 00 00
00003e1b: 00 00 00 00 00 00 00 00 00 00 00 00 00 00 00 00
00003e2b: 00 00 00 00 00 00 00 00 00 00 00 00 00 00 00 00
00003e3b: 00 00 00 00 00 00 00 00 00 00 00 00 00 00 00 00
00003e4b: 00 00 00 00 00 00 00 00 00 00 00 00 00 00 00 00
00003e5b: 00 00 00 00 00 00 00 00 00 00 00 00 00 00 00 00
00003e6b: 00 00 00 00 00 00 00 00 00 00 00 00 00 00 00 00
00003e7b: 00 00 00 00 00 00 00 00 00 00 00 00 00 00 00 00
00003e8b: 00 00 00 00 00 00 00 00 00 00 00 00 00 00 00 00
00003e9b: 00 00 00 00 00 00 00 00 00 00 00 00 00 00 00 00
00003eab: 00 00 00 00 00 00 00 00 00 00 00 00 00 00 00 00
00003ebb: 00 00 00 00 00 00 00 00 00 00 00 00 00 00 00 00
00003ecb: 00 00 00 00 00 00 00 00 00 00 00 00 00 00 00 00
00003edb: 00 00 00 00 00 00 00 00 00 00 00 00 00 00 00 00
00003eeb: 00 00 00 00 00 00 00 00 00 00 00 00 00 00 00 00
00003efb: 00 00 00 00 00 00 00 00 00 00 00 00 00 00 00 00
00003f0b: 00 00 00 00 00 00 00 00 00 00 00 00 00 00 00 00
00003f1b: 00 00 00 00 00 00 00 00 00 00 00 00 00 00 00 00
00003f2b: 00 00 00 00 00 00 00 00 00 00 00 00 00 00 00 00
00003f3b: 00 00 00 00 00 00 00 00 00 00 00 00 00 00 00 00
00003f4b: 00 00 00 00 00 00 00 00 00 00 00 00 00 00 00 00
00003f5b: 00 00 00 00 00 00 00 00 00 00 00 00 00 00 00 00
00003f6b: 00 00 00 00 00 00 00 00 00 00 00 00 00 00 00 00
00003f7b: 00 00 00 00 00 00 00 00 00 00 00 00 00 00 00 00
00003f8b: 00 00 00 00 00 00 00 00 00 00 00 00 00 00 00 00
00003f9b: 00 00 00 00 00 00 00 00 00 00 00 00 00 00 00 00
00003fab: 00 00 00 00 00 00 00 00 00 00 00 00 00 00 00 00
00003fbb: 00 00 00 00 00 00 00 00 00 00 00 00 00 00 00 00
00003fcb: 00 00 00 00 00 00 00 00 00 00 00 00 00 00 00 00
00003fdb: 00 00 00 00 00 00 00 00 00 00 00 00 00 00 00 00
00003feb: 00 00 00 00 00 00 00 00 00 00 00 00 00 00 00 00
00003ffb: 00 00 00 00 00 00 00 00 00 00 00 00 00 00 00 00
0000400b: 00 00 00 00 00 00 00 00 00 00 00 00 00 00 00 00
0000401b: 00 00 00 00 00 00 00 00 00 00 00 00 00 00 00 00
0000402b: 00 00 00 00 00 00 00 00 00 00 00 00 00 00 00 00
0000403b: 00 00 00 00 00 00 00 00 00 00 00 00 00 00 00 00
0000404b: 00 00 00 00 00 00 00 00 00 00 00 00 00 00 00 00
0000405b: 00 00 00 00 00 00 00 00 00 00 00 00 00 00 00 00
0000406b: 00 00 00 00 00 00 00 00 00 00 00 00 00 00 00 00
0000407b: 00 00 00 00 00 00 00 00 00 00 00 00 00 00 00 00
0000408b: 00 00 00 00 00 00 00 00 00 00 00 00 00 00 00 00
0000409b: 00 00 00 00 00 00 00 00 00 00 00 00 00 00 00 00
000040ab: 00 00 00 00 00 00 00 00 00 00 00 00 00 00 00 00
000040bb: 00 00 00 00 00 00 00 00 00 00 00 00 00 00 00 00
000040cb: 00 00 00 00 00 00 00 00 00 00 00 00 00 00 00 00
000040db: 00 00 00 00 00 00 00 00 00 00 00 00 00 00 00 00
000040eb: 00 00 00 00 00 00 00 00 00 00 00 00 00 00 00 00
000040fb: 00 00 00 00 00 00 00 00 00 00 00 00 00 00 00 00
0000410b: 00 00 00 00 00 00 00 00 00 00 00 00 00 00 00 00
0000411b: 00 00 00 00 00 00 00 00 00 00 00 00 00 00 00 00
0000412b: 00 00 00 00 00 00 00 00 00 00 00 00 00 00 00 00
0000413b: 00 00 00 00 00 00 00 00 00 00 00 00 00 00 00 00
0000414b: 00 00 00 00 00 00 00 00 00 00 00 00 00 00 00 00
0000415b: 00 00 00 00 00 00 00 00 00 00 00 00 00 00 00 00
0000416b: 00 00 00 00 00 00 00 00 00 00 00 00 00 00 00 00
0000417b: 00 00 00 00 00 00 00 00 00 00 00 00 00 00 00 00
0000418b: 00 00 00 00 00 00 00 00 00 00 00 00 00 00 00 00
0000419b: 00 00 00 00 00 00 00 00 00 00 00 00 00 00 00 00
000041ab: 00 00 00 00 00 00 00 00 00 00 00 00 00 00 00 00
000041bb: 00 00 00 00 00 00 00 00 00 00 00 00 00 00 00 00
000041cb: 00 00 00 00 00 00 00 00 00 00 00 00 00 00 00 00
000041db: 00 00 00 00 00 00 00 00 00 00 00 00 00 00 00 00
000041eb: 00 00 00 00 00 00 00 00 00 00 00 00 00 00 00 00
000041fb: 00 00 00 00 00 00 00 00 00 00 00 00 00 00 00 00
0000420b: 00 00 00 00 00 00 00 00 00 00 00 00 00 00 00 00
0000421b: 00 00 00 00 00 00 00 00 00 00 00 00 00 00 00 00
0000422b: 00 00 00 00 00 00 00 00 00 00 00 00 00 00 00 00
0000423b: 00 00 00 00 00 00 00 00 00 00 00 00 00 00 00 00
0000424b: 00 00 00 00 00 00 00 00 00 00 00 00 00 00 00 00
0000425b: 00 00 00 00 00 00 00 00 00 00 00 00 00 00 00 00
0000426b: 00 00 00 00 00 00 00 00 00 00 00 00 00 00 00 00
0000427b: 00 00 00 00 00 00 00 00 00 00 00 00 00 00 00 00
0000428b: 00 00 00 00 00 00 00 00 00 00 00 00 00 00 00 00
0000429b: 00 00 00 00 00 00 00 00 00 00 00 00 00 00 00 00
000042ab: 00 00 00 00 00 00 00 00 00 00 00 00 00 00 00 00
000042bb: 00 00 00 00 00 00 00 00 00 00 00 00 00 00 00 00
000042cb: 00 00 00 00 00 00 00 00 00 00 00 00 00 00 00 00
000042db: 00 00 00 00 00 00 00 00 00 00 00 00 00 00 00 00
000042eb: 00 00 00 00 00 00 00 00 00 00 00 00 00 00 00 00
000042fb: 00 00 00 00 00 00 00 00 00 00 00 00 00 00 00 00
0000430b: 00 00 00 00 00 00 00 00 00 00 00 00 00 00 00 00
0000431b: 00 00 00 00 00 00 00 00 00 00 00 00 00 00 00 00
0000432b: 00 00 00 00 00 00 00 00 00 00 00 00 00 00 00 00
0000433b: 00 00 00 00 00 00 00 00 00 00 00 00 00 00 00 00
0000434b: 00 00 00 00 00 00 00 00 00 00 00 00 00 00 00 00
0000435b: 00 00 00 00 00 00 00 00 00 00 00 00 00 00 00 00
0000436b: 00 00 00 00 00 00 00 00 00 00 00 00 00 00 00 00
0000437b: 00 00 00 00 00 00 00 00 00 00 00 00 00 00 00 00
0000438b: 00 00 00 00 00 00 00 00 00 00 00 00 00 00 00 00
0000439b: 00 00 00 00 00 00 00 00 00 00 00 00 00 00 00 00
000043ab: 00 00 00 00 00 00 00 00 00 00 00 00 00 00 00 00
000043bb: 00 00 00 00 00 00 00 00 00 00 00 00 00 00 00 00
000043cb: 00 00 00 00 00 00 00 00 00 00 00 00 00 00 00 00
000043db: 00 00 00 00 00 00 00 00 00 00 00 00 00 00 00 00
000043eb: 00 00 00 00 00 00 00 00 00 00 00 00 00 00 00 00
000043fb: 00 00 00 00 00 00 00 00 00 00 00 00 00 00 00 00
0000440b: 00 00 00 00 00 00 00 00 00 00 00 00 00 00 00 00
0000441b: 00 00 00 00 00 00 00 00 00 00 00 00 00 00 00 00
0000442b: 00 00 00 00 00 00 00 00 00 00 00 00 00 00 00 00
0000443b: 00 00 00 00 00 00 00 00 00 00 00 00 00 00 00 00
0000444b: 00 00 00 00 00 00 00 00 00 00 00 00 00 00 00 00
0000445b: 00 00 00 00 00 00 00 00 00 00 00 00 00 00 00 00
0000446b: 00 00 00 00 00 00 00 00 00 00 00 00 00 00 00 00
0000447b: 00 00 00 00 00 00 00 00 00 00 00 00 00 00 00 00
0000448b: 00 00 00 00 00 00 00 00 00 00 00 00 00 00 00 00
0000449b: 00 00 00 00 00 00 00 00 00 00 00 00 00 00 00 00
000044ab: 00 00 00 00 00 00 00 00 00 00 00 00 00 00 00 00
000044bb: 00 00 00 00 00 00 00 00 00 00 00 00 00 00 00 00
000044cb: 00 00 00 00 00 00 00 00 00 00 00 00 00 00 00 00
000044db: 00 00 00 00 00 00 00 00 00 00 00 00 00 00 00 00
000044eb: 00 00 00 00 00 00 00 00 00 00 00 00 00 00 00 00
000044fb: 00 00 00 00 00 00 00 00 00 00 00 00 00 00 00 00
0000450b: 00 00 00 00 00 00 00 00 00 00 00 00 00 00 00 00
0000451b: 00 00 00 00 00 00 00 00 00 00 00 00 00 00 00 00
0000452b: 00 00 00 00 00 00 00 00 00 00 00 00 00 00 00 00
0000453b: 00 00 00 00 00 00 00 00 00 00 00 00 00 00 00 00
0000454b: 00 00 00 00 00 00 00 00 00 00 00 00 00 00 00 00
0000455b: 00 00 00 00 00 00 00 00 00 00 00 00 00 00 00 00
0000456b: 00 00 00 00 00 00 00 00 00 00 00 00 00 00 00 00
0000457b: 00 00 00 00 00 00 00 00 00 00 00 00 00 00 00 00
0000458b: 00 00 00 00 00 00 00 00 00 00 00 00 00 00 00 00
0000459b: 00 00 00 00 00 00 00 00 00 00 00 00 00 00 00 00
000045ab: 00 00 00 00 00 00 00 00 00 00 00 00 00 00 00 00
000045bb: 00 00 00 00 00 00 00 00 00 00 00 00 00 00 00 00
000045cb: 00 00 00 00 00 00 00 00 00 00 00 00 00 00 00 00
000045db: 00 00 00 00 00 00 00 00 00 00 00 00 00 00 00 00
000045eb: 00 00 00 00 00 00 00 00 00 00 00 00 00 00 00 00
000045fb: 00 00 00 00 00 00 00 00 00 00 00 00 00 00 00 00
0000460b: 00 00 00 00 00 00 00 00 00 00 00 00 00 00 00 00
0000461b: 00 00 00 00 00 00 00 00 00 00 00 00 00 00 00 00
0000462b: 00 00 00 00 00 00 00 00 00 00 00 00 00 00 00 00
0000463b: 00 00 00 00 00 00 00 00 00 00 00 00 00 00 00 00
0000464b: 00 00 00 00 00 00 00 00 00 00 00 00 00 00 00 00
0000465b: 00 00 00 00 00 00 00 00 00 00 00 00 00 00 00 00
0000466b: 00 00 00 00 00 00 00 00 00 00 00 00 00 00 00 00
0000467b: 00 00 00 00 00 00 00 00 00 00 00 00 00 00 00 00
0000468b: 00 00 00 00 00 00 00 00 00 00 00 00 00 00 00 00
0000469b: 00 00 00 00 00 00 00 00 00 00 00 00 00 00 00 00
000046ab: 00 00 00 00 00 00 00 00 00 00 00 00 00 00 00 00
000046bb: 00 00 00 00 00 00 00 00 00 00 00 00 00 00 00 00
000046cb: 00 00 00 00 00 00 00 00 00 00 00 00 00 00 00 00
000046db: 00 00 00 00 00 00 00 00 00 00 00 00 00 00 00 00
000046eb: 00 00 00 00 00 00 00 00 00 00 00 00 00 00 00 00
000046fb: 00 00 00 00 00 00 00 00 00 00 00 00 00 00 00 00
0000470b: 00 00 00 00 00 00 00 00 00 00 00 00 00 00 00 00
0000471b: 00 00 00 00 00 00 00 00 00 00 00 00 00 00 00 00
0000472b: 00 00 00 00 00 00 00 00 00 00 00 00 00 00 00 00
0000473b: 00 00 00 00 00 00 00 00 00 00 00 00 00 00 00 00
0000474b: 00 00 00 00 00 00 00 00 00 00 00 00 00 00 00 00
0000475b: 00 00 00 00 00 00 00 00 00 00 00 00 00 00 00 00
0000476b: 00 00 00 00 00 00 00 00 00 00 00 00 00 00 00 00
0000477b: 00 00 00 00 00 00 00 00 00 00 00 00 00 00 00 00
0000478b: 00 00 00 00 00 00 00 00 00 00 00 00 00 00 00 00
0000479b: 00 00 00 00 00 00 00 00 00 00 00 00 00 00 00 00
000047ab: 00 00 00 00 00 00 00 00 00 00 00 00 00 00 00 00
000047bb: 00 00 00 00 00 00 00 00 00 00 00 00 00 00 00 00
000047cb: 00 00 00 00 00 00 00 00 00 00 00 00 00 00 00 00
000047db: 00 00 00 00 00 00 00 00 00 00 00 00 00 00 00 00
000047eb: 00 00 00 00 00 00 00 00 00 00 00 00 00 00 00 00
000047fb: 00 00 00 00 00 00 00 00 00 00 00 00 00 00 00 00
0000480b: 00 00 00 00 00 00 00 00 00 00 00 00 00 00 00 00
0000481b: 00 00 00 00 00 00 00 00 00 00 00 00 00 00 00 00
0000482b: 00 00 00 00 00 00 00 00 00 00 00 00 00 00 00 00
0000483b: 00 00 00 00 00 00 00 00 00 00 00 00 00 00 00 00
0000484b: 00 00 00 00 00 00 00 00 00 00 00 00 00 00 00 00
0000485b: 00 00 00 00 00 00 00 00 00 00 00 00 00 00 00 00
0000486b: 00 00 00 00 00 00 00 00 00 00 00 00 00 00 00 00
0000487b: 00 00 00 00 00 00 00 00 00 00 00 00 00 00 00 00
0000488b: 00 00 00 00 00 00 00 00 00 00 00 00 00 00 00 00
0000489b: 00 00 00 00 00 00 00 00 00 00 00 00 00 00 00 00
000048ab: 00 00 00 00 00 00 00 00 00 00 00 00 00 00 00 00
000048bb: 00 00 00 00 00 00 00 00 00 00 00 00 00 00 00 00
000048cb: 00 00 00 00 00 00 00 00 00 00 00 00 00 00 00 00
000048db: 00 00 00 00 00 00 00 00 00 00 00 00 00 00 00 00
000048eb: 00 00 00 00 00 00 00 00 00 00 00 00 00 00 00 00
000048fb: 00 00 00 00 00 00 00 00 00 00 00 00 00 00 00 00
0000490b: 00 00 00 00 00 00 00 00 00 00 00 00 00 00 00 00
0000491b: 00 00 00 00 00 00 00 00 00 00 00 00 00 00 00 00
0000492b: 00 00 00 00 00 00 00 00 00 00 00 00 00 00 00 00
0000493b: 00 00 00 00 00 00 00 00 00 00 00 00 00 00 00 00
0000494b: 00 00 00 00 00 00 00 00 00 00 00 00 00 00 00 00
0000495b: 00 00 00 00 00 00 00 00 00 00 00 00 00 00 00 00
0000496b: 00 00 00 00 00 00 00 00 00 00 00 00 00 00 00 00
0000497b: 00 00 00 00 00 00 00 00 00 00 00 00 00 00 00 00
0000498b: 00 00 00 00 00 00 00 00 00 00 00 00 00 00 00 00
0000499b: 00 00 00 00 00 00 00 00 00 00 00 00 00 00 00 00

