ARM GAS  C:\Users\ORA\AppData\Local\Temp\ccD4Qtzw.s 			page 1


   1              		.syntax unified
   2              		.cpu cortex-m0
   3              		.fpu softvfp
   4              		.eabi_attribute 20, 1
   5              		.eabi_attribute 21, 1
   6              		.eabi_attribute 23, 3
   7              		.eabi_attribute 24, 1
   8              		.eabi_attribute 25, 1
   9              		.eabi_attribute 26, 1
  10              		.eabi_attribute 30, 1
  11              		.eabi_attribute 34, 0
  12              		.eabi_attribute 18, 4
  13              		.thumb
  14              		.syntax unified
  15              		.file	"main.c"
  16              		.text
  17              	.Ltext0:
  18              		.cfi_sections	.debug_frame
  19              		.section	.text.main,"ax",%progbits
  20              		.align	2
  21              		.global	main
  22              		.code	16
  23              		.thumb_func
  24              		.type	main, %function
  25              	main:
  26              	.LFB35:
  27              		.file 1 "main.c"
   1:main.c        **** /* ========================================
   2:main.c        ****  *
   3:main.c        ****  * Copyright YOUR COMPANY, THE YEAR
   4:main.c        ****  * All Rights Reserved
   5:main.c        ****  * UNPUBLISHED, LICENSED SOFTWARE.
   6:main.c        ****  *
   7:main.c        ****  * CONFIDENTIAL AND PROPRIETARY INFORMATION
   8:main.c        ****  * WHICH IS THE PROPERTY OF your company.
   9:main.c        ****  *
  10:main.c        ****  * ========================================
  11:main.c        **** */
  12:main.c        **** #include "project.h"
  13:main.c        **** 
  14:main.c        **** 
  15:main.c        **** int main(void)
  16:main.c        **** {
  28              		.loc 1 16 0
  29              		.cfi_startproc
  30              		@ args = 0, pretend = 0, frame = 0
  31              		@ frame_needed = 0, uses_anonymous_args = 0
  32 0000 70B5     		push	{r4, r5, r6, lr}
  33              		.cfi_def_cfa_offset 16
  34              		.cfi_offset 4, -16
  35              		.cfi_offset 5, -12
  36              		.cfi_offset 6, -8
  37              		.cfi_offset 14, -4
  38              	.LVL0:
  17:main.c        ****     int status = 0 ;
  18:main.c        ****     int oldStatus = -1 ;
  19:main.c        ****     
ARM GAS  C:\Users\ORA\AppData\Local\Temp\ccD4Qtzw.s 			page 2


  20:main.c        ****     CyGlobalIntEnable; /* Enable global interrupts. */
  39              		.loc 1 20 0
  40              		.syntax divided
  41              	@ 20 "main.c" 1
  42 0002 62B6     		CPSIE   i
  43              	@ 0 "" 2
  21:main.c        ****     UART_Start();
  44              		.loc 1 21 0
  45              		.thumb
  46              		.syntax unified
  47 0004 FFF7FEFF 		bl	UART_Start
  48              	.LVL1:
  22:main.c        ****     UART_UartPutString("LED Status : \n");
  49              		.loc 1 22 0
  50 0008 0848     		ldr	r0, .L4
  51 000a FFF7FEFF 		bl	UART_UartPutString
  52              	.LVL2:
  18:main.c        ****     
  53              		.loc 1 18 0
  54 000e 0125     		movs	r5, #1
  55 0010 6D42     		rsbs	r5, r5, #0
  56              	.LVL3:
  57              	.L2:
  23:main.c        ****     for (;;){
  24:main.c        ****         status = Status_Read();
  58              		.loc 1 24 0
  59 0012 FFF7FEFF 		bl	Status_Read
  60              	.LVL4:
  61 0016 0400     		movs	r4, r0
  62              	.LVL5:
  25:main.c        ****         if (status != oldStatus){
  63              		.loc 1 25 0
  64 0018 8542     		cmp	r5, r0
  65 001a FAD0     		beq	.L2
  26:main.c        ****             UART_UartPutChar('0' + status);
  66              		.loc 1 26 0
  67 001c 3030     		adds	r0, r0, #48
  68              	.LVL6:
  69 001e FFF7FEFF 		bl	UART_SpiUartWriteTxData
  70              	.LVL7:
  27:main.c        ****             UART_UartPutChar('\r');
  71              		.loc 1 27 0
  72 0022 0D20     		movs	r0, #13
  73 0024 FFF7FEFF 		bl	UART_SpiUartWriteTxData
  74              	.LVL8:
  28:main.c        ****             oldStatus = status;
  75              		.loc 1 28 0
  76 0028 2500     		movs	r5, r4
  77 002a F2E7     		b	.L2
  78              	.L5:
  79              		.align	2
  80              	.L4:
  81 002c 00000000 		.word	.LC0
  82              		.cfi_endproc
  83              	.LFE35:
  84              		.size	main, .-main
  85              		.section	.rodata.str1.4,"aMS",%progbits,1
ARM GAS  C:\Users\ORA\AppData\Local\Temp\ccD4Qtzw.s 			page 3


  86              		.align	2
  87              	.LC0:
  88 0000 4C454420 		.ascii	"LED Status : \012\000"
  88      53746174 
  88      7573203A 
  88      200A00
  89              		.text
  90              	.Letext0:
  91              		.file 2 "Generated_Source\\PSoC4/UART.h"
  92              		.file 3 "Generated_Source\\PSoC4/UART_SPI_UART.h"
  93              		.file 4 "Generated_Source\\PSoC4/Status.h"
  94              		.file 5 "Generated_Source\\PSoC4/cytypes.h"
  95              		.section	.debug_info,"",%progbits
  96              	.Ldebug_info0:
  97 0000 49010000 		.4byte	0x149
  98 0004 0400     		.2byte	0x4
  99 0006 00000000 		.4byte	.Ldebug_abbrev0
 100 000a 04       		.byte	0x4
 101 000b 01       		.uleb128 0x1
 102 000c B0000000 		.4byte	.LASF20
 103 0010 0C       		.byte	0xc
 104 0011 22000000 		.4byte	.LASF21
 105 0015 74010000 		.4byte	.LASF22
 106 0019 00000000 		.4byte	.Ldebug_ranges0+0
 107 001d 00000000 		.4byte	0
 108 0021 00000000 		.4byte	.Ldebug_line0
 109 0025 02       		.uleb128 0x2
 110 0026 01       		.byte	0x1
 111 0027 06       		.byte	0x6
 112 0028 51010000 		.4byte	.LASF0
 113 002c 02       		.uleb128 0x2
 114 002d 01       		.byte	0x1
 115 002e 08       		.byte	0x8
 116 002f 7A000000 		.4byte	.LASF1
 117 0033 02       		.uleb128 0x2
 118 0034 02       		.byte	0x2
 119 0035 05       		.byte	0x5
 120 0036 9F000000 		.4byte	.LASF2
 121 003a 02       		.uleb128 0x2
 122 003b 02       		.byte	0x2
 123 003c 07       		.byte	0x7
 124 003d 3E010000 		.4byte	.LASF3
 125 0041 02       		.uleb128 0x2
 126 0042 04       		.byte	0x4
 127 0043 05       		.byte	0x5
 128 0044 8D000000 		.4byte	.LASF4
 129 0048 02       		.uleb128 0x2
 130 0049 04       		.byte	0x4
 131 004a 07       		.byte	0x7
 132 004b 3C000000 		.4byte	.LASF5
 133 004f 02       		.uleb128 0x2
 134 0050 08       		.byte	0x8
 135 0051 05       		.byte	0x5
 136 0052 00000000 		.4byte	.LASF6
 137 0056 02       		.uleb128 0x2
 138 0057 08       		.byte	0x8
 139 0058 07       		.byte	0x7
ARM GAS  C:\Users\ORA\AppData\Local\Temp\ccD4Qtzw.s 			page 4


 140 0059 4E000000 		.4byte	.LASF7
 141 005d 03       		.uleb128 0x3
 142 005e 04       		.byte	0x4
 143 005f 05       		.byte	0x5
 144 0060 696E7400 		.ascii	"int\000"
 145 0064 02       		.uleb128 0x2
 146 0065 04       		.byte	0x4
 147 0066 07       		.byte	0x7
 148 0067 15000000 		.4byte	.LASF8
 149 006b 04       		.uleb128 0x4
 150 006c 0E000000 		.4byte	.LASF23
 151 0070 05       		.byte	0x5
 152 0071 E801     		.2byte	0x1e8
 153 0073 48000000 		.4byte	0x48
 154 0077 02       		.uleb128 0x2
 155 0078 04       		.byte	0x4
 156 0079 04       		.byte	0x4
 157 007a 6E010000 		.4byte	.LASF9
 158 007e 02       		.uleb128 0x2
 159 007f 08       		.byte	0x8
 160 0080 04       		.byte	0x4
 161 0081 A9000000 		.4byte	.LASF10
 162 0085 02       		.uleb128 0x2
 163 0086 01       		.byte	0x1
 164 0087 08       		.byte	0x8
 165 0088 88000000 		.4byte	.LASF11
 166 008c 02       		.uleb128 0x2
 167 008d 08       		.byte	0x8
 168 008e 04       		.byte	0x4
 169 008f 5D010000 		.4byte	.LASF12
 170 0093 02       		.uleb128 0x2
 171 0094 04       		.byte	0x4
 172 0095 07       		.byte	0x7
 173 0096 96000000 		.4byte	.LASF13
 174 009a 05       		.uleb128 0x5
 175 009b 69010000 		.4byte	.LASF24
 176 009f 01       		.byte	0x1
 177 00a0 0F       		.byte	0xf
 178 00a1 5D000000 		.4byte	0x5d
 179 00a5 00000000 		.4byte	.LFB35
 180 00a9 30000000 		.4byte	.LFE35-.LFB35
 181 00ad 01       		.uleb128 0x1
 182 00ae 9C       		.byte	0x9c
 183 00af 1E010000 		.4byte	0x11e
 184 00b3 06       		.uleb128 0x6
 185 00b4 35000000 		.4byte	.LASF14
 186 00b8 01       		.byte	0x1
 187 00b9 11       		.byte	0x11
 188 00ba 5D000000 		.4byte	0x5d
 189 00be 00000000 		.4byte	.LLST0
 190 00c2 06       		.uleb128 0x6
 191 00c3 65000000 		.4byte	.LASF15
 192 00c7 01       		.byte	0x1
 193 00c8 12       		.byte	0x12
 194 00c9 5D000000 		.4byte	0x5d
 195 00cd 2A000000 		.4byte	.LLST1
 196 00d1 07       		.uleb128 0x7
ARM GAS  C:\Users\ORA\AppData\Local\Temp\ccD4Qtzw.s 			page 5


 197 00d2 08000000 		.4byte	.LVL1
 198 00d6 1E010000 		.4byte	0x11e
 199 00da 08       		.uleb128 0x8
 200 00db 0E000000 		.4byte	.LVL2
 201 00df 29010000 		.4byte	0x129
 202 00e3 F1000000 		.4byte	0xf1
 203 00e7 09       		.uleb128 0x9
 204 00e8 01       		.uleb128 0x1
 205 00e9 50       		.byte	0x50
 206 00ea 05       		.uleb128 0x5
 207 00eb 03       		.byte	0x3
 208 00ec 00000000 		.4byte	.LC0
 209 00f0 00       		.byte	0
 210 00f1 07       		.uleb128 0x7
 211 00f2 16000000 		.4byte	.LVL4
 212 00f6 35010000 		.4byte	0x135
 213 00fa 08       		.uleb128 0x8
 214 00fb 22000000 		.4byte	.LVL7
 215 00ff 40010000 		.4byte	0x140
 216 0103 0E010000 		.4byte	0x10e
 217 0107 09       		.uleb128 0x9
 218 0108 01       		.uleb128 0x1
 219 0109 50       		.byte	0x50
 220 010a 02       		.uleb128 0x2
 221 010b 74       		.byte	0x74
 222 010c 30       		.sleb128 48
 223 010d 00       		.byte	0
 224 010e 0A       		.uleb128 0xa
 225 010f 28000000 		.4byte	.LVL8
 226 0113 40010000 		.4byte	0x140
 227 0117 09       		.uleb128 0x9
 228 0118 01       		.uleb128 0x1
 229 0119 50       		.byte	0x50
 230 011a 01       		.uleb128 0x1
 231 011b 3D       		.byte	0x3d
 232 011c 00       		.byte	0
 233 011d 00       		.byte	0
 234 011e 0B       		.uleb128 0xb
 235 011f 6F000000 		.4byte	.LASF16
 236 0123 6F000000 		.4byte	.LASF16
 237 0127 02       		.byte	0x2
 238 0128 72       		.byte	0x72
 239 0129 0C       		.uleb128 0xc
 240 012a CE010000 		.4byte	.LASF17
 241 012e CE010000 		.4byte	.LASF17
 242 0132 03       		.byte	0x3
 243 0133 2A03     		.2byte	0x32a
 244 0135 0B       		.uleb128 0xb
 245 0136 29000000 		.4byte	.LASF18
 246 013a 29000000 		.4byte	.LASF18
 247 013e 04       		.byte	0x4
 248 013f 30       		.byte	0x30
 249 0140 0C       		.uleb128 0xc
 250 0141 E1010000 		.4byte	.LASF19
 251 0145 E1010000 		.4byte	.LASF19
 252 0149 03       		.byte	0x3
 253 014a 4403     		.2byte	0x344
ARM GAS  C:\Users\ORA\AppData\Local\Temp\ccD4Qtzw.s 			page 6


 254 014c 00       		.byte	0
 255              		.section	.debug_abbrev,"",%progbits
 256              	.Ldebug_abbrev0:
 257 0000 01       		.uleb128 0x1
 258 0001 11       		.uleb128 0x11
 259 0002 01       		.byte	0x1
 260 0003 25       		.uleb128 0x25
 261 0004 0E       		.uleb128 0xe
 262 0005 13       		.uleb128 0x13
 263 0006 0B       		.uleb128 0xb
 264 0007 03       		.uleb128 0x3
 265 0008 0E       		.uleb128 0xe
 266 0009 1B       		.uleb128 0x1b
 267 000a 0E       		.uleb128 0xe
 268 000b 55       		.uleb128 0x55
 269 000c 17       		.uleb128 0x17
 270 000d 11       		.uleb128 0x11
 271 000e 01       		.uleb128 0x1
 272 000f 10       		.uleb128 0x10
 273 0010 17       		.uleb128 0x17
 274 0011 00       		.byte	0
 275 0012 00       		.byte	0
 276 0013 02       		.uleb128 0x2
 277 0014 24       		.uleb128 0x24
 278 0015 00       		.byte	0
 279 0016 0B       		.uleb128 0xb
 280 0017 0B       		.uleb128 0xb
 281 0018 3E       		.uleb128 0x3e
 282 0019 0B       		.uleb128 0xb
 283 001a 03       		.uleb128 0x3
 284 001b 0E       		.uleb128 0xe
 285 001c 00       		.byte	0
 286 001d 00       		.byte	0
 287 001e 03       		.uleb128 0x3
 288 001f 24       		.uleb128 0x24
 289 0020 00       		.byte	0
 290 0021 0B       		.uleb128 0xb
 291 0022 0B       		.uleb128 0xb
 292 0023 3E       		.uleb128 0x3e
 293 0024 0B       		.uleb128 0xb
 294 0025 03       		.uleb128 0x3
 295 0026 08       		.uleb128 0x8
 296 0027 00       		.byte	0
 297 0028 00       		.byte	0
 298 0029 04       		.uleb128 0x4
 299 002a 16       		.uleb128 0x16
 300 002b 00       		.byte	0
 301 002c 03       		.uleb128 0x3
 302 002d 0E       		.uleb128 0xe
 303 002e 3A       		.uleb128 0x3a
 304 002f 0B       		.uleb128 0xb
 305 0030 3B       		.uleb128 0x3b
 306 0031 05       		.uleb128 0x5
 307 0032 49       		.uleb128 0x49
 308 0033 13       		.uleb128 0x13
 309 0034 00       		.byte	0
 310 0035 00       		.byte	0
ARM GAS  C:\Users\ORA\AppData\Local\Temp\ccD4Qtzw.s 			page 7


 311 0036 05       		.uleb128 0x5
 312 0037 2E       		.uleb128 0x2e
 313 0038 01       		.byte	0x1
 314 0039 3F       		.uleb128 0x3f
 315 003a 19       		.uleb128 0x19
 316 003b 03       		.uleb128 0x3
 317 003c 0E       		.uleb128 0xe
 318 003d 3A       		.uleb128 0x3a
 319 003e 0B       		.uleb128 0xb
 320 003f 3B       		.uleb128 0x3b
 321 0040 0B       		.uleb128 0xb
 322 0041 27       		.uleb128 0x27
 323 0042 19       		.uleb128 0x19
 324 0043 49       		.uleb128 0x49
 325 0044 13       		.uleb128 0x13
 326 0045 8701     		.uleb128 0x87
 327 0047 19       		.uleb128 0x19
 328 0048 11       		.uleb128 0x11
 329 0049 01       		.uleb128 0x1
 330 004a 12       		.uleb128 0x12
 331 004b 06       		.uleb128 0x6
 332 004c 40       		.uleb128 0x40
 333 004d 18       		.uleb128 0x18
 334 004e 9742     		.uleb128 0x2117
 335 0050 19       		.uleb128 0x19
 336 0051 01       		.uleb128 0x1
 337 0052 13       		.uleb128 0x13
 338 0053 00       		.byte	0
 339 0054 00       		.byte	0
 340 0055 06       		.uleb128 0x6
 341 0056 34       		.uleb128 0x34
 342 0057 00       		.byte	0
 343 0058 03       		.uleb128 0x3
 344 0059 0E       		.uleb128 0xe
 345 005a 3A       		.uleb128 0x3a
 346 005b 0B       		.uleb128 0xb
 347 005c 3B       		.uleb128 0x3b
 348 005d 0B       		.uleb128 0xb
 349 005e 49       		.uleb128 0x49
 350 005f 13       		.uleb128 0x13
 351 0060 02       		.uleb128 0x2
 352 0061 17       		.uleb128 0x17
 353 0062 00       		.byte	0
 354 0063 00       		.byte	0
 355 0064 07       		.uleb128 0x7
 356 0065 898201   		.uleb128 0x4109
 357 0068 00       		.byte	0
 358 0069 11       		.uleb128 0x11
 359 006a 01       		.uleb128 0x1
 360 006b 31       		.uleb128 0x31
 361 006c 13       		.uleb128 0x13
 362 006d 00       		.byte	0
 363 006e 00       		.byte	0
 364 006f 08       		.uleb128 0x8
 365 0070 898201   		.uleb128 0x4109
 366 0073 01       		.byte	0x1
 367 0074 11       		.uleb128 0x11
ARM GAS  C:\Users\ORA\AppData\Local\Temp\ccD4Qtzw.s 			page 8


 368 0075 01       		.uleb128 0x1
 369 0076 31       		.uleb128 0x31
 370 0077 13       		.uleb128 0x13
 371 0078 01       		.uleb128 0x1
 372 0079 13       		.uleb128 0x13
 373 007a 00       		.byte	0
 374 007b 00       		.byte	0
 375 007c 09       		.uleb128 0x9
 376 007d 8A8201   		.uleb128 0x410a
 377 0080 00       		.byte	0
 378 0081 02       		.uleb128 0x2
 379 0082 18       		.uleb128 0x18
 380 0083 9142     		.uleb128 0x2111
 381 0085 18       		.uleb128 0x18
 382 0086 00       		.byte	0
 383 0087 00       		.byte	0
 384 0088 0A       		.uleb128 0xa
 385 0089 898201   		.uleb128 0x4109
 386 008c 01       		.byte	0x1
 387 008d 11       		.uleb128 0x11
 388 008e 01       		.uleb128 0x1
 389 008f 31       		.uleb128 0x31
 390 0090 13       		.uleb128 0x13
 391 0091 00       		.byte	0
 392 0092 00       		.byte	0
 393 0093 0B       		.uleb128 0xb
 394 0094 2E       		.uleb128 0x2e
 395 0095 00       		.byte	0
 396 0096 3F       		.uleb128 0x3f
 397 0097 19       		.uleb128 0x19
 398 0098 3C       		.uleb128 0x3c
 399 0099 19       		.uleb128 0x19
 400 009a 6E       		.uleb128 0x6e
 401 009b 0E       		.uleb128 0xe
 402 009c 03       		.uleb128 0x3
 403 009d 0E       		.uleb128 0xe
 404 009e 3A       		.uleb128 0x3a
 405 009f 0B       		.uleb128 0xb
 406 00a0 3B       		.uleb128 0x3b
 407 00a1 0B       		.uleb128 0xb
 408 00a2 00       		.byte	0
 409 00a3 00       		.byte	0
 410 00a4 0C       		.uleb128 0xc
 411 00a5 2E       		.uleb128 0x2e
 412 00a6 00       		.byte	0
 413 00a7 3F       		.uleb128 0x3f
 414 00a8 19       		.uleb128 0x19
 415 00a9 3C       		.uleb128 0x3c
 416 00aa 19       		.uleb128 0x19
 417 00ab 6E       		.uleb128 0x6e
 418 00ac 0E       		.uleb128 0xe
 419 00ad 03       		.uleb128 0x3
 420 00ae 0E       		.uleb128 0xe
 421 00af 3A       		.uleb128 0x3a
 422 00b0 0B       		.uleb128 0xb
 423 00b1 3B       		.uleb128 0x3b
 424 00b2 05       		.uleb128 0x5
ARM GAS  C:\Users\ORA\AppData\Local\Temp\ccD4Qtzw.s 			page 9


 425 00b3 00       		.byte	0
 426 00b4 00       		.byte	0
 427 00b5 00       		.byte	0
 428              		.section	.debug_loc,"",%progbits
 429              	.Ldebug_loc0:
 430              	.LLST0:
 431 0000 02000000 		.4byte	.LVL0
 432 0004 12000000 		.4byte	.LVL3
 433 0008 0200     		.2byte	0x2
 434 000a 30       		.byte	0x30
 435 000b 9F       		.byte	0x9f
 436 000c 18000000 		.4byte	.LVL5
 437 0010 1E000000 		.4byte	.LVL6
 438 0014 0100     		.2byte	0x1
 439 0016 50       		.byte	0x50
 440 0017 1E000000 		.4byte	.LVL6
 441 001b 30000000 		.4byte	.LFE35
 442 001f 0100     		.2byte	0x1
 443 0021 54       		.byte	0x54
 444 0022 00000000 		.4byte	0
 445 0026 00000000 		.4byte	0
 446              	.LLST1:
 447 002a 02000000 		.4byte	.LVL0
 448 002e 12000000 		.4byte	.LVL3
 449 0032 0300     		.2byte	0x3
 450 0034 09       		.byte	0x9
 451 0035 FF       		.byte	0xff
 452 0036 9F       		.byte	0x9f
 453 0037 12000000 		.4byte	.LVL3
 454 003b 28000000 		.4byte	.LVL8
 455 003f 0100     		.2byte	0x1
 456 0041 55       		.byte	0x55
 457 0042 28000000 		.4byte	.LVL8
 458 0046 30000000 		.4byte	.LFE35
 459 004a 0100     		.2byte	0x1
 460 004c 54       		.byte	0x54
 461 004d 00000000 		.4byte	0
 462 0051 00000000 		.4byte	0
 463              		.section	.debug_aranges,"",%progbits
 464 0000 1C000000 		.4byte	0x1c
 465 0004 0200     		.2byte	0x2
 466 0006 00000000 		.4byte	.Ldebug_info0
 467 000a 04       		.byte	0x4
 468 000b 00       		.byte	0
 469 000c 0000     		.2byte	0
 470 000e 0000     		.2byte	0
 471 0010 00000000 		.4byte	.LFB35
 472 0014 30000000 		.4byte	.LFE35-.LFB35
 473 0018 00000000 		.4byte	0
 474 001c 00000000 		.4byte	0
 475              		.section	.debug_ranges,"",%progbits
 476              	.Ldebug_ranges0:
 477 0000 00000000 		.4byte	.LFB35
 478 0004 30000000 		.4byte	.LFE35
 479 0008 00000000 		.4byte	0
 480 000c 00000000 		.4byte	0
 481              		.section	.debug_line,"",%progbits
ARM GAS  C:\Users\ORA\AppData\Local\Temp\ccD4Qtzw.s 			page 10


 482              	.Ldebug_line0:
 483 0000 88000000 		.section	.debug_str,"MS",%progbits,1
 483      02006A00 
 483      00000201 
 483      FB0E0D00 
 483      01010101 
 484              	.LASF6:
 485 0000 6C6F6E67 		.ascii	"long long int\000"
 485      206C6F6E 
 485      6720696E 
 485      7400
 486              	.LASF23:
 487 000e 75696E74 		.ascii	"uint32\000"
 487      333200
 488              	.LASF8:
 489 0015 756E7369 		.ascii	"unsigned int\000"
 489      676E6564 
 489      20696E74 
 489      00
 490              	.LASF21:
 491 0022 6D61696E 		.ascii	"main.c\000"
 491      2E6300
 492              	.LASF18:
 493 0029 53746174 		.ascii	"Status_Read\000"
 493      75735F52 
 493      65616400 
 494              	.LASF14:
 495 0035 73746174 		.ascii	"status\000"
 495      757300
 496              	.LASF5:
 497 003c 6C6F6E67 		.ascii	"long unsigned int\000"
 497      20756E73 
 497      69676E65 
 497      6420696E 
 497      7400
 498              	.LASF7:
 499 004e 6C6F6E67 		.ascii	"long long unsigned int\000"
 499      206C6F6E 
 499      6720756E 
 499      7369676E 
 499      65642069 
 500              	.LASF15:
 501 0065 6F6C6453 		.ascii	"oldStatus\000"
 501      74617475 
 501      7300
 502              	.LASF16:
 503 006f 55415254 		.ascii	"UART_Start\000"
 503      5F537461 
 503      727400
 504              	.LASF1:
 505 007a 756E7369 		.ascii	"unsigned char\000"
 505      676E6564 
 505      20636861 
 505      7200
 506              	.LASF11:
 507 0088 63686172 		.ascii	"char\000"
 507      00
ARM GAS  C:\Users\ORA\AppData\Local\Temp\ccD4Qtzw.s 			page 11


 508              	.LASF4:
 509 008d 6C6F6E67 		.ascii	"long int\000"
 509      20696E74 
 509      00
 510              	.LASF13:
 511 0096 73697A65 		.ascii	"sizetype\000"
 511      74797065 
 511      00
 512              	.LASF2:
 513 009f 73686F72 		.ascii	"short int\000"
 513      7420696E 
 513      7400
 514              	.LASF10:
 515 00a9 646F7562 		.ascii	"double\000"
 515      6C6500
 516              	.LASF20:
 517 00b0 474E5520 		.ascii	"GNU C11 5.4.1 20160609 (release) [ARM/embedded-5-br"
 517      43313120 
 517      352E342E 
 517      31203230 
 517      31363036 
 518 00e3 616E6368 		.ascii	"anch revision 237715] -mcpu=cortex-m0 -mthumb -g -O"
 518      20726576 
 518      6973696F 
 518      6E203233 
 518      37373135 
 519 0116 67202D66 		.ascii	"g -ffunction-sections -ffat-lto-objects\000"
 519      66756E63 
 519      74696F6E 
 519      2D736563 
 519      74696F6E 
 520              	.LASF3:
 521 013e 73686F72 		.ascii	"short unsigned int\000"
 521      7420756E 
 521      7369676E 
 521      65642069 
 521      6E7400
 522              	.LASF0:
 523 0151 7369676E 		.ascii	"signed char\000"
 523      65642063 
 523      68617200 
 524              	.LASF12:
 525 015d 6C6F6E67 		.ascii	"long double\000"
 525      20646F75 
 525      626C6500 
 526              	.LASF24:
 527 0169 6D61696E 		.ascii	"main\000"
 527      00
 528              	.LASF9:
 529 016e 666C6F61 		.ascii	"float\000"
 529      7400
 530              	.LASF22:
 531 0174 433A5C55 		.ascii	"C:\\Users\\ORA\\OneDrive - PetNovations\\Cypress - "
 531      73657273 
 531      5C4F5241 
 531      5C4F6E65 
 531      44726976 
ARM GAS  C:\Users\ORA\AppData\Local\Temp\ccD4Qtzw.s 			page 12


 532 01a3 424C455C 		.ascii	"BLE\\Lessons\\Lesson13_Status_Register.cydsn\000"
 532      4C657373 
 532      6F6E735C 
 532      4C657373 
 532      6F6E3133 
 533              	.LASF17:
 534 01ce 55415254 		.ascii	"UART_UartPutString\000"
 534      5F556172 
 534      74507574 
 534      53747269 
 534      6E6700
 535              	.LASF19:
 536 01e1 55415254 		.ascii	"UART_SpiUartWriteTxData\000"
 536      5F537069 
 536      55617274 
 536      57726974 
 536      65547844 
 537              		.ident	"GCC: (GNU Tools for ARM Embedded Processors) 5.4.1 20160609 (release) [ARM/embedded-5-bran
