ARM GAS  C:\Users\ORA\AppData\Local\Temp\ccfmManb.s 			page 1


   1              		.syntax unified
   2              		.cpu cortex-m0
   3              		.fpu softvfp
   4              		.eabi_attribute 20, 1
   5              		.eabi_attribute 21, 1
   6              		.eabi_attribute 23, 3
   7              		.eabi_attribute 24, 1
   8              		.eabi_attribute 25, 1
   9              		.eabi_attribute 26, 1
  10              		.eabi_attribute 30, 1
  11              		.eabi_attribute 34, 0
  12              		.eabi_attribute 18, 4
  13              		.thumb
  14              		.syntax unified
  15              		.file	"cyfitter_cfg.c"
  16              		.text
  17              	.Ltext0:
  18              		.cfi_sections	.debug_frame
  19              		.section	.text.AnalogSetDefault,"ax",%progbits
  20              		.align	2
  21              		.code	16
  22              		.thumb_func
  23              		.type	AnalogSetDefault, %function
  24              	AnalogSetDefault:
  25              	.LFB6:
  26              		.file 1 "Generated_Source\\PSoC4\\cyfitter_cfg.c"
   1:Generated_Source\PSoC4/cyfitter_cfg.c **** 
   2:Generated_Source\PSoC4/cyfitter_cfg.c **** /*******************************************************************************
   3:Generated_Source\PSoC4/cyfitter_cfg.c **** * File Name: cyfitter_cfg.c
   4:Generated_Source\PSoC4/cyfitter_cfg.c **** * 
   5:Generated_Source\PSoC4/cyfitter_cfg.c **** * PSoC Creator  4.2
   6:Generated_Source\PSoC4/cyfitter_cfg.c **** *
   7:Generated_Source\PSoC4/cyfitter_cfg.c **** * Description:
   8:Generated_Source\PSoC4/cyfitter_cfg.c **** * This file contains device initialization code.
   9:Generated_Source\PSoC4/cyfitter_cfg.c **** * Except for the user defined sections in CyClockStartupError(), this file should not be modified.
  10:Generated_Source\PSoC4/cyfitter_cfg.c **** * This file is automatically generated by PSoC Creator.
  11:Generated_Source\PSoC4/cyfitter_cfg.c **** *
  12:Generated_Source\PSoC4/cyfitter_cfg.c **** ********************************************************************************
  13:Generated_Source\PSoC4/cyfitter_cfg.c **** * Copyright (c) 2007-2018 Cypress Semiconductor.  All rights reserved.
  14:Generated_Source\PSoC4/cyfitter_cfg.c **** * You may use this file only in accordance with the license, terms, conditions, 
  15:Generated_Source\PSoC4/cyfitter_cfg.c **** * disclaimers, and limitations in the end user license agreement accompanying 
  16:Generated_Source\PSoC4/cyfitter_cfg.c **** * the software package with which this file was provided.
  17:Generated_Source\PSoC4/cyfitter_cfg.c **** ********************************************************************************/
  18:Generated_Source\PSoC4/cyfitter_cfg.c **** 
  19:Generated_Source\PSoC4/cyfitter_cfg.c **** #include <string.h>
  20:Generated_Source\PSoC4/cyfitter_cfg.c **** #include "cytypes.h"
  21:Generated_Source\PSoC4/cyfitter_cfg.c **** #include "cydevice_trm.h"
  22:Generated_Source\PSoC4/cyfitter_cfg.c **** #include "cyfitter.h"
  23:Generated_Source\PSoC4/cyfitter_cfg.c **** #include "CyLib.h"
  24:Generated_Source\PSoC4/cyfitter_cfg.c **** #include "CyLFClk.h"
  25:Generated_Source\PSoC4/cyfitter_cfg.c **** #include "cyfitter_cfg.h"
  26:Generated_Source\PSoC4/cyfitter_cfg.c **** #include "cyapicallbacks.h"
  27:Generated_Source\PSoC4/cyfitter_cfg.c **** 
  28:Generated_Source\PSoC4/cyfitter_cfg.c **** 
  29:Generated_Source\PSoC4/cyfitter_cfg.c **** #if defined(__GNUC__) || defined(__ARMCC_VERSION)
  30:Generated_Source\PSoC4/cyfitter_cfg.c ****     #define CYPACKED 
  31:Generated_Source\PSoC4/cyfitter_cfg.c ****     #define CYPACKED_ATTR __attribute__ ((packed))
ARM GAS  C:\Users\ORA\AppData\Local\Temp\ccfmManb.s 			page 2


  32:Generated_Source\PSoC4/cyfitter_cfg.c ****     #define CYALIGNED __attribute__ ((aligned))
  33:Generated_Source\PSoC4/cyfitter_cfg.c ****     #define CY_CFG_UNUSED __attribute__ ((unused))
  34:Generated_Source\PSoC4/cyfitter_cfg.c ****     #ifndef CY_CFG_SECTION
  35:Generated_Source\PSoC4/cyfitter_cfg.c ****         #define CY_CFG_SECTION __attribute__ ((section(".psocinit")))
  36:Generated_Source\PSoC4/cyfitter_cfg.c ****     #endif
  37:Generated_Source\PSoC4/cyfitter_cfg.c ****     
  38:Generated_Source\PSoC4/cyfitter_cfg.c ****     #if defined(__ARMCC_VERSION)
  39:Generated_Source\PSoC4/cyfitter_cfg.c ****         #define CY_CFG_MEMORY_BARRIER() __memory_changed()
  40:Generated_Source\PSoC4/cyfitter_cfg.c ****     #else
  41:Generated_Source\PSoC4/cyfitter_cfg.c ****         #define CY_CFG_MEMORY_BARRIER() __sync_synchronize()
  42:Generated_Source\PSoC4/cyfitter_cfg.c ****     #endif
  43:Generated_Source\PSoC4/cyfitter_cfg.c ****     
  44:Generated_Source\PSoC4/cyfitter_cfg.c **** #elif defined(__ICCARM__)
  45:Generated_Source\PSoC4/cyfitter_cfg.c ****     #include <intrinsics.h>
  46:Generated_Source\PSoC4/cyfitter_cfg.c **** 
  47:Generated_Source\PSoC4/cyfitter_cfg.c ****     #define CYPACKED __packed
  48:Generated_Source\PSoC4/cyfitter_cfg.c ****     #define CYPACKED_ATTR 
  49:Generated_Source\PSoC4/cyfitter_cfg.c ****     #define CYALIGNED _Pragma("data_alignment=4")
  50:Generated_Source\PSoC4/cyfitter_cfg.c ****     #define CY_CFG_UNUSED _Pragma("diag_suppress=Pe177")
  51:Generated_Source\PSoC4/cyfitter_cfg.c ****     #define CY_CFG_SECTION _Pragma("location=\".psocinit\"")
  52:Generated_Source\PSoC4/cyfitter_cfg.c ****     
  53:Generated_Source\PSoC4/cyfitter_cfg.c ****     #define CY_CFG_MEMORY_BARRIER() __DMB()
  54:Generated_Source\PSoC4/cyfitter_cfg.c ****     
  55:Generated_Source\PSoC4/cyfitter_cfg.c **** #else
  56:Generated_Source\PSoC4/cyfitter_cfg.c ****     #error Unsupported toolchain
  57:Generated_Source\PSoC4/cyfitter_cfg.c **** #endif
  58:Generated_Source\PSoC4/cyfitter_cfg.c **** 
  59:Generated_Source\PSoC4/cyfitter_cfg.c **** #ifndef CYCODE
  60:Generated_Source\PSoC4/cyfitter_cfg.c ****     #define CYCODE
  61:Generated_Source\PSoC4/cyfitter_cfg.c **** #endif
  62:Generated_Source\PSoC4/cyfitter_cfg.c **** #ifndef CYDATA
  63:Generated_Source\PSoC4/cyfitter_cfg.c ****     #define CYDATA
  64:Generated_Source\PSoC4/cyfitter_cfg.c **** #endif
  65:Generated_Source\PSoC4/cyfitter_cfg.c **** #ifndef CYFAR
  66:Generated_Source\PSoC4/cyfitter_cfg.c ****     #define CYFAR
  67:Generated_Source\PSoC4/cyfitter_cfg.c **** #endif
  68:Generated_Source\PSoC4/cyfitter_cfg.c **** #ifndef CYXDATA
  69:Generated_Source\PSoC4/cyfitter_cfg.c ****     #define CYXDATA
  70:Generated_Source\PSoC4/cyfitter_cfg.c **** #endif
  71:Generated_Source\PSoC4/cyfitter_cfg.c **** 
  72:Generated_Source\PSoC4/cyfitter_cfg.c **** 
  73:Generated_Source\PSoC4/cyfitter_cfg.c **** CY_CFG_UNUSED
  74:Generated_Source\PSoC4/cyfitter_cfg.c **** static void CYMEMZERO(void *s, size_t n);
  75:Generated_Source\PSoC4/cyfitter_cfg.c **** CY_CFG_UNUSED
  76:Generated_Source\PSoC4/cyfitter_cfg.c **** static void CYMEMZERO(void *s, size_t n)
  77:Generated_Source\PSoC4/cyfitter_cfg.c **** {
  78:Generated_Source\PSoC4/cyfitter_cfg.c **** 	(void)memset(s, 0, n);
  79:Generated_Source\PSoC4/cyfitter_cfg.c **** }
  80:Generated_Source\PSoC4/cyfitter_cfg.c **** CY_CFG_UNUSED
  81:Generated_Source\PSoC4/cyfitter_cfg.c **** static void CYCONFIGCPY(void *dest, const void *src, size_t n);
  82:Generated_Source\PSoC4/cyfitter_cfg.c **** CY_CFG_UNUSED
  83:Generated_Source\PSoC4/cyfitter_cfg.c **** static void CYCONFIGCPY(void *dest, const void *src, size_t n)
  84:Generated_Source\PSoC4/cyfitter_cfg.c **** {
  85:Generated_Source\PSoC4/cyfitter_cfg.c **** 	(void)memcpy(dest, src, n);
  86:Generated_Source\PSoC4/cyfitter_cfg.c **** }
  87:Generated_Source\PSoC4/cyfitter_cfg.c **** CY_CFG_UNUSED
  88:Generated_Source\PSoC4/cyfitter_cfg.c **** static void CYCONFIGCPYCODE(void *dest, const void *src, size_t n);
ARM GAS  C:\Users\ORA\AppData\Local\Temp\ccfmManb.s 			page 3


  89:Generated_Source\PSoC4/cyfitter_cfg.c **** CY_CFG_UNUSED
  90:Generated_Source\PSoC4/cyfitter_cfg.c **** static void CYCONFIGCPYCODE(void *dest, const void *src, size_t n)
  91:Generated_Source\PSoC4/cyfitter_cfg.c **** {
  92:Generated_Source\PSoC4/cyfitter_cfg.c **** 	(void)memcpy(dest, src, n);
  93:Generated_Source\PSoC4/cyfitter_cfg.c **** }
  94:Generated_Source\PSoC4/cyfitter_cfg.c **** 
  95:Generated_Source\PSoC4/cyfitter_cfg.c **** 
  96:Generated_Source\PSoC4/cyfitter_cfg.c **** 
  97:Generated_Source\PSoC4/cyfitter_cfg.c **** 
  98:Generated_Source\PSoC4/cyfitter_cfg.c **** /* Clock startup error codes                                                   */
  99:Generated_Source\PSoC4/cyfitter_cfg.c **** #define CYCLOCKSTART_NO_ERROR    0u
 100:Generated_Source\PSoC4/cyfitter_cfg.c **** #define CYCLOCKSTART_XTAL_ERROR  1u
 101:Generated_Source\PSoC4/cyfitter_cfg.c **** #define CYCLOCKSTART_32KHZ_ERROR 2u
 102:Generated_Source\PSoC4/cyfitter_cfg.c **** #define CYCLOCKSTART_PLL_ERROR   3u
 103:Generated_Source\PSoC4/cyfitter_cfg.c **** #define CYCLOCKSTART_FLL_ERROR   4u
 104:Generated_Source\PSoC4/cyfitter_cfg.c **** #define CYCLOCKSTART_WCO_ERROR   5u
 105:Generated_Source\PSoC4/cyfitter_cfg.c **** 
 106:Generated_Source\PSoC4/cyfitter_cfg.c **** 
 107:Generated_Source\PSoC4/cyfitter_cfg.c **** #ifdef CY_NEED_CYCLOCKSTARTUPERROR
 108:Generated_Source\PSoC4/cyfitter_cfg.c **** /*******************************************************************************
 109:Generated_Source\PSoC4/cyfitter_cfg.c **** * Function Name: CyClockStartupError
 110:Generated_Source\PSoC4/cyfitter_cfg.c **** ********************************************************************************
 111:Generated_Source\PSoC4/cyfitter_cfg.c **** * Summary:
 112:Generated_Source\PSoC4/cyfitter_cfg.c **** *  If an error is encountered during clock configuration (crystal startup error,
 113:Generated_Source\PSoC4/cyfitter_cfg.c **** *  PLL lock error, etc.), the system will end up here.  Unless reimplemented by
 114:Generated_Source\PSoC4/cyfitter_cfg.c **** *  the customer, this function will stop in an infinite loop.
 115:Generated_Source\PSoC4/cyfitter_cfg.c **** *
 116:Generated_Source\PSoC4/cyfitter_cfg.c **** * Parameters:
 117:Generated_Source\PSoC4/cyfitter_cfg.c **** *   void
 118:Generated_Source\PSoC4/cyfitter_cfg.c **** *
 119:Generated_Source\PSoC4/cyfitter_cfg.c **** * Return:
 120:Generated_Source\PSoC4/cyfitter_cfg.c **** *   void
 121:Generated_Source\PSoC4/cyfitter_cfg.c **** *
 122:Generated_Source\PSoC4/cyfitter_cfg.c **** *******************************************************************************/
 123:Generated_Source\PSoC4/cyfitter_cfg.c **** CY_CFG_UNUSED
 124:Generated_Source\PSoC4/cyfitter_cfg.c **** static void CyClockStartupError(uint8 errorCode);
 125:Generated_Source\PSoC4/cyfitter_cfg.c **** CY_CFG_UNUSED
 126:Generated_Source\PSoC4/cyfitter_cfg.c **** static void CyClockStartupError(uint8 errorCode)
 127:Generated_Source\PSoC4/cyfitter_cfg.c **** {
 128:Generated_Source\PSoC4/cyfitter_cfg.c ****     /* To remove the compiler warning if errorCode not used.                */
 129:Generated_Source\PSoC4/cyfitter_cfg.c ****     errorCode = errorCode;
 130:Generated_Source\PSoC4/cyfitter_cfg.c **** 
 131:Generated_Source\PSoC4/cyfitter_cfg.c ****     /* If we have a clock startup error (bad MHz crystal, PLL lock, etc.),  */
 132:Generated_Source\PSoC4/cyfitter_cfg.c ****     /* we will end up here to allow the customer to implement something to  */
 133:Generated_Source\PSoC4/cyfitter_cfg.c ****     /* deal with the clock condition.                                       */
 134:Generated_Source\PSoC4/cyfitter_cfg.c **** 
 135:Generated_Source\PSoC4/cyfitter_cfg.c **** #ifdef CY_CFG_CLOCK_STARTUP_ERROR_CALLBACK
 136:Generated_Source\PSoC4/cyfitter_cfg.c ****     CY_CFG_Clock_Startup_ErrorCallback();
 137:Generated_Source\PSoC4/cyfitter_cfg.c **** #else
 138:Generated_Source\PSoC4/cyfitter_cfg.c ****     /*  If not using CY_CFG_CLOCK_STARTUP_ERROR_CALLBACK, place your clock startup code here. */
 139:Generated_Source\PSoC4/cyfitter_cfg.c ****     /* `#START CyClockStartupError` */
 140:Generated_Source\PSoC4/cyfitter_cfg.c **** 
 141:Generated_Source\PSoC4/cyfitter_cfg.c **** 
 142:Generated_Source\PSoC4/cyfitter_cfg.c **** 
 143:Generated_Source\PSoC4/cyfitter_cfg.c ****     /* `#END` */
 144:Generated_Source\PSoC4/cyfitter_cfg.c **** 
 145:Generated_Source\PSoC4/cyfitter_cfg.c ****     while(1) {}
ARM GAS  C:\Users\ORA\AppData\Local\Temp\ccfmManb.s 			page 4


 146:Generated_Source\PSoC4/cyfitter_cfg.c **** #endif /* CY_CFG_CLOCK_STARTUP_ERROR_CALLBACK */
 147:Generated_Source\PSoC4/cyfitter_cfg.c **** }
 148:Generated_Source\PSoC4/cyfitter_cfg.c **** #endif
 149:Generated_Source\PSoC4/cyfitter_cfg.c **** 
 150:Generated_Source\PSoC4/cyfitter_cfg.c **** 
 151:Generated_Source\PSoC4/cyfitter_cfg.c **** 
 152:Generated_Source\PSoC4/cyfitter_cfg.c **** /*******************************************************************************
 153:Generated_Source\PSoC4/cyfitter_cfg.c **** * Function Name: ClockSetup
 154:Generated_Source\PSoC4/cyfitter_cfg.c **** ********************************************************************************
 155:Generated_Source\PSoC4/cyfitter_cfg.c **** *
 156:Generated_Source\PSoC4/cyfitter_cfg.c **** * Summary:
 157:Generated_Source\PSoC4/cyfitter_cfg.c **** *   Performs the initialization of all of the clocks in the device based on the
 158:Generated_Source\PSoC4/cyfitter_cfg.c **** *   settings in the Clock tab of the DWR.  This includes enabling the requested
 159:Generated_Source\PSoC4/cyfitter_cfg.c **** *   clocks and setting the necessary dividers to produce the desired frequency. 
 160:Generated_Source\PSoC4/cyfitter_cfg.c **** *
 161:Generated_Source\PSoC4/cyfitter_cfg.c **** * Parameters:
 162:Generated_Source\PSoC4/cyfitter_cfg.c **** *   void
 163:Generated_Source\PSoC4/cyfitter_cfg.c **** *
 164:Generated_Source\PSoC4/cyfitter_cfg.c **** * Return:
 165:Generated_Source\PSoC4/cyfitter_cfg.c **** *   void
 166:Generated_Source\PSoC4/cyfitter_cfg.c **** *
 167:Generated_Source\PSoC4/cyfitter_cfg.c **** *******************************************************************************/
 168:Generated_Source\PSoC4/cyfitter_cfg.c **** static void ClockSetup(void);
 169:Generated_Source\PSoC4/cyfitter_cfg.c **** CY_CFG_SECTION
 170:Generated_Source\PSoC4/cyfitter_cfg.c **** static void ClockSetup(void)
 171:Generated_Source\PSoC4/cyfitter_cfg.c **** {
 172:Generated_Source\PSoC4/cyfitter_cfg.c **** 
 173:Generated_Source\PSoC4/cyfitter_cfg.c **** 	/* Set Flash Cycles based on max possible frequency in case a glitch occurs during ClockSetup(). *
 174:Generated_Source\PSoC4/cyfitter_cfg.c **** 	CY_SET_REG32((void CYXDATA *)(CYREG_CPUSS_FLASH_CTL), (0x0012u));
 175:Generated_Source\PSoC4/cyfitter_cfg.c **** 
 176:Generated_Source\PSoC4/cyfitter_cfg.c **** 	/* Start the WCO */
 177:Generated_Source\PSoC4/cyfitter_cfg.c **** 	CySysClkWcoStart();
 178:Generated_Source\PSoC4/cyfitter_cfg.c **** 	CyDelayCycles(12000000u); /* WCO may take up to 500ms to start */
 179:Generated_Source\PSoC4/cyfitter_cfg.c **** 	(void)CySysClkWcoSetPowerMode(CY_SYS_CLK_WCO_LPM);    /* Switch to the low power mode */
 180:Generated_Source\PSoC4/cyfitter_cfg.c **** 
 181:Generated_Source\PSoC4/cyfitter_cfg.c **** 	/* Setup and trim IMO based on desired frequency. */
 182:Generated_Source\PSoC4/cyfitter_cfg.c **** 	CySysClkWriteImoFreq(48u);
 183:Generated_Source\PSoC4/cyfitter_cfg.c **** 	/* CYDEV_CLK_ILO_CONFIG Starting address: CYDEV_CLK_ILO_CONFIG */
 184:Generated_Source\PSoC4/cyfitter_cfg.c **** 	CY_SET_REG32((void *)(CYREG_CLK_ILO_CONFIG), 0x80000006u);
 185:Generated_Source\PSoC4/cyfitter_cfg.c **** 
 186:Generated_Source\PSoC4/cyfitter_cfg.c **** 	/* CYDEV_WDT_CONFIG Starting address: CYDEV_WDT_CONFIG */
 187:Generated_Source\PSoC4/cyfitter_cfg.c **** 	CY_SET_REG32((void *)(CYREG_WDT_CONFIG), 0x40000000u);
 188:Generated_Source\PSoC4/cyfitter_cfg.c **** 
 189:Generated_Source\PSoC4/cyfitter_cfg.c **** 
 190:Generated_Source\PSoC4/cyfitter_cfg.c **** 	/* Enable fast start mode for XO */
 191:Generated_Source\PSoC4/cyfitter_cfg.c **** 	CY_SET_REG32((void*)CYREG_BLE_BLERD_BB_XO, CY_GET_REG32((void*)CYREG_BLE_BLERD_BB_XO) | (uint32)0x
 192:Generated_Source\PSoC4/cyfitter_cfg.c **** 	CY_SET_REG32((void *)(CYREG_BLE_BLERD_BB_XO_CAPTRIM), 0x00003E2Du);
 193:Generated_Source\PSoC4/cyfitter_cfg.c **** 	/*Set XTAL(ECO) divider*/
 194:Generated_Source\PSoC4/cyfitter_cfg.c **** 	CY_SET_REG32((void *)(CYREG_BLE_BLESS_XTAL_CLK_DIV_CONFIG), 0x00000000u);
 195:Generated_Source\PSoC4/cyfitter_cfg.c **** 	/* Disable Crystal Stable Interrupt before enabling ECO */
 196:Generated_Source\PSoC4/cyfitter_cfg.c **** 	CY_SET_REG32((void*)CYREG_BLE_BLESS_LL_DSM_CTRL, CY_GET_REG32((void*)CYREG_BLE_BLESS_LL_DSM_CTRL) 
 197:Generated_Source\PSoC4/cyfitter_cfg.c **** 	/* Start the ECO and do not check status since it is not needed for HFCLK */
 198:Generated_Source\PSoC4/cyfitter_cfg.c **** 	(void)CySysClkEcoStart(2000u);
 199:Generated_Source\PSoC4/cyfitter_cfg.c **** 	CyDelayUs(1500u); /* Wait to stabilize */
 200:Generated_Source\PSoC4/cyfitter_cfg.c **** 
 201:Generated_Source\PSoC4/cyfitter_cfg.c **** 	/* Setup phase aligned clocks */
 202:Generated_Source\PSoC4/cyfitter_cfg.c **** 
ARM GAS  C:\Users\ORA\AppData\Local\Temp\ccfmManb.s 			page 5


 203:Generated_Source\PSoC4/cyfitter_cfg.c **** 	/* CYDEV_CLK_IMO_CONFIG Starting address: CYDEV_CLK_IMO_CONFIG */
 204:Generated_Source\PSoC4/cyfitter_cfg.c **** 	CY_SET_REG32((void *)(CYREG_CLK_IMO_CONFIG), 0x80000000u);
 205:Generated_Source\PSoC4/cyfitter_cfg.c **** 
 206:Generated_Source\PSoC4/cyfitter_cfg.c **** 	/* CYDEV_CLK_SELECT Starting address: CYDEV_CLK_SELECT */
 207:Generated_Source\PSoC4/cyfitter_cfg.c **** 	CY_SET_REG32((void *)(CYREG_CLK_SELECT), 0x00040000u);
 208:Generated_Source\PSoC4/cyfitter_cfg.c **** 
 209:Generated_Source\PSoC4/cyfitter_cfg.c **** 	(void)CyIntSetVector(8u, &CySysWdtIsr);
 210:Generated_Source\PSoC4/cyfitter_cfg.c **** 	CyIntEnable(8u);
 211:Generated_Source\PSoC4/cyfitter_cfg.c **** 	CY_SET_REG32((void *)(CYREG_WDT_CONFIG), 0x40000000u);
 212:Generated_Source\PSoC4/cyfitter_cfg.c **** }
 213:Generated_Source\PSoC4/cyfitter_cfg.c **** 
 214:Generated_Source\PSoC4/cyfitter_cfg.c **** 
 215:Generated_Source\PSoC4/cyfitter_cfg.c **** /* Analog API Functions */
 216:Generated_Source\PSoC4/cyfitter_cfg.c **** 
 217:Generated_Source\PSoC4/cyfitter_cfg.c **** 
 218:Generated_Source\PSoC4/cyfitter_cfg.c **** /*******************************************************************************
 219:Generated_Source\PSoC4/cyfitter_cfg.c **** * Function Name: AnalogSetDefault
 220:Generated_Source\PSoC4/cyfitter_cfg.c **** ********************************************************************************
 221:Generated_Source\PSoC4/cyfitter_cfg.c **** *
 222:Generated_Source\PSoC4/cyfitter_cfg.c **** * Summary:
 223:Generated_Source\PSoC4/cyfitter_cfg.c **** *  Sets up the analog portions of the chip to default values based on chip
 224:Generated_Source\PSoC4/cyfitter_cfg.c **** *  configuration options from the project.
 225:Generated_Source\PSoC4/cyfitter_cfg.c **** *
 226:Generated_Source\PSoC4/cyfitter_cfg.c **** * Parameters:
 227:Generated_Source\PSoC4/cyfitter_cfg.c **** *  void
 228:Generated_Source\PSoC4/cyfitter_cfg.c **** *
 229:Generated_Source\PSoC4/cyfitter_cfg.c **** * Return:
 230:Generated_Source\PSoC4/cyfitter_cfg.c **** *  void
 231:Generated_Source\PSoC4/cyfitter_cfg.c **** *
 232:Generated_Source\PSoC4/cyfitter_cfg.c **** *******************************************************************************/
 233:Generated_Source\PSoC4/cyfitter_cfg.c **** static void AnalogSetDefault(void);
 234:Generated_Source\PSoC4/cyfitter_cfg.c **** static void AnalogSetDefault(void)
 235:Generated_Source\PSoC4/cyfitter_cfg.c **** {
  27              		.loc 1 235 0
  28              		.cfi_startproc
  29              		@ args = 0, pretend = 0, frame = 0
  30              		@ frame_needed = 0, uses_anonymous_args = 0
  31              		@ link register save eliminated.
 236:Generated_Source\PSoC4/cyfitter_cfg.c **** 	CY_SET_XTND_REG32((void CYFAR *)CYREG_CTBM0_DFT_CTRL, 0x00000003u);
  32              		.loc 1 236 0
  33 0000 0323     		movs	r3, #3
  34 0002 044A     		ldr	r2, .L2
  35 0004 1360     		str	r3, [r2]
 237:Generated_Source\PSoC4/cyfitter_cfg.c **** 	CY_SET_XTND_REG32((void CYFAR *)CYREG_CTBM1_DFT_CTRL, 0x00000003u);
  36              		.loc 1 237 0
  37 0006 044A     		ldr	r2, .L2+4
  38 0008 1360     		str	r3, [r2]
 238:Generated_Source\PSoC4/cyfitter_cfg.c **** 	CY_SET_XTND_REG32((void CYFAR *)CYREG_PASS_DSAB_DSAB_CTRL, 0x00000000u);
  39              		.loc 1 238 0
  40 000a 0022     		movs	r2, #0
  41 000c 034B     		ldr	r3, .L2+8
  42 000e 1A60     		str	r2, [r3]
 239:Generated_Source\PSoC4/cyfitter_cfg.c **** }
  43              		.loc 1 239 0
  44              		@ sp needed
  45 0010 7047     		bx	lr
  46              	.L3:
ARM GAS  C:\Users\ORA\AppData\Local\Temp\ccfmManb.s 			page 6


  47 0012 C046     		.align	2
  48              	.L2:
  49 0014 30003040 		.word	1076887600
  50 0018 30003140 		.word	1076953136
  51 001c 000E3F40 		.word	1077874176
  52              		.cfi_endproc
  53              	.LFE6:
  54              		.size	AnalogSetDefault, .-AnalogSetDefault
  55              		.section	.text.CYMEMZERO,"ax",%progbits
  56              		.align	2
  57              		.code	16
  58              		.thumb_func
  59              		.type	CYMEMZERO, %function
  60              	CYMEMZERO:
  61              	.LFB2:
  77:Generated_Source\PSoC4/cyfitter_cfg.c **** 	(void)memset(s, 0, n);
  62              		.loc 1 77 0
  63              		.cfi_startproc
  64              		@ args = 0, pretend = 0, frame = 0
  65              		@ frame_needed = 0, uses_anonymous_args = 0
  66              	.LVL0:
  67 0000 10B5     		push	{r4, lr}
  68              		.cfi_def_cfa_offset 8
  69              		.cfi_offset 4, -8
  70              		.cfi_offset 14, -4
  71 0002 0A00     		movs	r2, r1
  78:Generated_Source\PSoC4/cyfitter_cfg.c **** }
  72              		.loc 1 78 0
  73 0004 0021     		movs	r1, #0
  74              	.LVL1:
  75 0006 FFF7FEFF 		bl	memset
  76              	.LVL2:
  79:Generated_Source\PSoC4/cyfitter_cfg.c **** CY_CFG_UNUSED
  77              		.loc 1 79 0
  78              		@ sp needed
  79 000a 10BD     		pop	{r4, pc}
  80              		.cfi_endproc
  81              	.LFE2:
  82              		.size	CYMEMZERO, .-CYMEMZERO
  83              		.section	.psocinit,"ax",%progbits
  84              		.align	2
  85              		.code	16
  86              		.thumb_func
  87              		.type	ClockSetup, %function
  88              	ClockSetup:
  89              	.LFB5:
 171:Generated_Source\PSoC4/cyfitter_cfg.c **** 
  90              		.loc 1 171 0
  91              		.cfi_startproc
  92              		@ args = 0, pretend = 0, frame = 0
  93              		@ frame_needed = 0, uses_anonymous_args = 0
  94 0000 70B5     		push	{r4, r5, r6, lr}
  95              		.cfi_def_cfa_offset 16
  96              		.cfi_offset 4, -16
  97              		.cfi_offset 5, -12
  98              		.cfi_offset 6, -8
  99              		.cfi_offset 14, -4
ARM GAS  C:\Users\ORA\AppData\Local\Temp\ccfmManb.s 			page 7


 174:Generated_Source\PSoC4/cyfitter_cfg.c **** 
 100              		.loc 1 174 0
 101 0002 1222     		movs	r2, #18
 102 0004 1D4B     		ldr	r3, .L6
 103 0006 1A60     		str	r2, [r3]
 177:Generated_Source\PSoC4/cyfitter_cfg.c **** 	CyDelayCycles(12000000u); /* WCO may take up to 500ms to start */
 104              		.loc 1 177 0
 105 0008 FFF7FEFF 		bl	CySysClkWcoStart
 106              	.LVL3:
 178:Generated_Source\PSoC4/cyfitter_cfg.c **** 	(void)CySysClkWcoSetPowerMode(CY_SYS_CLK_WCO_LPM);    /* Switch to the low power mode */
 107              		.loc 1 178 0
 108 000c 1C48     		ldr	r0, .L6+4
 109 000e FFF7FEFF 		bl	CyDelayCycles
 110              	.LVL4:
 179:Generated_Source\PSoC4/cyfitter_cfg.c **** 
 111              		.loc 1 179 0
 112 0012 0120     		movs	r0, #1
 113 0014 FFF7FEFF 		bl	CySysClkWcoSetPowerMode
 114              	.LVL5:
 182:Generated_Source\PSoC4/cyfitter_cfg.c **** 	/* CYDEV_CLK_ILO_CONFIG Starting address: CYDEV_CLK_ILO_CONFIG */
 115              		.loc 1 182 0
 116 0018 3020     		movs	r0, #48
 117 001a FFF7FEFF 		bl	CySysClkWriteImoFreq
 118              	.LVL6:
 184:Generated_Source\PSoC4/cyfitter_cfg.c **** 
 119              		.loc 1 184 0
 120 001e 194A     		ldr	r2, .L6+8
 121 0020 194B     		ldr	r3, .L6+12
 122 0022 1A60     		str	r2, [r3]
 187:Generated_Source\PSoC4/cyfitter_cfg.c **** 
 123              		.loc 1 187 0
 124 0024 194C     		ldr	r4, .L6+16
 125 0026 8025     		movs	r5, #128
 126 0028 ED05     		lsls	r5, r5, #23
 127 002a 2560     		str	r5, [r4]
 191:Generated_Source\PSoC4/cyfitter_cfg.c **** 	CY_SET_REG32((void *)(CYREG_BLE_BLERD_BB_XO_CAPTRIM), 0x00003E2Du);
 128              		.loc 1 191 0
 129 002c 184A     		ldr	r2, .L6+20
 130 002e 1168     		ldr	r1, [r2]
 131 0030 0223     		movs	r3, #2
 132 0032 0B43     		orrs	r3, r1
 133 0034 1360     		str	r3, [r2]
 192:Generated_Source\PSoC4/cyfitter_cfg.c **** 	/*Set XTAL(ECO) divider*/
 134              		.loc 1 192 0
 135 0036 174A     		ldr	r2, .L6+24
 136 0038 174B     		ldr	r3, .L6+28
 137 003a 1A60     		str	r2, [r3]
 194:Generated_Source\PSoC4/cyfitter_cfg.c **** 	/* Disable Crystal Stable Interrupt before enabling ECO */
 138              		.loc 1 194 0
 139 003c 0022     		movs	r2, #0
 140 003e 174B     		ldr	r3, .L6+32
 141 0040 1A60     		str	r2, [r3]
 196:Generated_Source\PSoC4/cyfitter_cfg.c **** 	/* Start the ECO and do not check status since it is not needed for HFCLK */
 142              		.loc 1 196 0
 143 0042 174A     		ldr	r2, .L6+36
 144 0044 1368     		ldr	r3, [r2]
 145 0046 0821     		movs	r1, #8
ARM GAS  C:\Users\ORA\AppData\Local\Temp\ccfmManb.s 			page 8


 146 0048 8B43     		bics	r3, r1
 147 004a 1360     		str	r3, [r2]
 198:Generated_Source\PSoC4/cyfitter_cfg.c **** 	CyDelayUs(1500u); /* Wait to stabilize */
 148              		.loc 1 198 0
 149 004c FA20     		movs	r0, #250
 150 004e C000     		lsls	r0, r0, #3
 151 0050 FFF7FEFF 		bl	CySysClkEcoStart
 152              	.LVL7:
 199:Generated_Source\PSoC4/cyfitter_cfg.c **** 
 153              		.loc 1 199 0
 154 0054 1348     		ldr	r0, .L6+40
 155 0056 FFF7FEFF 		bl	CyDelayUs
 156              	.LVL8:
 204:Generated_Source\PSoC4/cyfitter_cfg.c **** 
 157              		.loc 1 204 0
 158 005a 8022     		movs	r2, #128
 159 005c 1206     		lsls	r2, r2, #24
 160 005e 124B     		ldr	r3, .L6+44
 161 0060 1A60     		str	r2, [r3]
 207:Generated_Source\PSoC4/cyfitter_cfg.c **** 
 162              		.loc 1 207 0
 163 0062 8022     		movs	r2, #128
 164 0064 D202     		lsls	r2, r2, #11
 165 0066 114B     		ldr	r3, .L6+48
 166 0068 1A60     		str	r2, [r3]
 209:Generated_Source\PSoC4/cyfitter_cfg.c **** 	CyIntEnable(8u);
 167              		.loc 1 209 0
 168 006a 1149     		ldr	r1, .L6+52
 169 006c 0820     		movs	r0, #8
 170 006e FFF7FEFF 		bl	CyIntSetVector
 171              	.LVL9:
 210:Generated_Source\PSoC4/cyfitter_cfg.c **** 	CY_SET_REG32((void *)(CYREG_WDT_CONFIG), 0x40000000u);
 172              		.loc 1 210 0
 173 0072 0820     		movs	r0, #8
 174 0074 FFF7FEFF 		bl	CyIntEnable
 175              	.LVL10:
 211:Generated_Source\PSoC4/cyfitter_cfg.c **** }
 176              		.loc 1 211 0
 177 0078 2560     		str	r5, [r4]
 212:Generated_Source\PSoC4/cyfitter_cfg.c **** 
 178              		.loc 1 212 0
 179              		@ sp needed
 180 007a 70BD     		pop	{r4, r5, r6, pc}
 181              	.L7:
 182              		.align	2
 183              	.L6:
 184 007c 30001040 		.word	1074790448
 185 0080 001BB700 		.word	12000000
 186 0084 06000080 		.word	-2147483642
 187 0088 04010B40 		.word	1074462980
 188 008c 0C020B40 		.word	1074463244
 189 0090 78002E40 		.word	1076756600
 190 0094 2D3E0000 		.word	15917
 191 0098 7C002E40 		.word	1076756604
 192 009c 64F02E40 		.word	1076818020
 193 00a0 6CF02E40 		.word	1076818028
 194 00a4 DC050000 		.word	1500
ARM GAS  C:\Users\ORA\AppData\Local\Temp\ccfmManb.s 			page 9


 195 00a8 08010B40 		.word	1074462984
 196 00ac 00010B40 		.word	1074462976
 197 00b0 00000000 		.word	CySysWdtIsr
 198              		.cfi_endproc
 199              	.LFE5:
 200              		.size	ClockSetup, .-ClockSetup
 201              		.align	2
 202              		.global	cyfitter_cfg
 203              		.code	16
 204              		.thumb_func
 205              		.type	cyfitter_cfg, %function
 206              	cyfitter_cfg:
 207              	.LFB7:
 240:Generated_Source\PSoC4/cyfitter_cfg.c **** 
 241:Generated_Source\PSoC4/cyfitter_cfg.c **** 
 242:Generated_Source\PSoC4/cyfitter_cfg.c **** 
 243:Generated_Source\PSoC4/cyfitter_cfg.c **** 
 244:Generated_Source\PSoC4/cyfitter_cfg.c **** /*******************************************************************************
 245:Generated_Source\PSoC4/cyfitter_cfg.c **** * Function Name: cyfitter_cfg
 246:Generated_Source\PSoC4/cyfitter_cfg.c **** ********************************************************************************
 247:Generated_Source\PSoC4/cyfitter_cfg.c **** * Summary:
 248:Generated_Source\PSoC4/cyfitter_cfg.c **** *  This function is called by the start-up code for the selected device. It
 249:Generated_Source\PSoC4/cyfitter_cfg.c **** *  performs all of the necessary device configuration based on the design
 250:Generated_Source\PSoC4/cyfitter_cfg.c **** *  settings.  This includes settings from the Design Wide Resources (DWR) such
 251:Generated_Source\PSoC4/cyfitter_cfg.c **** *  as Clocks and Pins as well as any component configuration that is necessary.
 252:Generated_Source\PSoC4/cyfitter_cfg.c **** *
 253:Generated_Source\PSoC4/cyfitter_cfg.c **** * Parameters:
 254:Generated_Source\PSoC4/cyfitter_cfg.c **** *   void
 255:Generated_Source\PSoC4/cyfitter_cfg.c **** *
 256:Generated_Source\PSoC4/cyfitter_cfg.c **** * Return:
 257:Generated_Source\PSoC4/cyfitter_cfg.c **** *   void
 258:Generated_Source\PSoC4/cyfitter_cfg.c **** *
 259:Generated_Source\PSoC4/cyfitter_cfg.c **** *******************************************************************************/
 260:Generated_Source\PSoC4/cyfitter_cfg.c **** CY_CFG_SECTION
 261:Generated_Source\PSoC4/cyfitter_cfg.c **** void cyfitter_cfg(void)
 262:Generated_Source\PSoC4/cyfitter_cfg.c **** {
 208              		.loc 1 262 0
 209              		.cfi_startproc
 210              		@ args = 0, pretend = 0, frame = 0
 211              		@ frame_needed = 0, uses_anonymous_args = 0
 212 00b4 10B5     		push	{r4, lr}
 213              		.cfi_def_cfa_offset 8
 214              		.cfi_offset 4, -8
 215              		.cfi_offset 14, -4
 263:Generated_Source\PSoC4/cyfitter_cfg.c **** 	/* Disable interrupts by default. Let user enable if/when they want. */
 264:Generated_Source\PSoC4/cyfitter_cfg.c **** 	CyGlobalIntDisable;
 216              		.loc 1 264 0
 217              		.syntax divided
 218              	@ 264 "Generated_Source\PSoC4\cyfitter_cfg.c" 1
 219 00b6 72B6     		CPSID   i
 220              	@ 0 "" 2
 265:Generated_Source\PSoC4/cyfitter_cfg.c **** 
 266:Generated_Source\PSoC4/cyfitter_cfg.c **** 	CY_SET_REG32((void *)(CYREG_BLE_BLESS_LL_DSM_CTRL), 0x00000000u);
 221              		.loc 1 266 0
 222              		.thumb
 223              		.syntax unified
 224 00b8 0022     		movs	r2, #0
ARM GAS  C:\Users\ORA\AppData\Local\Temp\ccfmManb.s 			page 10


 225 00ba 1E4B     		ldr	r3, .L11
 226 00bc 1A60     		str	r2, [r3]
 227              	.LVL11:
 228              	.LBB2:
 267:Generated_Source\PSoC4/cyfitter_cfg.c **** 
 268:Generated_Source\PSoC4/cyfitter_cfg.c **** 	{
 269:Generated_Source\PSoC4/cyfitter_cfg.c **** 
 270:Generated_Source\PSoC4/cyfitter_cfg.c **** 		CYPACKED typedef struct {
 271:Generated_Source\PSoC4/cyfitter_cfg.c **** 			void CYFAR *address;
 272:Generated_Source\PSoC4/cyfitter_cfg.c **** 			uint16 size;
 273:Generated_Source\PSoC4/cyfitter_cfg.c **** 		} CYPACKED_ATTR cfg_memset_t;
 274:Generated_Source\PSoC4/cyfitter_cfg.c **** 
 275:Generated_Source\PSoC4/cyfitter_cfg.c **** 		static const cfg_memset_t CYCODE cfg_memset_list[] = {
 276:Generated_Source\PSoC4/cyfitter_cfg.c **** 			/* address, size */
 277:Generated_Source\PSoC4/cyfitter_cfg.c **** 			{(void CYFAR *)(CYDEV_UDB_P0_U0_BASE), 1024u},
 278:Generated_Source\PSoC4/cyfitter_cfg.c **** 			{(void CYFAR *)(CYDEV_UDB_DSI0_BASE), 1024u},
 279:Generated_Source\PSoC4/cyfitter_cfg.c **** 		};
 280:Generated_Source\PSoC4/cyfitter_cfg.c **** 
 281:Generated_Source\PSoC4/cyfitter_cfg.c **** 		uint8 CYDATA i;
 282:Generated_Source\PSoC4/cyfitter_cfg.c **** 
 283:Generated_Source\PSoC4/cyfitter_cfg.c **** 		/* Zero out critical memory blocks before beginning configuration */
 284:Generated_Source\PSoC4/cyfitter_cfg.c **** 		for (i = 0u; i < (sizeof(cfg_memset_list)/sizeof(cfg_memset_list[0])); i++)
 229              		.loc 1 284 0
 230 00be 0024     		movs	r4, #0
 231 00c0 0FE0     		b	.L9
 232              	.LVL12:
 233              	.L10:
 234              	.LBB3:
 285:Generated_Source\PSoC4/cyfitter_cfg.c **** 		{
 286:Generated_Source\PSoC4/cyfitter_cfg.c **** 			const cfg_memset_t CYCODE * CYDATA ms = &cfg_memset_list[i];
 287:Generated_Source\PSoC4/cyfitter_cfg.c **** 			CYMEMZERO(ms->address, (size_t)(uint32)(ms->size));
 235              		.loc 1 287 0 discriminator 3
 236 00c2 1D48     		ldr	r0, .L11+4
 237 00c4 6200     		lsls	r2, r4, #1
 238 00c6 1319     		adds	r3, r2, r4
 239 00c8 5900     		lsls	r1, r3, #1
 240 00ca 0B00     		movs	r3, r1
 241 00cc 4118     		adds	r1, r0, r1
 242 00ce 8988     		ldrh	r1, [r1, #4]
 243 00d0 1A5A     		ldrh	r2, [r3, r0]
 244 00d2 C318     		adds	r3, r0, r3
 245 00d4 5888     		ldrh	r0, [r3, #2]
 246 00d6 0004     		lsls	r0, r0, #16
 247 00d8 1043     		orrs	r0, r2
 248 00da FFF7FEFF 		bl	CYMEMZERO
 249              	.LVL13:
 250              	.LBE3:
 284:Generated_Source\PSoC4/cyfitter_cfg.c **** 		{
 251              		.loc 1 284 0 discriminator 3
 252 00de 0134     		adds	r4, r4, #1
 253              	.LVL14:
 254 00e0 E4B2     		uxtb	r4, r4
 255              	.LVL15:
 256              	.L9:
 284:Generated_Source\PSoC4/cyfitter_cfg.c **** 		{
 257              		.loc 1 284 0 is_stmt 0 discriminator 1
 258 00e2 012C     		cmp	r4, #1
ARM GAS  C:\Users\ORA\AppData\Local\Temp\ccfmManb.s 			page 11


 259 00e4 EDD9     		bls	.L10
 288:Generated_Source\PSoC4/cyfitter_cfg.c **** 		}
 289:Generated_Source\PSoC4/cyfitter_cfg.c **** 
 290:Generated_Source\PSoC4/cyfitter_cfg.c **** 		/* HSIOM Starting address: CYDEV_HSIOM_BASE */
 291:Generated_Source\PSoC4/cyfitter_cfg.c **** 		CY_SET_REG32((void *)(CYDEV_HSIOM_BASE), 0xEE000000u);
 260              		.loc 1 291 0 is_stmt 1
 261 00e6 EE22     		movs	r2, #238
 262 00e8 1206     		lsls	r2, r2, #24
 263 00ea 144B     		ldr	r3, .L11+8
 264 00ec 1A60     		str	r2, [r3]
 292:Generated_Source\PSoC4/cyfitter_cfg.c **** 
 293:Generated_Source\PSoC4/cyfitter_cfg.c **** 		/* UDB_PA_0 Starting address: CYDEV_UDB_PA0_BASE */
 294:Generated_Source\PSoC4/cyfitter_cfg.c **** 		CY_SET_REG32((void *)(CYDEV_UDB_PA0_BASE), 0x00990000u);
 265              		.loc 1 294 0
 266 00ee 9923     		movs	r3, #153
 267 00f0 1B04     		lsls	r3, r3, #16
 268 00f2 134A     		ldr	r2, .L11+12
 269 00f4 1360     		str	r3, [r2]
 295:Generated_Source\PSoC4/cyfitter_cfg.c **** 
 296:Generated_Source\PSoC4/cyfitter_cfg.c **** 		/* UDB_PA_2 Starting address: CYDEV_UDB_PA2_BASE */
 297:Generated_Source\PSoC4/cyfitter_cfg.c **** 		CY_SET_REG32((void *)(CYDEV_UDB_PA2_BASE), 0x00990000u);
 270              		.loc 1 297 0
 271 00f6 134A     		ldr	r2, .L11+16
 272 00f8 1360     		str	r3, [r2]
 298:Generated_Source\PSoC4/cyfitter_cfg.c **** 
 299:Generated_Source\PSoC4/cyfitter_cfg.c **** 		/* UDB_PA_3 Starting address: CYDEV_UDB_PA3_BASE */
 300:Generated_Source\PSoC4/cyfitter_cfg.c **** 		CY_SET_REG32((void *)(CYDEV_UDB_PA3_BASE), 0x00990000u);
 273              		.loc 1 300 0
 274 00fa 134A     		ldr	r2, .L11+20
 275 00fc 1360     		str	r3, [r2]
 301:Generated_Source\PSoC4/cyfitter_cfg.c **** 
 302:Generated_Source\PSoC4/cyfitter_cfg.c **** 		/* Enable digital routing */
 303:Generated_Source\PSoC4/cyfitter_cfg.c **** 		CY_SET_XTND_REG8((void *)CYREG_UDB_UDBIF_BANK_CTL, (uint8)(CY_GET_XTND_REG8((void *)CYREG_UDB_UDB
 276              		.loc 1 303 0
 277 00fe 134A     		ldr	r2, .L11+24
 278 0100 1178     		ldrb	r1, [r2]
 279 0102 0623     		movs	r3, #6
 280 0104 0B43     		orrs	r3, r1
 281 0106 DBB2     		uxtb	r3, r3
 282 0108 1370     		strb	r3, [r2]
 283              	.LBE2:
 304:Generated_Source\PSoC4/cyfitter_cfg.c **** 	}
 305:Generated_Source\PSoC4/cyfitter_cfg.c **** 
 306:Generated_Source\PSoC4/cyfitter_cfg.c **** 	/* Perform second pass device configuration. These items must be configured in specific order afte
 307:Generated_Source\PSoC4/cyfitter_cfg.c **** 	/* IOPINS0_0 Starting address: CYDEV_GPIO_PRT0_BASE */
 308:Generated_Source\PSoC4/cyfitter_cfg.c **** 	CY_SET_REG32((void *)(CYREG_GPIO_PRT0_PC), 0x00D80000u);
 284              		.loc 1 308 0
 285 010a D823     		movs	r3, #216
 286 010c 1B04     		lsls	r3, r3, #16
 287 010e 104A     		ldr	r2, .L11+28
 288 0110 1360     		str	r3, [r2]
 309:Generated_Source\PSoC4/cyfitter_cfg.c **** 
 310:Generated_Source\PSoC4/cyfitter_cfg.c **** 	/* IOPINS0_2 Starting address: CYDEV_GPIO_PRT2_BASE */
 311:Generated_Source\PSoC4/cyfitter_cfg.c **** 	CY_SET_REG32((void *)(CYDEV_GPIO_PRT2_BASE), 0x00000040u);
 289              		.loc 1 311 0
 290 0112 4021     		movs	r1, #64
 291 0114 0F4A     		ldr	r2, .L11+32
ARM GAS  C:\Users\ORA\AppData\Local\Temp\ccfmManb.s 			page 12


 292 0116 1160     		str	r1, [r2]
 312:Generated_Source\PSoC4/cyfitter_cfg.c **** 	CY_SET_REG32((void *)(CYREG_GPIO_PRT2_PC), 0x00180000u);
 293              		.loc 1 312 0
 294 0118 C021     		movs	r1, #192
 295 011a 4903     		lsls	r1, r1, #13
 296 011c 0E4A     		ldr	r2, .L11+36
 297 011e 1160     		str	r1, [r2]
 313:Generated_Source\PSoC4/cyfitter_cfg.c **** 
 314:Generated_Source\PSoC4/cyfitter_cfg.c **** 	/* IOPINS0_3 Starting address: CYDEV_GPIO_PRT3_BASE */
 315:Generated_Source\PSoC4/cyfitter_cfg.c **** 	CY_SET_REG32((void *)(CYDEV_GPIO_PRT3_BASE), 0x000000C0u);
 298              		.loc 1 315 0
 299 0120 C021     		movs	r1, #192
 300 0122 0E4A     		ldr	r2, .L11+40
 301 0124 1160     		str	r1, [r2]
 316:Generated_Source\PSoC4/cyfitter_cfg.c **** 	CY_SET_REG32((void *)(CYREG_GPIO_PRT3_PC), 0x00D80000u);
 302              		.loc 1 316 0
 303 0126 0E4A     		ldr	r2, .L11+44
 304 0128 1360     		str	r3, [r2]
 317:Generated_Source\PSoC4/cyfitter_cfg.c **** 
 318:Generated_Source\PSoC4/cyfitter_cfg.c **** 
 319:Generated_Source\PSoC4/cyfitter_cfg.c **** 	/* Setup clocks based on selections from Clock DWR */
 320:Generated_Source\PSoC4/cyfitter_cfg.c **** 	ClockSetup();
 305              		.loc 1 320 0
 306 012a FFF769FF 		bl	ClockSetup
 307              	.LVL16:
 321:Generated_Source\PSoC4/cyfitter_cfg.c **** 
 322:Generated_Source\PSoC4/cyfitter_cfg.c **** 	/* Perform basic analog initialization to defaults */
 323:Generated_Source\PSoC4/cyfitter_cfg.c **** 	AnalogSetDefault();
 308              		.loc 1 323 0
 309 012e FFF7FEFF 		bl	AnalogSetDefault
 310              	.LVL17:
 324:Generated_Source\PSoC4/cyfitter_cfg.c **** 
 325:Generated_Source\PSoC4/cyfitter_cfg.c **** }
 311              		.loc 1 325 0
 312              		@ sp needed
 313              	.LVL18:
 314 0132 10BD     		pop	{r4, pc}
 315              	.L12:
 316              		.align	2
 317              	.L11:
 318 0134 6CF02E40 		.word	1076818028
 319 0138 00000000 		.word	.LANCHOR0
 320 013c 00000240 		.word	1073872896
 321 0140 00500F40 		.word	1074745344
 322 0144 20500F40 		.word	1074745376
 323 0148 30500F40 		.word	1074745392
 324 014c 00700F40 		.word	1074753536
 325 0150 08000440 		.word	1074003976
 326 0154 00020440 		.word	1074004480
 327 0158 08020440 		.word	1074004488
 328 015c 00030440 		.word	1074004736
 329 0160 08030440 		.word	1074004744
 330              		.cfi_endproc
 331              	.LFE7:
 332              		.size	cyfitter_cfg, .-cyfitter_cfg
 333              		.section	.rodata
 334              		.align	2
ARM GAS  C:\Users\ORA\AppData\Local\Temp\ccfmManb.s 			page 13


 335              		.set	.LANCHOR0,. + 0
 336              		.type	cfg_memset_list.4893, %object
 337              		.size	cfg_memset_list.4893, 12
 338              	cfg_memset_list.4893:
 339 0000 00300F40 		.word	1074737152
 340 0004 0004     		.short	1024
 341 0006 00400F40 		.4byte	1074741248
 342 000a 0004     		.short	1024
 343              		.text
 344              	.Letext0:
 345              		.file 2 "c:\\program files (x86)\\cypress\\psoc creator\\4.2\\psoc creator\\import\\gnu\\arm\\5.4.
 346              		.file 3 "Generated_Source\\PSoC4\\cytypes.h"
 347              		.file 4 "Generated_Source\\PSoC4\\CyLFClk.h"
 348              		.file 5 "Generated_Source\\PSoC4\\CyLib.h"
 349              		.section	.debug_info,"",%progbits
 350              	.Ldebug_info0:
 351 0000 29030000 		.4byte	0x329
 352 0004 0400     		.2byte	0x4
 353 0006 00000000 		.4byte	.Ldebug_abbrev0
 354 000a 04       		.byte	0x4
 355 000b 01       		.uleb128 0x1
 356 000c 33010000 		.4byte	.LASF34
 357 0010 0C       		.byte	0xc
 358 0011 9A020000 		.4byte	.LASF35
 359 0015 24020000 		.4byte	.LASF36
 360 0019 00000000 		.4byte	.Ldebug_ranges0+0
 361 001d 00000000 		.4byte	0
 362 0021 00000000 		.4byte	.Ldebug_line0
 363 0025 02       		.uleb128 0x2
 364 0026 04       		.byte	0x4
 365 0027 05       		.byte	0x5
 366 0028 696E7400 		.ascii	"int\000"
 367 002c 03       		.uleb128 0x3
 368 002d 14000000 		.4byte	.LASF12
 369 0031 02       		.byte	0x2
 370 0032 D8       		.byte	0xd8
 371 0033 37000000 		.4byte	0x37
 372 0037 04       		.uleb128 0x4
 373 0038 04       		.byte	0x4
 374 0039 07       		.byte	0x7
 375 003a FA000000 		.4byte	.LASF0
 376 003e 04       		.uleb128 0x4
 377 003f 08       		.byte	0x8
 378 0040 05       		.byte	0x5
 379 0041 D7010000 		.4byte	.LASF1
 380 0045 04       		.uleb128 0x4
 381 0046 08       		.byte	0x8
 382 0047 04       		.byte	0x4
 383 0048 82020000 		.4byte	.LASF2
 384 004c 04       		.uleb128 0x4
 385 004d 01       		.byte	0x1
 386 004e 06       		.byte	0x6
 387 004f 8E020000 		.4byte	.LASF3
 388 0053 04       		.uleb128 0x4
 389 0054 01       		.byte	0x1
 390 0055 08       		.byte	0x8
 391 0056 C4000000 		.4byte	.LASF4
ARM GAS  C:\Users\ORA\AppData\Local\Temp\ccfmManb.s 			page 14


 392 005a 04       		.uleb128 0x4
 393 005b 02       		.byte	0x2
 394 005c 05       		.byte	0x5
 395 005d 05020000 		.4byte	.LASF5
 396 0061 04       		.uleb128 0x4
 397 0062 02       		.byte	0x2
 398 0063 07       		.byte	0x7
 399 0064 56000000 		.4byte	.LASF6
 400 0068 04       		.uleb128 0x4
 401 0069 04       		.byte	0x4
 402 006a 05       		.byte	0x5
 403 006b 79020000 		.4byte	.LASF7
 404 006f 04       		.uleb128 0x4
 405 0070 04       		.byte	0x4
 406 0071 07       		.byte	0x7
 407 0072 91000000 		.4byte	.LASF8
 408 0076 04       		.uleb128 0x4
 409 0077 08       		.byte	0x8
 410 0078 07       		.byte	0x7
 411 0079 1C010000 		.4byte	.LASF9
 412 007d 04       		.uleb128 0x4
 413 007e 04       		.byte	0x4
 414 007f 07       		.byte	0x7
 415 0080 CE010000 		.4byte	.LASF10
 416 0084 05       		.uleb128 0x5
 417 0085 04       		.byte	0x4
 418 0086 04       		.uleb128 0x4
 419 0087 01       		.byte	0x1
 420 0088 08       		.byte	0x8
 421 0089 EF010000 		.4byte	.LASF11
 422 008d 06       		.uleb128 0x6
 423 008e A3000000 		.4byte	.LASF13
 424 0092 03       		.byte	0x3
 425 0093 E601     		.2byte	0x1e6
 426 0095 53000000 		.4byte	0x53
 427 0099 06       		.uleb128 0x6
 428 009a EC000000 		.4byte	.LASF14
 429 009e 03       		.byte	0x3
 430 009f E701     		.2byte	0x1e7
 431 00a1 61000000 		.4byte	0x61
 432 00a5 06       		.uleb128 0x6
 433 00a6 F3000000 		.4byte	.LASF15
 434 00aa 03       		.byte	0x3
 435 00ab E801     		.2byte	0x1e8
 436 00ad 6F000000 		.4byte	0x6f
 437 00b1 04       		.uleb128 0x4
 438 00b2 04       		.byte	0x4
 439 00b3 04       		.byte	0x4
 440 00b4 69000000 		.4byte	.LASF16
 441 00b8 04       		.uleb128 0x4
 442 00b9 08       		.byte	0x8
 443 00ba 04       		.byte	0x4
 444 00bb D9000000 		.4byte	.LASF17
 445 00bf 06       		.uleb128 0x6
 446 00c0 8C000000 		.4byte	.LASF18
 447 00c4 03       		.byte	0x3
 448 00c5 9002     		.2byte	0x290
ARM GAS  C:\Users\ORA\AppData\Local\Temp\ccfmManb.s 			page 15


 449 00c7 CB000000 		.4byte	0xcb
 450 00cb 07       		.uleb128 0x7
 451 00cc 8D000000 		.4byte	0x8d
 452 00d0 06       		.uleb128 0x6
 453 00d1 0E000000 		.4byte	.LASF19
 454 00d5 03       		.byte	0x3
 455 00d6 9202     		.2byte	0x292
 456 00d8 DC000000 		.4byte	0xdc
 457 00dc 07       		.uleb128 0x7
 458 00dd A5000000 		.4byte	0xa5
 459 00e1 08       		.uleb128 0x8
 460 00e2 1B000000 		.4byte	.LASF37
 461 00e6 01       		.byte	0x1
 462 00e7 EA       		.byte	0xea
 463 00e8 00000000 		.4byte	.LFB6
 464 00ec 20000000 		.4byte	.LFE6-.LFB6
 465 00f0 01       		.uleb128 0x1
 466 00f1 9C       		.byte	0x9c
 467 00f2 09       		.uleb128 0x9
 468 00f3 BA000000 		.4byte	.LASF20
 469 00f7 01       		.byte	0x1
 470 00f8 4C       		.byte	0x4c
 471 00f9 00000000 		.4byte	.LFB2
 472 00fd 0C000000 		.4byte	.LFE2-.LFB2
 473 0101 01       		.uleb128 0x1
 474 0102 9C       		.byte	0x9c
 475 0103 3F010000 		.4byte	0x13f
 476 0107 0A       		.uleb128 0xa
 477 0108 7300     		.ascii	"s\000"
 478 010a 01       		.byte	0x1
 479 010b 4C       		.byte	0x4c
 480 010c 84000000 		.4byte	0x84
 481 0110 00000000 		.4byte	.LLST0
 482 0114 0A       		.uleb128 0xa
 483 0115 6E00     		.ascii	"n\000"
 484 0117 01       		.byte	0x1
 485 0118 4C       		.byte	0x4c
 486 0119 2C000000 		.4byte	0x2c
 487 011d 21000000 		.4byte	.LLST1
 488 0121 0B       		.uleb128 0xb
 489 0122 0A000000 		.4byte	.LVL2
 490 0126 CB020000 		.4byte	0x2cb
 491 012a 0C       		.uleb128 0xc
 492 012b 01       		.uleb128 0x1
 493 012c 50       		.byte	0x50
 494 012d 03       		.uleb128 0x3
 495 012e F3       		.byte	0xf3
 496 012f 01       		.uleb128 0x1
 497 0130 50       		.byte	0x50
 498 0131 0C       		.uleb128 0xc
 499 0132 01       		.uleb128 0x1
 500 0133 51       		.byte	0x51
 501 0134 01       		.uleb128 0x1
 502 0135 30       		.byte	0x30
 503 0136 0C       		.uleb128 0xc
 504 0137 01       		.uleb128 0x1
 505 0138 52       		.byte	0x52
ARM GAS  C:\Users\ORA\AppData\Local\Temp\ccfmManb.s 			page 16


 506 0139 03       		.uleb128 0x3
 507 013a F3       		.byte	0xf3
 508 013b 01       		.uleb128 0x1
 509 013c 51       		.byte	0x51
 510 013d 00       		.byte	0
 511 013e 00       		.byte	0
 512 013f 09       		.uleb128 0x9
 513 0140 4B000000 		.4byte	.LASF21
 514 0144 01       		.byte	0x1
 515 0145 AA       		.byte	0xaa
 516 0146 00000000 		.4byte	.LFB5
 517 014a B4000000 		.4byte	.LFE5-.LFB5
 518 014e 01       		.uleb128 0x1
 519 014f 9C       		.byte	0x9c
 520 0150 E8010000 		.4byte	0x1e8
 521 0154 0D       		.uleb128 0xd
 522 0155 0C000000 		.4byte	.LVL3
 523 0159 D4020000 		.4byte	0x2d4
 524 015d 0E       		.uleb128 0xe
 525 015e 12000000 		.4byte	.LVL4
 526 0162 DF020000 		.4byte	0x2df
 527 0166 74010000 		.4byte	0x174
 528 016a 0C       		.uleb128 0xc
 529 016b 01       		.uleb128 0x1
 530 016c 50       		.byte	0x50
 531 016d 05       		.uleb128 0x5
 532 016e 0C       		.byte	0xc
 533 016f 001BB700 		.4byte	0xb71b00
 534 0173 00       		.byte	0
 535 0174 0E       		.uleb128 0xe
 536 0175 18000000 		.4byte	.LVL5
 537 0179 EA020000 		.4byte	0x2ea
 538 017d 87010000 		.4byte	0x187
 539 0181 0C       		.uleb128 0xc
 540 0182 01       		.uleb128 0x1
 541 0183 50       		.byte	0x50
 542 0184 01       		.uleb128 0x1
 543 0185 31       		.byte	0x31
 544 0186 00       		.byte	0
 545 0187 0E       		.uleb128 0xe
 546 0188 1E000000 		.4byte	.LVL6
 547 018c F5020000 		.4byte	0x2f5
 548 0190 9B010000 		.4byte	0x19b
 549 0194 0C       		.uleb128 0xc
 550 0195 01       		.uleb128 0x1
 551 0196 50       		.byte	0x50
 552 0197 02       		.uleb128 0x2
 553 0198 08       		.byte	0x8
 554 0199 30       		.byte	0x30
 555 019a 00       		.byte	0
 556 019b 0E       		.uleb128 0xe
 557 019c 54000000 		.4byte	.LVL7
 558 01a0 00030000 		.4byte	0x300
 559 01a4 B0010000 		.4byte	0x1b0
 560 01a8 0C       		.uleb128 0xc
 561 01a9 01       		.uleb128 0x1
 562 01aa 50       		.byte	0x50
ARM GAS  C:\Users\ORA\AppData\Local\Temp\ccfmManb.s 			page 17


 563 01ab 03       		.uleb128 0x3
 564 01ac 0A       		.byte	0xa
 565 01ad D007     		.2byte	0x7d0
 566 01af 00       		.byte	0
 567 01b0 0E       		.uleb128 0xe
 568 01b1 5A000000 		.4byte	.LVL8
 569 01b5 0B030000 		.4byte	0x30b
 570 01b9 C5010000 		.4byte	0x1c5
 571 01bd 0C       		.uleb128 0xc
 572 01be 01       		.uleb128 0x1
 573 01bf 50       		.byte	0x50
 574 01c0 03       		.uleb128 0x3
 575 01c1 0A       		.byte	0xa
 576 01c2 DC05     		.2byte	0x5dc
 577 01c4 00       		.byte	0
 578 01c5 0E       		.uleb128 0xe
 579 01c6 72000000 		.4byte	.LVL9
 580 01ca 16030000 		.4byte	0x316
 581 01ce D8010000 		.4byte	0x1d8
 582 01d2 0C       		.uleb128 0xc
 583 01d3 01       		.uleb128 0x1
 584 01d4 50       		.byte	0x50
 585 01d5 01       		.uleb128 0x1
 586 01d6 38       		.byte	0x38
 587 01d7 00       		.byte	0
 588 01d8 0B       		.uleb128 0xb
 589 01d9 78000000 		.4byte	.LVL10
 590 01dd 21030000 		.4byte	0x321
 591 01e1 0C       		.uleb128 0xc
 592 01e2 01       		.uleb128 0x1
 593 01e3 50       		.byte	0x50
 594 01e4 01       		.uleb128 0x1
 595 01e5 38       		.byte	0x38
 596 01e6 00       		.byte	0
 597 01e7 00       		.byte	0
 598 01e8 0F       		.uleb128 0xf
 599 01e9 07010000 		.4byte	.LASF38
 600 01ed 01       		.byte	0x1
 601 01ee 0501     		.2byte	0x105
 602 01f0 B4000000 		.4byte	.LFB7
 603 01f4 B0000000 		.4byte	.LFE7-.LFB7
 604 01f8 01       		.uleb128 0x1
 605 01f9 9C       		.byte	0x9c
 606 01fa CB020000 		.4byte	0x2cb
 607 01fe 10       		.uleb128 0x10
 608 01ff BE000000 		.4byte	.LBB2
 609 0203 4C000000 		.4byte	.LBE2-.LBB2
 610 0207 B8020000 		.4byte	0x2b8
 611 020b 11       		.uleb128 0x11
 612 020c 06       		.byte	0x6
 613 020d 01       		.byte	0x1
 614 020e 0E01     		.2byte	0x10e
 615 0210 2F020000 		.4byte	0x22f
 616 0214 12       		.uleb128 0x12
 617 0215 14010000 		.4byte	.LASF22
 618 0219 01       		.byte	0x1
 619 021a 0F01     		.2byte	0x10f
ARM GAS  C:\Users\ORA\AppData\Local\Temp\ccfmManb.s 			page 18


 620 021c 84000000 		.4byte	0x84
 621 0220 00       		.byte	0
 622 0221 12       		.uleb128 0x12
 623 0222 6F000000 		.4byte	.LASF23
 624 0226 01       		.byte	0x1
 625 0227 1001     		.2byte	0x110
 626 0229 99000000 		.4byte	0x99
 627 022d 04       		.byte	0x4
 628 022e 00       		.byte	0
 629 022f 06       		.uleb128 0x6
 630 0230 C1010000 		.4byte	.LASF24
 631 0234 01       		.byte	0x1
 632 0235 1101     		.2byte	0x111
 633 0237 0B020000 		.4byte	0x20b
 634 023b 13       		.uleb128 0x13
 635 023c 4B020000 		.4byte	0x24b
 636 0240 4B020000 		.4byte	0x24b
 637 0244 14       		.uleb128 0x14
 638 0245 7D000000 		.4byte	0x7d
 639 0249 01       		.byte	0x1
 640 024a 00       		.byte	0
 641 024b 15       		.uleb128 0x15
 642 024c 2F020000 		.4byte	0x22f
 643 0250 16       		.uleb128 0x16
 644 0251 3B000000 		.4byte	.LASF25
 645 0255 01       		.byte	0x1
 646 0256 1301     		.2byte	0x113
 647 0258 62020000 		.4byte	0x262
 648 025c 05       		.uleb128 0x5
 649 025d 03       		.byte	0x3
 650 025e 00000000 		.4byte	cfg_memset_list.4893
 651 0262 15       		.uleb128 0x15
 652 0263 3B020000 		.4byte	0x23b
 653 0267 17       		.uleb128 0x17
 654 0268 6900     		.ascii	"i\000"
 655 026a 01       		.byte	0x1
 656 026b 1901     		.2byte	0x119
 657 026d 8D000000 		.4byte	0x8d
 658 0271 4D000000 		.4byte	.LLST2
 659 0275 18       		.uleb128 0x18
 660 0276 C2000000 		.4byte	.LBB3
 661 027a 1C000000 		.4byte	.LBE3-.LBB3
 662 027e 17       		.uleb128 0x17
 663 027f 6D7300   		.ascii	"ms\000"
 664 0282 01       		.byte	0x1
 665 0283 1E01     		.2byte	0x11e
 666 0285 8D020000 		.4byte	0x28d
 667 0289 77000000 		.4byte	.LLST3
 668 028d 19       		.uleb128 0x19
 669 028e 04       		.byte	0x4
 670 028f 4B020000 		.4byte	0x24b
 671 0293 0B       		.uleb128 0xb
 672 0294 DE000000 		.4byte	.LVL13
 673 0298 F2000000 		.4byte	0xf2
 674 029c 0C       		.uleb128 0xc
 675 029d 01       		.uleb128 0x1
 676 029e 51       		.byte	0x51
ARM GAS  C:\Users\ORA\AppData\Local\Temp\ccfmManb.s 			page 19


 677 029f 15       		.uleb128 0x15
 678 02a0 74       		.byte	0x74
 679 02a1 00       		.sleb128 0
 680 02a2 31       		.byte	0x31
 681 02a3 24       		.byte	0x24
 682 02a4 74       		.byte	0x74
 683 02a5 00       		.sleb128 0
 684 02a6 22       		.byte	0x22
 685 02a7 31       		.byte	0x31
 686 02a8 24       		.byte	0x24
 687 02a9 03       		.byte	0x3
 688 02aa 04000000 		.4byte	.LANCHOR0+4
 689 02ae 22       		.byte	0x22
 690 02af 94       		.byte	0x94
 691 02b0 02       		.byte	0x2
 692 02b1 0A       		.byte	0xa
 693 02b2 FFFF     		.2byte	0xffff
 694 02b4 1A       		.byte	0x1a
 695 02b5 00       		.byte	0
 696 02b6 00       		.byte	0
 697 02b7 00       		.byte	0
 698 02b8 0D       		.uleb128 0xd
 699 02b9 2E010000 		.4byte	.LVL16
 700 02bd 3F010000 		.4byte	0x13f
 701 02c1 0D       		.uleb128 0xd
 702 02c2 32010000 		.4byte	.LVL17
 703 02c6 E1000000 		.4byte	0xe1
 704 02ca 00       		.byte	0
 705 02cb 1A       		.uleb128 0x1a
 706 02cc D2000000 		.4byte	.LASF39
 707 02d0 D2000000 		.4byte	.LASF39
 708 02d4 1B       		.uleb128 0x1b
 709 02d5 A9000000 		.4byte	.LASF26
 710 02d9 A9000000 		.4byte	.LASF26
 711 02dd 04       		.byte	0x4
 712 02de 4E       		.byte	0x4e
 713 02df 1B       		.uleb128 0x1b
 714 02e0 00000000 		.4byte	.LASF27
 715 02e4 00000000 		.4byte	.LASF27
 716 02e8 05       		.byte	0x5
 717 02e9 DC       		.byte	0xdc
 718 02ea 1B       		.uleb128 0x1b
 719 02eb 74000000 		.4byte	.LASF28
 720 02ef 74000000 		.4byte	.LASF28
 721 02f3 04       		.byte	0x4
 722 02f4 50       		.byte	0x50
 723 02f5 1B       		.uleb128 0x1b
 724 02f6 0F020000 		.4byte	.LASF29
 725 02fa 0F020000 		.4byte	.LASF29
 726 02fe 05       		.byte	0x5
 727 02ff 6C       		.byte	0x6c
 728 0300 1B       		.uleb128 0x1b
 729 0301 F4010000 		.4byte	.LASF30
 730 0305 F4010000 		.4byte	.LASF30
 731 0309 05       		.byte	0x5
 732 030a 84       		.byte	0x84
 733 030b 1B       		.uleb128 0x1b
ARM GAS  C:\Users\ORA\AppData\Local\Temp\ccfmManb.s 			page 20


 734 030c E5010000 		.4byte	.LASF31
 735 0310 E5010000 		.4byte	.LASF31
 736 0314 05       		.byte	0x5
 737 0315 DA       		.byte	0xda
 738 0316 1B       		.uleb128 0x1b
 739 0317 2C000000 		.4byte	.LASF32
 740 031b 2C000000 		.4byte	.LASF32
 741 031f 05       		.byte	0x5
 742 0320 BD       		.byte	0xbd
 743 0321 1B       		.uleb128 0x1b
 744 0322 E0000000 		.4byte	.LASF33
 745 0326 E0000000 		.4byte	.LASF33
 746 032a 05       		.byte	0x5
 747 032b C3       		.byte	0xc3
 748 032c 00       		.byte	0
 749              		.section	.debug_abbrev,"",%progbits
 750              	.Ldebug_abbrev0:
 751 0000 01       		.uleb128 0x1
 752 0001 11       		.uleb128 0x11
 753 0002 01       		.byte	0x1
 754 0003 25       		.uleb128 0x25
 755 0004 0E       		.uleb128 0xe
 756 0005 13       		.uleb128 0x13
 757 0006 0B       		.uleb128 0xb
 758 0007 03       		.uleb128 0x3
 759 0008 0E       		.uleb128 0xe
 760 0009 1B       		.uleb128 0x1b
 761 000a 0E       		.uleb128 0xe
 762 000b 55       		.uleb128 0x55
 763 000c 17       		.uleb128 0x17
 764 000d 11       		.uleb128 0x11
 765 000e 01       		.uleb128 0x1
 766 000f 10       		.uleb128 0x10
 767 0010 17       		.uleb128 0x17
 768 0011 00       		.byte	0
 769 0012 00       		.byte	0
 770 0013 02       		.uleb128 0x2
 771 0014 24       		.uleb128 0x24
 772 0015 00       		.byte	0
 773 0016 0B       		.uleb128 0xb
 774 0017 0B       		.uleb128 0xb
 775 0018 3E       		.uleb128 0x3e
 776 0019 0B       		.uleb128 0xb
 777 001a 03       		.uleb128 0x3
 778 001b 08       		.uleb128 0x8
 779 001c 00       		.byte	0
 780 001d 00       		.byte	0
 781 001e 03       		.uleb128 0x3
 782 001f 16       		.uleb128 0x16
 783 0020 00       		.byte	0
 784 0021 03       		.uleb128 0x3
 785 0022 0E       		.uleb128 0xe
 786 0023 3A       		.uleb128 0x3a
 787 0024 0B       		.uleb128 0xb
 788 0025 3B       		.uleb128 0x3b
 789 0026 0B       		.uleb128 0xb
 790 0027 49       		.uleb128 0x49
ARM GAS  C:\Users\ORA\AppData\Local\Temp\ccfmManb.s 			page 21


 791 0028 13       		.uleb128 0x13
 792 0029 00       		.byte	0
 793 002a 00       		.byte	0
 794 002b 04       		.uleb128 0x4
 795 002c 24       		.uleb128 0x24
 796 002d 00       		.byte	0
 797 002e 0B       		.uleb128 0xb
 798 002f 0B       		.uleb128 0xb
 799 0030 3E       		.uleb128 0x3e
 800 0031 0B       		.uleb128 0xb
 801 0032 03       		.uleb128 0x3
 802 0033 0E       		.uleb128 0xe
 803 0034 00       		.byte	0
 804 0035 00       		.byte	0
 805 0036 05       		.uleb128 0x5
 806 0037 0F       		.uleb128 0xf
 807 0038 00       		.byte	0
 808 0039 0B       		.uleb128 0xb
 809 003a 0B       		.uleb128 0xb
 810 003b 00       		.byte	0
 811 003c 00       		.byte	0
 812 003d 06       		.uleb128 0x6
 813 003e 16       		.uleb128 0x16
 814 003f 00       		.byte	0
 815 0040 03       		.uleb128 0x3
 816 0041 0E       		.uleb128 0xe
 817 0042 3A       		.uleb128 0x3a
 818 0043 0B       		.uleb128 0xb
 819 0044 3B       		.uleb128 0x3b
 820 0045 05       		.uleb128 0x5
 821 0046 49       		.uleb128 0x49
 822 0047 13       		.uleb128 0x13
 823 0048 00       		.byte	0
 824 0049 00       		.byte	0
 825 004a 07       		.uleb128 0x7
 826 004b 35       		.uleb128 0x35
 827 004c 00       		.byte	0
 828 004d 49       		.uleb128 0x49
 829 004e 13       		.uleb128 0x13
 830 004f 00       		.byte	0
 831 0050 00       		.byte	0
 832 0051 08       		.uleb128 0x8
 833 0052 2E       		.uleb128 0x2e
 834 0053 00       		.byte	0
 835 0054 03       		.uleb128 0x3
 836 0055 0E       		.uleb128 0xe
 837 0056 3A       		.uleb128 0x3a
 838 0057 0B       		.uleb128 0xb
 839 0058 3B       		.uleb128 0x3b
 840 0059 0B       		.uleb128 0xb
 841 005a 27       		.uleb128 0x27
 842 005b 19       		.uleb128 0x19
 843 005c 11       		.uleb128 0x11
 844 005d 01       		.uleb128 0x1
 845 005e 12       		.uleb128 0x12
 846 005f 06       		.uleb128 0x6
 847 0060 40       		.uleb128 0x40
ARM GAS  C:\Users\ORA\AppData\Local\Temp\ccfmManb.s 			page 22


 848 0061 18       		.uleb128 0x18
 849 0062 9742     		.uleb128 0x2117
 850 0064 19       		.uleb128 0x19
 851 0065 00       		.byte	0
 852 0066 00       		.byte	0
 853 0067 09       		.uleb128 0x9
 854 0068 2E       		.uleb128 0x2e
 855 0069 01       		.byte	0x1
 856 006a 03       		.uleb128 0x3
 857 006b 0E       		.uleb128 0xe
 858 006c 3A       		.uleb128 0x3a
 859 006d 0B       		.uleb128 0xb
 860 006e 3B       		.uleb128 0x3b
 861 006f 0B       		.uleb128 0xb
 862 0070 27       		.uleb128 0x27
 863 0071 19       		.uleb128 0x19
 864 0072 11       		.uleb128 0x11
 865 0073 01       		.uleb128 0x1
 866 0074 12       		.uleb128 0x12
 867 0075 06       		.uleb128 0x6
 868 0076 40       		.uleb128 0x40
 869 0077 18       		.uleb128 0x18
 870 0078 9742     		.uleb128 0x2117
 871 007a 19       		.uleb128 0x19
 872 007b 01       		.uleb128 0x1
 873 007c 13       		.uleb128 0x13
 874 007d 00       		.byte	0
 875 007e 00       		.byte	0
 876 007f 0A       		.uleb128 0xa
 877 0080 05       		.uleb128 0x5
 878 0081 00       		.byte	0
 879 0082 03       		.uleb128 0x3
 880 0083 08       		.uleb128 0x8
 881 0084 3A       		.uleb128 0x3a
 882 0085 0B       		.uleb128 0xb
 883 0086 3B       		.uleb128 0x3b
 884 0087 0B       		.uleb128 0xb
 885 0088 49       		.uleb128 0x49
 886 0089 13       		.uleb128 0x13
 887 008a 02       		.uleb128 0x2
 888 008b 17       		.uleb128 0x17
 889 008c 00       		.byte	0
 890 008d 00       		.byte	0
 891 008e 0B       		.uleb128 0xb
 892 008f 898201   		.uleb128 0x4109
 893 0092 01       		.byte	0x1
 894 0093 11       		.uleb128 0x11
 895 0094 01       		.uleb128 0x1
 896 0095 31       		.uleb128 0x31
 897 0096 13       		.uleb128 0x13
 898 0097 00       		.byte	0
 899 0098 00       		.byte	0
 900 0099 0C       		.uleb128 0xc
 901 009a 8A8201   		.uleb128 0x410a
 902 009d 00       		.byte	0
 903 009e 02       		.uleb128 0x2
 904 009f 18       		.uleb128 0x18
ARM GAS  C:\Users\ORA\AppData\Local\Temp\ccfmManb.s 			page 23


 905 00a0 9142     		.uleb128 0x2111
 906 00a2 18       		.uleb128 0x18
 907 00a3 00       		.byte	0
 908 00a4 00       		.byte	0
 909 00a5 0D       		.uleb128 0xd
 910 00a6 898201   		.uleb128 0x4109
 911 00a9 00       		.byte	0
 912 00aa 11       		.uleb128 0x11
 913 00ab 01       		.uleb128 0x1
 914 00ac 31       		.uleb128 0x31
 915 00ad 13       		.uleb128 0x13
 916 00ae 00       		.byte	0
 917 00af 00       		.byte	0
 918 00b0 0E       		.uleb128 0xe
 919 00b1 898201   		.uleb128 0x4109
 920 00b4 01       		.byte	0x1
 921 00b5 11       		.uleb128 0x11
 922 00b6 01       		.uleb128 0x1
 923 00b7 31       		.uleb128 0x31
 924 00b8 13       		.uleb128 0x13
 925 00b9 01       		.uleb128 0x1
 926 00ba 13       		.uleb128 0x13
 927 00bb 00       		.byte	0
 928 00bc 00       		.byte	0
 929 00bd 0F       		.uleb128 0xf
 930 00be 2E       		.uleb128 0x2e
 931 00bf 01       		.byte	0x1
 932 00c0 3F       		.uleb128 0x3f
 933 00c1 19       		.uleb128 0x19
 934 00c2 03       		.uleb128 0x3
 935 00c3 0E       		.uleb128 0xe
 936 00c4 3A       		.uleb128 0x3a
 937 00c5 0B       		.uleb128 0xb
 938 00c6 3B       		.uleb128 0x3b
 939 00c7 05       		.uleb128 0x5
 940 00c8 27       		.uleb128 0x27
 941 00c9 19       		.uleb128 0x19
 942 00ca 11       		.uleb128 0x11
 943 00cb 01       		.uleb128 0x1
 944 00cc 12       		.uleb128 0x12
 945 00cd 06       		.uleb128 0x6
 946 00ce 40       		.uleb128 0x40
 947 00cf 18       		.uleb128 0x18
 948 00d0 9742     		.uleb128 0x2117
 949 00d2 19       		.uleb128 0x19
 950 00d3 01       		.uleb128 0x1
 951 00d4 13       		.uleb128 0x13
 952 00d5 00       		.byte	0
 953 00d6 00       		.byte	0
 954 00d7 10       		.uleb128 0x10
 955 00d8 0B       		.uleb128 0xb
 956 00d9 01       		.byte	0x1
 957 00da 11       		.uleb128 0x11
 958 00db 01       		.uleb128 0x1
 959 00dc 12       		.uleb128 0x12
 960 00dd 06       		.uleb128 0x6
 961 00de 01       		.uleb128 0x1
ARM GAS  C:\Users\ORA\AppData\Local\Temp\ccfmManb.s 			page 24


 962 00df 13       		.uleb128 0x13
 963 00e0 00       		.byte	0
 964 00e1 00       		.byte	0
 965 00e2 11       		.uleb128 0x11
 966 00e3 13       		.uleb128 0x13
 967 00e4 01       		.byte	0x1
 968 00e5 0B       		.uleb128 0xb
 969 00e6 0B       		.uleb128 0xb
 970 00e7 3A       		.uleb128 0x3a
 971 00e8 0B       		.uleb128 0xb
 972 00e9 3B       		.uleb128 0x3b
 973 00ea 05       		.uleb128 0x5
 974 00eb 01       		.uleb128 0x1
 975 00ec 13       		.uleb128 0x13
 976 00ed 00       		.byte	0
 977 00ee 00       		.byte	0
 978 00ef 12       		.uleb128 0x12
 979 00f0 0D       		.uleb128 0xd
 980 00f1 00       		.byte	0
 981 00f2 03       		.uleb128 0x3
 982 00f3 0E       		.uleb128 0xe
 983 00f4 3A       		.uleb128 0x3a
 984 00f5 0B       		.uleb128 0xb
 985 00f6 3B       		.uleb128 0x3b
 986 00f7 05       		.uleb128 0x5
 987 00f8 49       		.uleb128 0x49
 988 00f9 13       		.uleb128 0x13
 989 00fa 38       		.uleb128 0x38
 990 00fb 0B       		.uleb128 0xb
 991 00fc 00       		.byte	0
 992 00fd 00       		.byte	0
 993 00fe 13       		.uleb128 0x13
 994 00ff 01       		.uleb128 0x1
 995 0100 01       		.byte	0x1
 996 0101 49       		.uleb128 0x49
 997 0102 13       		.uleb128 0x13
 998 0103 01       		.uleb128 0x1
 999 0104 13       		.uleb128 0x13
 1000 0105 00       		.byte	0
 1001 0106 00       		.byte	0
 1002 0107 14       		.uleb128 0x14
 1003 0108 21       		.uleb128 0x21
 1004 0109 00       		.byte	0
 1005 010a 49       		.uleb128 0x49
 1006 010b 13       		.uleb128 0x13
 1007 010c 2F       		.uleb128 0x2f
 1008 010d 0B       		.uleb128 0xb
 1009 010e 00       		.byte	0
 1010 010f 00       		.byte	0
 1011 0110 15       		.uleb128 0x15
 1012 0111 26       		.uleb128 0x26
 1013 0112 00       		.byte	0
 1014 0113 49       		.uleb128 0x49
 1015 0114 13       		.uleb128 0x13
 1016 0115 00       		.byte	0
 1017 0116 00       		.byte	0
 1018 0117 16       		.uleb128 0x16
ARM GAS  C:\Users\ORA\AppData\Local\Temp\ccfmManb.s 			page 25


 1019 0118 34       		.uleb128 0x34
 1020 0119 00       		.byte	0
 1021 011a 03       		.uleb128 0x3
 1022 011b 0E       		.uleb128 0xe
 1023 011c 3A       		.uleb128 0x3a
 1024 011d 0B       		.uleb128 0xb
 1025 011e 3B       		.uleb128 0x3b
 1026 011f 05       		.uleb128 0x5
 1027 0120 49       		.uleb128 0x49
 1028 0121 13       		.uleb128 0x13
 1029 0122 02       		.uleb128 0x2
 1030 0123 18       		.uleb128 0x18
 1031 0124 00       		.byte	0
 1032 0125 00       		.byte	0
 1033 0126 17       		.uleb128 0x17
 1034 0127 34       		.uleb128 0x34
 1035 0128 00       		.byte	0
 1036 0129 03       		.uleb128 0x3
 1037 012a 08       		.uleb128 0x8
 1038 012b 3A       		.uleb128 0x3a
 1039 012c 0B       		.uleb128 0xb
 1040 012d 3B       		.uleb128 0x3b
 1041 012e 05       		.uleb128 0x5
 1042 012f 49       		.uleb128 0x49
 1043 0130 13       		.uleb128 0x13
 1044 0131 02       		.uleb128 0x2
 1045 0132 17       		.uleb128 0x17
 1046 0133 00       		.byte	0
 1047 0134 00       		.byte	0
 1048 0135 18       		.uleb128 0x18
 1049 0136 0B       		.uleb128 0xb
 1050 0137 01       		.byte	0x1
 1051 0138 11       		.uleb128 0x11
 1052 0139 01       		.uleb128 0x1
 1053 013a 12       		.uleb128 0x12
 1054 013b 06       		.uleb128 0x6
 1055 013c 00       		.byte	0
 1056 013d 00       		.byte	0
 1057 013e 19       		.uleb128 0x19
 1058 013f 0F       		.uleb128 0xf
 1059 0140 00       		.byte	0
 1060 0141 0B       		.uleb128 0xb
 1061 0142 0B       		.uleb128 0xb
 1062 0143 49       		.uleb128 0x49
 1063 0144 13       		.uleb128 0x13
 1064 0145 00       		.byte	0
 1065 0146 00       		.byte	0
 1066 0147 1A       		.uleb128 0x1a
 1067 0148 2E       		.uleb128 0x2e
 1068 0149 00       		.byte	0
 1069 014a 3F       		.uleb128 0x3f
 1070 014b 19       		.uleb128 0x19
 1071 014c 3C       		.uleb128 0x3c
 1072 014d 19       		.uleb128 0x19
 1073 014e 6E       		.uleb128 0x6e
 1074 014f 0E       		.uleb128 0xe
 1075 0150 03       		.uleb128 0x3
ARM GAS  C:\Users\ORA\AppData\Local\Temp\ccfmManb.s 			page 26


 1076 0151 0E       		.uleb128 0xe
 1077 0152 00       		.byte	0
 1078 0153 00       		.byte	0
 1079 0154 1B       		.uleb128 0x1b
 1080 0155 2E       		.uleb128 0x2e
 1081 0156 00       		.byte	0
 1082 0157 3F       		.uleb128 0x3f
 1083 0158 19       		.uleb128 0x19
 1084 0159 3C       		.uleb128 0x3c
 1085 015a 19       		.uleb128 0x19
 1086 015b 6E       		.uleb128 0x6e
 1087 015c 0E       		.uleb128 0xe
 1088 015d 03       		.uleb128 0x3
 1089 015e 0E       		.uleb128 0xe
 1090 015f 3A       		.uleb128 0x3a
 1091 0160 0B       		.uleb128 0xb
 1092 0161 3B       		.uleb128 0x3b
 1093 0162 0B       		.uleb128 0xb
 1094 0163 00       		.byte	0
 1095 0164 00       		.byte	0
 1096 0165 00       		.byte	0
 1097              		.section	.debug_loc,"",%progbits
 1098              	.Ldebug_loc0:
 1099              	.LLST0:
 1100 0000 00000000 		.4byte	.LVL0
 1101 0004 09000000 		.4byte	.LVL2-1
 1102 0008 0100     		.2byte	0x1
 1103 000a 50       		.byte	0x50
 1104 000b 09000000 		.4byte	.LVL2-1
 1105 000f 0C000000 		.4byte	.LFE2
 1106 0013 0400     		.2byte	0x4
 1107 0015 F3       		.byte	0xf3
 1108 0016 01       		.uleb128 0x1
 1109 0017 50       		.byte	0x50
 1110 0018 9F       		.byte	0x9f
 1111 0019 00000000 		.4byte	0
 1112 001d 00000000 		.4byte	0
 1113              	.LLST1:
 1114 0021 00000000 		.4byte	.LVL0
 1115 0025 06000000 		.4byte	.LVL1
 1116 0029 0100     		.2byte	0x1
 1117 002b 51       		.byte	0x51
 1118 002c 06000000 		.4byte	.LVL1
 1119 0030 09000000 		.4byte	.LVL2-1
 1120 0034 0100     		.2byte	0x1
 1121 0036 52       		.byte	0x52
 1122 0037 09000000 		.4byte	.LVL2-1
 1123 003b 0C000000 		.4byte	.LFE2
 1124 003f 0400     		.2byte	0x4
 1125 0041 F3       		.byte	0xf3
 1126 0042 01       		.uleb128 0x1
 1127 0043 51       		.byte	0x51
 1128 0044 9F       		.byte	0x9f
 1129 0045 00000000 		.4byte	0
 1130 0049 00000000 		.4byte	0
 1131              	.LLST2:
 1132 004d BE000000 		.4byte	.LVL11
ARM GAS  C:\Users\ORA\AppData\Local\Temp\ccfmManb.s 			page 27


 1133 0051 C2000000 		.4byte	.LVL12
 1134 0055 0200     		.2byte	0x2
 1135 0057 30       		.byte	0x30
 1136 0058 9F       		.byte	0x9f
 1137 0059 C2000000 		.4byte	.LVL12
 1138 005d E0000000 		.4byte	.LVL14
 1139 0061 0100     		.2byte	0x1
 1140 0063 54       		.byte	0x54
 1141 0064 E2000000 		.4byte	.LVL15
 1142 0068 32010000 		.4byte	.LVL18
 1143 006c 0100     		.2byte	0x1
 1144 006e 54       		.byte	0x54
 1145 006f 00000000 		.4byte	0
 1146 0073 00000000 		.4byte	0
 1147              	.LLST3:
 1148 0077 C2000000 		.4byte	.LVL12
 1149 007b E0000000 		.4byte	.LVL14
 1150 007f 0B00     		.2byte	0xb
 1151 0081 74       		.byte	0x74
 1152 0082 00       		.sleb128 0
 1153 0083 36       		.byte	0x36
 1154 0084 1E       		.byte	0x1e
 1155 0085 03       		.byte	0x3
 1156 0086 00000000 		.4byte	cfg_memset_list.4893
 1157 008a 22       		.byte	0x22
 1158 008b 9F       		.byte	0x9f
 1159 008c E0000000 		.4byte	.LVL14
 1160 0090 E2000000 		.4byte	.LVL15
 1161 0094 0B00     		.2byte	0xb
 1162 0096 74       		.byte	0x74
 1163 0097 7F       		.sleb128 -1
 1164 0098 36       		.byte	0x36
 1165 0099 1E       		.byte	0x1e
 1166 009a 03       		.byte	0x3
 1167 009b 00000000 		.4byte	cfg_memset_list.4893
 1168 009f 22       		.byte	0x22
 1169 00a0 9F       		.byte	0x9f
 1170 00a1 00000000 		.4byte	0
 1171 00a5 00000000 		.4byte	0
 1172              		.section	.debug_aranges,"",%progbits
 1173 0000 34000000 		.4byte	0x34
 1174 0004 0200     		.2byte	0x2
 1175 0006 00000000 		.4byte	.Ldebug_info0
 1176 000a 04       		.byte	0x4
 1177 000b 00       		.byte	0
 1178 000c 0000     		.2byte	0
 1179 000e 0000     		.2byte	0
 1180 0010 00000000 		.4byte	.LFB6
 1181 0014 20000000 		.4byte	.LFE6-.LFB6
 1182 0018 00000000 		.4byte	.LFB2
 1183 001c 0C000000 		.4byte	.LFE2-.LFB2
 1184 0020 00000000 		.4byte	.LFB5
 1185 0024 B4000000 		.4byte	.LFE5-.LFB5
 1186 0028 B4000000 		.4byte	.LFB7
 1187 002c B0000000 		.4byte	.LFE7-.LFB7
 1188 0030 00000000 		.4byte	0
 1189 0034 00000000 		.4byte	0
ARM GAS  C:\Users\ORA\AppData\Local\Temp\ccfmManb.s 			page 28


 1190              		.section	.debug_ranges,"",%progbits
 1191              	.Ldebug_ranges0:
 1192 0000 00000000 		.4byte	.LFB6
 1193 0004 20000000 		.4byte	.LFE6
 1194 0008 00000000 		.4byte	.LFB2
 1195 000c 0C000000 		.4byte	.LFE2
 1196 0010 00000000 		.4byte	.LFB5
 1197 0014 B4000000 		.4byte	.LFE5
 1198 0018 B4000000 		.4byte	.LFB7
 1199 001c 64010000 		.4byte	.LFE7
 1200 0020 00000000 		.4byte	0
 1201 0024 00000000 		.4byte	0
 1202              		.section	.debug_line,"",%progbits
 1203              	.Ldebug_line0:
 1204 0000 59010000 		.section	.debug_str,"MS",%progbits,1
 1204      0200E300 
 1204      00000201 
 1204      FB0E0D00 
 1204      01010101 
 1205              	.LASF27:
 1206 0000 43794465 		.ascii	"CyDelayCycles\000"
 1206      6C617943 
 1206      79636C65 
 1206      7300
 1207              	.LASF19:
 1208 000e 72656733 		.ascii	"reg32\000"
 1208      3200
 1209              	.LASF12:
 1210 0014 73697A65 		.ascii	"size_t\000"
 1210      5F7400
 1211              	.LASF37:
 1212 001b 416E616C 		.ascii	"AnalogSetDefault\000"
 1212      6F675365 
 1212      74446566 
 1212      61756C74 
 1212      00
 1213              	.LASF32:
 1214 002c 4379496E 		.ascii	"CyIntSetVector\000"
 1214      74536574 
 1214      56656374 
 1214      6F7200
 1215              	.LASF25:
 1216 003b 6366675F 		.ascii	"cfg_memset_list\000"
 1216      6D656D73 
 1216      65745F6C 
 1216      69737400 
 1217              	.LASF21:
 1218 004b 436C6F63 		.ascii	"ClockSetup\000"
 1218      6B536574 
 1218      757000
 1219              	.LASF6:
 1220 0056 73686F72 		.ascii	"short unsigned int\000"
 1220      7420756E 
 1220      7369676E 
 1220      65642069 
 1220      6E7400
 1221              	.LASF16:
ARM GAS  C:\Users\ORA\AppData\Local\Temp\ccfmManb.s 			page 29


 1222 0069 666C6F61 		.ascii	"float\000"
 1222      7400
 1223              	.LASF23:
 1224 006f 73697A65 		.ascii	"size\000"
 1224      00
 1225              	.LASF28:
 1226 0074 43795379 		.ascii	"CySysClkWcoSetPowerMode\000"
 1226      73436C6B 
 1226      57636F53 
 1226      6574506F 
 1226      7765724D 
 1227              	.LASF18:
 1228 008c 72656738 		.ascii	"reg8\000"
 1228      00
 1229              	.LASF8:
 1230 0091 6C6F6E67 		.ascii	"long unsigned int\000"
 1230      20756E73 
 1230      69676E65 
 1230      6420696E 
 1230      7400
 1231              	.LASF13:
 1232 00a3 75696E74 		.ascii	"uint8\000"
 1232      3800
 1233              	.LASF26:
 1234 00a9 43795379 		.ascii	"CySysClkWcoStart\000"
 1234      73436C6B 
 1234      57636F53 
 1234      74617274 
 1234      00
 1235              	.LASF20:
 1236 00ba 43594D45 		.ascii	"CYMEMZERO\000"
 1236      4D5A4552 
 1236      4F00
 1237              	.LASF4:
 1238 00c4 756E7369 		.ascii	"unsigned char\000"
 1238      676E6564 
 1238      20636861 
 1238      7200
 1239              	.LASF39:
 1240 00d2 6D656D73 		.ascii	"memset\000"
 1240      657400
 1241              	.LASF17:
 1242 00d9 646F7562 		.ascii	"double\000"
 1242      6C6500
 1243              	.LASF33:
 1244 00e0 4379496E 		.ascii	"CyIntEnable\000"
 1244      74456E61 
 1244      626C6500 
 1245              	.LASF14:
 1246 00ec 75696E74 		.ascii	"uint16\000"
 1246      313600
 1247              	.LASF15:
 1248 00f3 75696E74 		.ascii	"uint32\000"
 1248      333200
 1249              	.LASF0:
 1250 00fa 756E7369 		.ascii	"unsigned int\000"
 1250      676E6564 
ARM GAS  C:\Users\ORA\AppData\Local\Temp\ccfmManb.s 			page 30


 1250      20696E74 
 1250      00
 1251              	.LASF38:
 1252 0107 63796669 		.ascii	"cyfitter_cfg\000"
 1252      74746572 
 1252      5F636667 
 1252      00
 1253              	.LASF22:
 1254 0114 61646472 		.ascii	"address\000"
 1254      65737300 
 1255              	.LASF9:
 1256 011c 6C6F6E67 		.ascii	"long long unsigned int\000"
 1256      206C6F6E 
 1256      6720756E 
 1256      7369676E 
 1256      65642069 
 1257              	.LASF34:
 1258 0133 474E5520 		.ascii	"GNU C11 5.4.1 20160609 (release) [ARM/embedded-5-br"
 1258      43313120 
 1258      352E342E 
 1258      31203230 
 1258      31363036 
 1259 0166 616E6368 		.ascii	"anch revision 237715] -mcpu=cortex-m0 -mthumb -g -O"
 1259      20726576 
 1259      6973696F 
 1259      6E203233 
 1259      37373135 
 1260 0199 67202D66 		.ascii	"g -ffunction-sections -ffat-lto-objects\000"
 1260      66756E63 
 1260      74696F6E 
 1260      2D736563 
 1260      74696F6E 
 1261              	.LASF24:
 1262 01c1 6366675F 		.ascii	"cfg_memset_t\000"
 1262      6D656D73 
 1262      65745F74 
 1262      00
 1263              	.LASF10:
 1264 01ce 73697A65 		.ascii	"sizetype\000"
 1264      74797065 
 1264      00
 1265              	.LASF1:
 1266 01d7 6C6F6E67 		.ascii	"long long int\000"
 1266      206C6F6E 
 1266      6720696E 
 1266      7400
 1267              	.LASF31:
 1268 01e5 43794465 		.ascii	"CyDelayUs\000"
 1268      6C617955 
 1268      7300
 1269              	.LASF11:
 1270 01ef 63686172 		.ascii	"char\000"
 1270      00
 1271              	.LASF30:
 1272 01f4 43795379 		.ascii	"CySysClkEcoStart\000"
 1272      73436C6B 
 1272      45636F53 
ARM GAS  C:\Users\ORA\AppData\Local\Temp\ccfmManb.s 			page 31


 1272      74617274 
 1272      00
 1273              	.LASF5:
 1274 0205 73686F72 		.ascii	"short int\000"
 1274      7420696E 
 1274      7400
 1275              	.LASF29:
 1276 020f 43795379 		.ascii	"CySysClkWriteImoFreq\000"
 1276      73436C6B 
 1276      57726974 
 1276      65496D6F 
 1276      46726571 
 1277              	.LASF36:
 1278 0224 433A5C55 		.ascii	"C:\\Users\\ORA\\OneDrive - PetNovations\\Cypress - "
 1278      73657273 
 1278      5C4F5241 
 1278      5C4F6E65 
 1278      44726976 
 1279 0253 424C455C 		.ascii	"BLE\\Lessons\\Lesson01_LED_output.cydsn\000"
 1279      4C657373 
 1279      6F6E735C 
 1279      4C657373 
 1279      6F6E3031 
 1280              	.LASF7:
 1281 0279 6C6F6E67 		.ascii	"long int\000"
 1281      20696E74 
 1281      00
 1282              	.LASF2:
 1283 0282 6C6F6E67 		.ascii	"long double\000"
 1283      20646F75 
 1283      626C6500 
 1284              	.LASF3:
 1285 028e 7369676E 		.ascii	"signed char\000"
 1285      65642063 
 1285      68617200 
 1286              	.LASF35:
 1287 029a 47656E65 		.ascii	"Generated_Source\\PSoC4\\cyfitter_cfg.c\000"
 1287      72617465 
 1287      645F536F 
 1287      75726365 
 1287      5C50536F 
 1288              		.ident	"GCC: (GNU Tools for ARM Embedded Processors) 5.4.1 20160609 (release) [ARM/embedded-5-bran
